#Number of vertices:
4
#Vertex 0:
-0.049 -0.051 0.004
#Vertex 1:
-0.049 -0.05 0.004
#Vertex 2:
0.049 -0.05 0.004
#Vertex 3:
0.049 -0.051 0.004
#Outward normal:
0 0 1
#Volume references:
6 -1
#Maximum number of segments:
0 0
#Information on X periodicity:
0 0 0
#Information on Y periodicity:
0 0 0
#Information on Z periodicity:
0 0 0
