#Number of vertices:
3
#Vertex 0:
-0.0480588 0.049 0.004
#Vertex 1:
-0.0480588 -0.001 0.004
#Vertex 2:
-0.001 -0.001 0.004
#Outward normal:
-0 -0 -1
#Volume references:
2 -1
#Maximum number of segments:
0 0
#Information on X periodicity:
0 0 0
#Information on Y periodicity:
0 0 0
#Information on Z periodicity:
0 0 0
