#Number of vertices:
4
#Vertex 0:
-0.05 0.05 -0.0051
#Vertex 1:
-0.05 0.05 -0.004
#Vertex 2:
-0.05 -0.05 -0.004
#Vertex 3:
-0.05 -0.05 -0.0051
#Outward normal:
-1 -0 0
#Volume references:
1 -1
#Maximum number of segments:
0 0
#Information on X periodicity:
0 0 0
#Information on Y periodicity:
0 0 0
#Information on Z periodicity:
0 0 0
