0.047619	-0.047619	0.0051
0.0428571	-0.047619	0.0051
0.0380952	-0.047619	0.0051
0.0333333	-0.047619	0.0051
0.0285714	-0.047619	0.0051
0.0238095	-0.047619	0.0051
0.0190476	-0.047619	0.0051
0.0142857	-0.047619	0.0051
0.00952381	-0.047619	0.0051
0.0047619	-0.047619	0.0051
-3.46945e-18	-0.047619	0.0051
-0.0047619	-0.047619	0.0051
-0.00952381	-0.047619	0.0051
-0.0142857	-0.047619	0.0051
-0.0190476	-0.047619	0.0051
-0.0238095	-0.047619	0.0051
-0.0285714	-0.047619	0.0051
-0.0333333	-0.047619	0.0051
-0.0380952	-0.047619	0.0051
-0.0428571	-0.047619	0.0051
-0.047619	-0.047619	0.0051
0.047619	-0.0428571	0.0051
0.0428571	-0.0428571	0.0051
0.0380952	-0.0428571	0.0051
0.0333333	-0.0428571	0.0051
0.0285714	-0.0428571	0.0051
0.0238095	-0.0428571	0.0051
0.0190476	-0.0428571	0.0051
0.0142857	-0.0428571	0.0051
0.00952381	-0.0428571	0.0051
0.0047619	-0.0428571	0.0051
-3.46945e-18	-0.0428571	0.0051
-0.0047619	-0.0428571	0.0051
-0.00952381	-0.0428571	0.0051
-0.0142857	-0.0428571	0.0051
-0.0190476	-0.0428571	0.0051
-0.0238095	-0.0428571	0.0051
-0.0285714	-0.0428571	0.0051
-0.0333333	-0.0428571	0.0051
-0.0380952	-0.0428571	0.0051
-0.0428571	-0.0428571	0.0051
-0.047619	-0.0428571	0.0051
0.047619	-0.0380952	0.0051
0.0428571	-0.0380952	0.0051
0.0380952	-0.0380952	0.0051
0.0333333	-0.0380952	0.0051
0.0285714	-0.0380952	0.0051
0.0238095	-0.0380952	0.0051
0.0190476	-0.0380952	0.0051
0.0142857	-0.0380952	0.0051
0.00952381	-0.0380952	0.0051
0.0047619	-0.0380952	0.0051
-3.46945e-18	-0.0380952	0.0051
-0.0047619	-0.0380952	0.0051
-0.00952381	-0.0380952	0.0051
-0.0142857	-0.0380952	0.0051
-0.0190476	-0.0380952	0.0051
-0.0238095	-0.0380952	0.0051
-0.0285714	-0.0380952	0.0051
-0.0333333	-0.0380952	0.0051
-0.0380952	-0.0380952	0.0051
-0.0428571	-0.0380952	0.0051
-0.047619	-0.0380952	0.0051
0.047619	-0.0333333	0.0051
0.0428571	-0.0333333	0.0051
0.0380952	-0.0333333	0.0051
0.0333333	-0.0333333	0.0051
0.0285714	-0.0333333	0.0051
0.0238095	-0.0333333	0.0051
0.0190476	-0.0333333	0.0051
0.0142857	-0.0333333	0.0051
0.00952381	-0.0333333	0.0051
0.0047619	-0.0333333	0.0051
-3.46945e-18	-0.0333333	0.0051
-0.0047619	-0.0333333	0.0051
-0.00952381	-0.0333333	0.0051
-0.0142857	-0.0333333	0.0051
-0.0190476	-0.0333333	0.0051
-0.0238095	-0.0333333	0.0051
-0.0285714	-0.0333333	0.0051
-0.0333333	-0.0333333	0.0051
-0.0380952	-0.0333333	0.0051
-0.0428571	-0.0333333	0.0051
-0.047619	-0.0333333	0.0051
0.047619	-0.0285714	0.0051
0.0428571	-0.0285714	0.0051
0.0380952	-0.0285714	0.0051
0.0333333	-0.0285714	0.0051
0.0285714	-0.0285714	0.0051
0.0238095	-0.0285714	0.0051
0.0190476	-0.0285714	0.0051
0.0142857	-0.0285714	0.0051
0.00952381	-0.0285714	0.0051
0.0047619	-0.0285714	0.0051
-3.46945e-18	-0.0285714	0.0051
-0.0047619	-0.0285714	0.0051
-0.00952381	-0.0285714	0.0051
-0.0142857	-0.0285714	0.0051
-0.0190476	-0.0285714	0.0051
-0.0238095	-0.0285714	0.0051
-0.0285714	-0.0285714	0.0051
-0.0333333	-0.0285714	0.0051
-0.0380952	-0.0285714	0.0051
-0.0428571	-0.0285714	0.0051
-0.047619	-0.0285714	0.0051
0.047619	-0.0238095	0.0051
0.0428571	-0.0238095	0.0051
0.0380952	-0.0238095	0.0051
0.0333333	-0.0238095	0.0051
0.0285714	-0.0238095	0.0051
0.0238095	-0.0238095	0.0051
0.0190476	-0.0238095	0.0051
0.0142857	-0.0238095	0.0051
0.00952381	-0.0238095	0.0051
0.0047619	-0.0238095	0.0051
-3.46945e-18	-0.0238095	0.0051
-0.0047619	-0.0238095	0.0051
-0.00952381	-0.0238095	0.0051
-0.0142857	-0.0238095	0.0051
-0.0190476	-0.0238095	0.0051
-0.0238095	-0.0238095	0.0051
-0.0285714	-0.0238095	0.0051
-0.0333333	-0.0238095	0.0051
-0.0380952	-0.0238095	0.0051
-0.0428571	-0.0238095	0.0051
-0.047619	-0.0238095	0.0051
0.047619	-0.0190476	0.0051
0.0428571	-0.0190476	0.0051
0.0380952	-0.0190476	0.0051
0.0333333	-0.0190476	0.0051
0.0285714	-0.0190476	0.0051
0.0238095	-0.0190476	0.0051
0.0190476	-0.0190476	0.0051
0.0142857	-0.0190476	0.0051
0.00952381	-0.0190476	0.0051
0.0047619	-0.0190476	0.0051
-3.46945e-18	-0.0190476	0.0051
-0.0047619	-0.0190476	0.0051
-0.00952381	-0.0190476	0.0051
-0.0142857	-0.0190476	0.0051
-0.0190476	-0.0190476	0.0051
-0.0238095	-0.0190476	0.0051
-0.0285714	-0.0190476	0.0051
-0.0333333	-0.0190476	0.0051
-0.0380952	-0.0190476	0.0051
-0.0428571	-0.0190476	0.0051
-0.047619	-0.0190476	0.0051
0.047619	-0.0142857	0.0051
0.0428571	-0.0142857	0.0051
0.0380952	-0.0142857	0.0051
0.0333333	-0.0142857	0.0051
0.0285714	-0.0142857	0.0051
0.0238095	-0.0142857	0.0051
0.0190476	-0.0142857	0.0051
0.0142857	-0.0142857	0.0051
0.00952381	-0.0142857	0.0051
0.0047619	-0.0142857	0.0051
-3.46945e-18	-0.0142857	0.0051
-0.0047619	-0.0142857	0.0051
-0.00952381	-0.0142857	0.0051
-0.0142857	-0.0142857	0.0051
-0.0190476	-0.0142857	0.0051
-0.0238095	-0.0142857	0.0051
-0.0285714	-0.0142857	0.0051
-0.0333333	-0.0142857	0.0051
-0.0380952	-0.0142857	0.0051
-0.0428571	-0.0142857	0.0051
-0.047619	-0.0142857	0.0051
0.047619	-0.00952381	0.0051
0.0428571	-0.00952381	0.0051
0.0380952	-0.00952381	0.0051
0.0333333	-0.00952381	0.0051
0.0285714	-0.00952381	0.0051
0.0238095	-0.00952381	0.0051
0.0190476	-0.00952381	0.0051
0.0142857	-0.00952381	0.0051
0.00952381	-0.00952381	0.0051
0.0047619	-0.00952381	0.0051
-3.46945e-18	-0.00952381	0.0051
-0.0047619	-0.00952381	0.0051
-0.00952381	-0.00952381	0.0051
-0.0142857	-0.00952381	0.0051
-0.0190476	-0.00952381	0.0051
-0.0238095	-0.00952381	0.0051
-0.0285714	-0.00952381	0.0051
-0.0333333	-0.00952381	0.0051
-0.0380952	-0.00952381	0.0051
-0.0428571	-0.00952381	0.0051
-0.047619	-0.00952381	0.0051
0.047619	-0.0047619	0.0051
0.0428571	-0.0047619	0.0051
0.0380952	-0.0047619	0.0051
0.0333333	-0.0047619	0.0051
0.0285714	-0.0047619	0.0051
0.0238095	-0.0047619	0.0051
0.0190476	-0.0047619	0.0051
0.0142857	-0.0047619	0.0051
0.00952381	-0.0047619	0.0051
0.0047619	-0.0047619	0.0051
-3.46945e-18	-0.0047619	0.0051
-0.0047619	-0.0047619	0.0051
-0.00952381	-0.0047619	0.0051
-0.0142857	-0.0047619	0.0051
-0.0190476	-0.0047619	0.0051
-0.0238095	-0.0047619	0.0051
-0.0285714	-0.0047619	0.0051
-0.0333333	-0.0047619	0.0051
-0.0380952	-0.0047619	0.0051
-0.0428571	-0.0047619	0.0051
-0.047619	-0.0047619	0.0051
0.047619	3.46945e-18	0.0051
0.0428571	3.46945e-18	0.0051
0.0380952	3.46945e-18	0.0051
0.0333333	3.46945e-18	0.0051
0.0285714	3.46945e-18	0.0051
0.0238095	3.46945e-18	0.0051
0.0190476	3.46945e-18	0.0051
0.0142857	3.46945e-18	0.0051
0.00952381	3.46945e-18	0.0051
0.0047619	3.46945e-18	0.0051
-3.46945e-18	3.46945e-18	0.0051
-0.0047619	3.46945e-18	0.0051
-0.00952381	3.46945e-18	0.0051
-0.0142857	3.46945e-18	0.0051
-0.0190476	3.46945e-18	0.0051
-0.0238095	3.46945e-18	0.0051
-0.0285714	3.46945e-18	0.0051
-0.0333333	3.46945e-18	0.0051
-0.0380952	3.46945e-18	0.0051
-0.0428571	3.46945e-18	0.0051
-0.047619	3.46945e-18	0.0051
0.047619	0.0047619	0.0051
0.0428571	0.0047619	0.0051
0.0380952	0.0047619	0.0051
0.0333333	0.0047619	0.0051
0.0285714	0.0047619	0.0051
0.0238095	0.0047619	0.0051
0.0190476	0.0047619	0.0051
0.0142857	0.0047619	0.0051
0.00952381	0.0047619	0.0051
0.0047619	0.0047619	0.0051
-3.46945e-18	0.0047619	0.0051
-0.0047619	0.0047619	0.0051
-0.00952381	0.0047619	0.0051
-0.0142857	0.0047619	0.0051
-0.0190476	0.0047619	0.0051
-0.0238095	0.0047619	0.0051
-0.0285714	0.0047619	0.0051
-0.0333333	0.0047619	0.0051
-0.0380952	0.0047619	0.0051
-0.0428571	0.0047619	0.0051
-0.047619	0.0047619	0.0051
0.047619	0.00952381	0.0051
0.0428571	0.00952381	0.0051
0.0380952	0.00952381	0.0051
0.0333333	0.00952381	0.0051
0.0285714	0.00952381	0.0051
0.0238095	0.00952381	0.0051
0.0190476	0.00952381	0.0051
0.0142857	0.00952381	0.0051
0.00952381	0.00952381	0.0051
0.0047619	0.00952381	0.0051
-3.46945e-18	0.00952381	0.0051
-0.0047619	0.00952381	0.0051
-0.00952381	0.00952381	0.0051
-0.0142857	0.00952381	0.0051
-0.0190476	0.00952381	0.0051
-0.0238095	0.00952381	0.0051
-0.0285714	0.00952381	0.0051
-0.0333333	0.00952381	0.0051
-0.0380952	0.00952381	0.0051
-0.0428571	0.00952381	0.0051
-0.047619	0.00952381	0.0051
0.047619	0.0142857	0.0051
0.0428571	0.0142857	0.0051
0.0380952	0.0142857	0.0051
0.0333333	0.0142857	0.0051
0.0285714	0.0142857	0.0051
0.0238095	0.0142857	0.0051
0.0190476	0.0142857	0.0051
0.0142857	0.0142857	0.0051
0.00952381	0.0142857	0.0051
0.0047619	0.0142857	0.0051
-3.46945e-18	0.0142857	0.0051
-0.0047619	0.0142857	0.0051
-0.00952381	0.0142857	0.0051
-0.0142857	0.0142857	0.0051
-0.0190476	0.0142857	0.0051
-0.0238095	0.0142857	0.0051
-0.0285714	0.0142857	0.0051
-0.0333333	0.0142857	0.0051
-0.0380952	0.0142857	0.0051
-0.0428571	0.0142857	0.0051
-0.047619	0.0142857	0.0051
0.047619	0.0190476	0.0051
0.0428571	0.0190476	0.0051
0.0380952	0.0190476	0.0051
0.0333333	0.0190476	0.0051
0.0285714	0.0190476	0.0051
0.0238095	0.0190476	0.0051
0.0190476	0.0190476	0.0051
0.0142857	0.0190476	0.0051
0.00952381	0.0190476	0.0051
0.0047619	0.0190476	0.0051
-3.46945e-18	0.0190476	0.0051
-0.0047619	0.0190476	0.0051
-0.00952381	0.0190476	0.0051
-0.0142857	0.0190476	0.0051
-0.0190476	0.0190476	0.0051
-0.0238095	0.0190476	0.0051
-0.0285714	0.0190476	0.0051
-0.0333333	0.0190476	0.0051
-0.0380952	0.0190476	0.0051
-0.0428571	0.0190476	0.0051
-0.047619	0.0190476	0.0051
0.047619	0.0238095	0.0051
0.0428571	0.0238095	0.0051
0.0380952	0.0238095	0.0051
0.0333333	0.0238095	0.0051
0.0285714	0.0238095	0.0051
0.0238095	0.0238095	0.0051
0.0190476	0.0238095	0.0051
0.0142857	0.0238095	0.0051
0.00952381	0.0238095	0.0051
0.0047619	0.0238095	0.0051
-3.46945e-18	0.0238095	0.0051
-0.0047619	0.0238095	0.0051
-0.00952381	0.0238095	0.0051
-0.0142857	0.0238095	0.0051
-0.0190476	0.0238095	0.0051
-0.0238095	0.0238095	0.0051
-0.0285714	0.0238095	0.0051
-0.0333333	0.0238095	0.0051
-0.0380952	0.0238095	0.0051
-0.0428571	0.0238095	0.0051
-0.047619	0.0238095	0.0051
0.047619	0.0285714	0.0051
0.0428571	0.0285714	0.0051
0.0380952	0.0285714	0.0051
0.0333333	0.0285714	0.0051
0.0285714	0.0285714	0.0051
0.0238095	0.0285714	0.0051
0.0190476	0.0285714	0.0051
0.0142857	0.0285714	0.0051
0.00952381	0.0285714	0.0051
0.0047619	0.0285714	0.0051
-3.46945e-18	0.0285714	0.0051
-0.0047619	0.0285714	0.0051
-0.00952381	0.0285714	0.0051
-0.0142857	0.0285714	0.0051
-0.0190476	0.0285714	0.0051
-0.0238095	0.0285714	0.0051
-0.0285714	0.0285714	0.0051
-0.0333333	0.0285714	0.0051
-0.0380952	0.0285714	0.0051
-0.0428571	0.0285714	0.0051
-0.047619	0.0285714	0.0051
0.047619	0.0333333	0.0051
0.0428571	0.0333333	0.0051
0.0380952	0.0333333	0.0051
0.0333333	0.0333333	0.0051
0.0285714	0.0333333	0.0051
0.0238095	0.0333333	0.0051
0.0190476	0.0333333	0.0051
0.0142857	0.0333333	0.0051
0.00952381	0.0333333	0.0051
0.0047619	0.0333333	0.0051
-3.46945e-18	0.0333333	0.0051
-0.0047619	0.0333333	0.0051
-0.00952381	0.0333333	0.0051
-0.0142857	0.0333333	0.0051
-0.0190476	0.0333333	0.0051
-0.0238095	0.0333333	0.0051
-0.0285714	0.0333333	0.0051
-0.0333333	0.0333333	0.0051
-0.0380952	0.0333333	0.0051
-0.0428571	0.0333333	0.0051
-0.047619	0.0333333	0.0051
0.047619	0.0380952	0.0051
0.0428571	0.0380952	0.0051
0.0380952	0.0380952	0.0051
0.0333333	0.0380952	0.0051
0.0285714	0.0380952	0.0051
0.0238095	0.0380952	0.0051
0.0190476	0.0380952	0.0051
0.0142857	0.0380952	0.0051
0.00952381	0.0380952	0.0051
0.0047619	0.0380952	0.0051
-3.46945e-18	0.0380952	0.0051
-0.0047619	0.0380952	0.0051
-0.00952381	0.0380952	0.0051
-0.0142857	0.0380952	0.0051
-0.0190476	0.0380952	0.0051
-0.0238095	0.0380952	0.0051
-0.0285714	0.0380952	0.0051
-0.0333333	0.0380952	0.0051
-0.0380952	0.0380952	0.0051
-0.0428571	0.0380952	0.0051
-0.047619	0.0380952	0.0051
0.047619	0.0428571	0.0051
0.0428571	0.0428571	0.0051
0.0380952	0.0428571	0.0051
0.0333333	0.0428571	0.0051
0.0285714	0.0428571	0.0051
0.0238095	0.0428571	0.0051
0.0190476	0.0428571	0.0051
0.0142857	0.0428571	0.0051
0.00952381	0.0428571	0.0051
0.0047619	0.0428571	0.0051
-3.46945e-18	0.0428571	0.0051
-0.0047619	0.0428571	0.0051
-0.00952381	0.0428571	0.0051
-0.0142857	0.0428571	0.0051
-0.0190476	0.0428571	0.0051
-0.0238095	0.0428571	0.0051
-0.0285714	0.0428571	0.0051
-0.0333333	0.0428571	0.0051
-0.0380952	0.0428571	0.0051
-0.0428571	0.0428571	0.0051
-0.047619	0.0428571	0.0051
0.047619	0.047619	0.0051
0.0428571	0.047619	0.0051
0.0380952	0.047619	0.0051
0.0333333	0.047619	0.0051
0.0285714	0.047619	0.0051
0.0238095	0.047619	0.0051
0.0190476	0.047619	0.0051
0.0142857	0.047619	0.0051
0.00952381	0.047619	0.0051
0.0047619	0.047619	0.0051
-3.46945e-18	0.047619	0.0051
-0.0047619	0.047619	0.0051
-0.00952381	0.047619	0.0051
-0.0142857	0.047619	0.0051
-0.0190476	0.047619	0.0051
-0.0238095	0.047619	0.0051
-0.0285714	0.047619	0.0051
-0.0333333	0.047619	0.0051
-0.0380952	0.047619	0.0051
-0.0428571	0.047619	0.0051
-0.047619	0.047619	0.0051
