0.0440646	0.041	0.004
0.0421071	0.007	0.004
0.0421071	0.019	0.004
0.0421071	0.031	0.004
0.0323197	0.029	0.004
0.0303622	0.007	0.004
0.0303622	0.019	0.004
0.0205748	0.017	0.004
0.0186173	0.007	0.004
0.00882993	0.005	0.004
