-0.0466667	0.051	-0.0035
-0.0466667	0.051	-0.0025
-0.0466667	0.051	-0.0015
-0.0466667	0.051	-0.0005
-0.0466667	0.051	0.0005
-0.0466667	0.051	0.0015
-0.0466667	0.051	0.0025
-0.0466667	0.051	0.0035
-0.042	0.051	-0.0035
-0.042	0.051	-0.0025
-0.042	0.051	-0.0015
-0.042	0.051	-0.0005
-0.042	0.051	0.0005
-0.042	0.051	0.0015
-0.042	0.051	0.0025
-0.042	0.051	0.0035
-0.0373333	0.051	-0.0035
-0.0373333	0.051	-0.0025
-0.0373333	0.051	-0.0015
-0.0373333	0.051	-0.0005
-0.0373333	0.051	0.0005
-0.0373333	0.051	0.0015
-0.0373333	0.051	0.0025
-0.0373333	0.051	0.0035
-0.0326667	0.051	-0.0035
-0.0326667	0.051	-0.0025
-0.0326667	0.051	-0.0015
-0.0326667	0.051	-0.0005
-0.0326667	0.051	0.0005
-0.0326667	0.051	0.0015
-0.0326667	0.051	0.0025
-0.0326667	0.051	0.0035
-0.028	0.051	-0.0035
-0.028	0.051	-0.0025
-0.028	0.051	-0.0015
-0.028	0.051	-0.0005
-0.028	0.051	0.0005
-0.028	0.051	0.0015
-0.028	0.051	0.0025
-0.028	0.051	0.0035
-0.0233333	0.051	-0.0035
-0.0233333	0.051	-0.0025
-0.0233333	0.051	-0.0015
-0.0233333	0.051	-0.0005
-0.0233333	0.051	0.0005
-0.0233333	0.051	0.0015
-0.0233333	0.051	0.0025
-0.0233333	0.051	0.0035
-0.0186667	0.051	-0.0035
-0.0186667	0.051	-0.0025
-0.0186667	0.051	-0.0015
-0.0186667	0.051	-0.0005
-0.0186667	0.051	0.0005
-0.0186667	0.051	0.0015
-0.0186667	0.051	0.0025
-0.0186667	0.051	0.0035
-0.014	0.051	-0.0035
-0.014	0.051	-0.0025
-0.014	0.051	-0.0015
-0.014	0.051	-0.0005
-0.014	0.051	0.0005
-0.014	0.051	0.0015
-0.014	0.051	0.0025
-0.014	0.051	0.0035
-0.00933333	0.051	-0.0035
-0.00933333	0.051	-0.0025
-0.00933333	0.051	-0.0015
-0.00933333	0.051	-0.0005
-0.00933333	0.051	0.0005
-0.00933333	0.051	0.0015
-0.00933333	0.051	0.0025
-0.00933333	0.051	0.0035
-0.00466667	0.051	-0.0035
-0.00466667	0.051	-0.0025
-0.00466667	0.051	-0.0015
-0.00466667	0.051	-0.0005
-0.00466667	0.051	0.0005
-0.00466667	0.051	0.0015
-0.00466667	0.051	0.0025
-0.00466667	0.051	0.0035
0	0.051	-0.0035
0	0.051	-0.0025
0	0.051	-0.0015
0	0.051	-0.0005
0	0.051	0.0005
0	0.051	0.0015
0	0.051	0.0025
0	0.051	0.0035
0.00466667	0.051	-0.0035
0.00466667	0.051	-0.0025
0.00466667	0.051	-0.0015
0.00466667	0.051	-0.0005
0.00466667	0.051	0.0005
0.00466667	0.051	0.0015
0.00466667	0.051	0.0025
0.00466667	0.051	0.0035
0.00933333	0.051	-0.0035
0.00933333	0.051	-0.0025
0.00933333	0.051	-0.0015
0.00933333	0.051	-0.0005
0.00933333	0.051	0.0005
0.00933333	0.051	0.0015
0.00933333	0.051	0.0025
0.00933333	0.051	0.0035
0.014	0.051	-0.0035
0.014	0.051	-0.0025
0.014	0.051	-0.0015
0.014	0.051	-0.0005
0.014	0.051	0.0005
0.014	0.051	0.0015
0.014	0.051	0.0025
0.014	0.051	0.0035
0.0186667	0.051	-0.0035
0.0186667	0.051	-0.0025
0.0186667	0.051	-0.0015
0.0186667	0.051	-0.0005
0.0186667	0.051	0.0005
0.0186667	0.051	0.0015
0.0186667	0.051	0.0025
0.0186667	0.051	0.0035
0.0233333	0.051	-0.0035
0.0233333	0.051	-0.0025
0.0233333	0.051	-0.0015
0.0233333	0.051	-0.0005
0.0233333	0.051	0.0005
0.0233333	0.051	0.0015
0.0233333	0.051	0.0025
0.0233333	0.051	0.0035
0.028	0.051	-0.0035
0.028	0.051	-0.0025
0.028	0.051	-0.0015
0.028	0.051	-0.0005
0.028	0.051	0.0005
0.028	0.051	0.0015
0.028	0.051	0.0025
0.028	0.051	0.0035
0.0326667	0.051	-0.0035
0.0326667	0.051	-0.0025
0.0326667	0.051	-0.0015
0.0326667	0.051	-0.0005
0.0326667	0.051	0.0005
0.0326667	0.051	0.0015
0.0326667	0.051	0.0025
0.0326667	0.051	0.0035
0.0373333	0.051	-0.0035
0.0373333	0.051	-0.0025
0.0373333	0.051	-0.0015
0.0373333	0.051	-0.0005
0.0373333	0.051	0.0005
0.0373333	0.051	0.0015
0.0373333	0.051	0.0025
0.0373333	0.051	0.0035
0.042	0.051	-0.0035
0.042	0.051	-0.0025
0.042	0.051	-0.0015
0.042	0.051	-0.0005
0.042	0.051	0.0005
0.042	0.051	0.0015
0.042	0.051	0.0025
0.042	0.051	0.0035
0.0466667	0.051	-0.0035
0.0466667	0.051	-0.0025
0.0466667	0.051	-0.0015
0.0466667	0.051	-0.0005
0.0466667	0.051	0.0005
0.0466667	0.051	0.0015
0.0466667	0.051	0.0025
0.0466667	0.051	0.0035
