-0.0505	-0.047619	0.004
-0.0505	-0.0428571	0.004
-0.0505	-0.0380952	0.004
-0.0505	-0.0333333	0.004
-0.0505	-0.0285714	0.004
-0.0505	-0.0238095	0.004
-0.0505	-0.0190476	0.004
-0.0505	-0.0142857	0.004
-0.0505	-0.00952381	0.004
-0.0505	-0.0047619	0.004
-0.0505	3.46945e-18	0.004
-0.0505	0.0047619	0.004
-0.0505	0.00952381	0.004
-0.0505	0.0142857	0.004
-0.0505	0.0190476	0.004
-0.0505	0.0238095	0.004
-0.0505	0.0285714	0.004
-0.0505	0.0333333	0.004
-0.0505	0.0380952	0.004
-0.0505	0.0428571	0.004
-0.0505	0.047619	0.004
