-0.042	-0.049	-0.00266667
-0.042	-0.049	-2.1684e-19
-0.042	-0.049	0.00266667
-0.028	-0.049	-0.00266667
-0.028	-0.049	-2.1684e-19
-0.028	-0.049	0.00266667
-0.014	-0.049	-0.00266667
-0.014	-0.049	-2.1684e-19
-0.014	-0.049	0.00266667
0	-0.049	-0.00266667
0	-0.049	-2.1684e-19
0	-0.049	0.00266667
0.014	-0.049	-0.00266667
0.014	-0.049	-2.1684e-19
0.014	-0.049	0.00266667
0.028	-0.049	-0.00266667
0.028	-0.049	-2.1684e-19
0.028	-0.049	0.00266667
0.042	-0.049	-0.00266667
0.042	-0.049	-2.1684e-19
0.042	-0.049	0.00266667
