-0.000666667	-0.001	0.00266667
-0.000666667	-0.001	2.1684e-19
-0.000666667	-0.001	-0.00266667
-5.42101e-20	-0.001	0.00266667
-5.42101e-20	-0.001	2.1684e-19
-5.42101e-20	-0.001	-0.00266667
0.000666667	-0.001	0.00266667
0.000666667	-0.001	2.1684e-19
0.000666667	-0.001	-0.00266667
