-0.047619	-0.05	0.00455
-0.0428571	-0.05	0.00455
-0.0380952	-0.05	0.00455
-0.0333333	-0.05	0.00455
-0.0285714	-0.05	0.00455
-0.0238095	-0.05	0.00455
-0.0190476	-0.05	0.00455
-0.0142857	-0.05	0.00455
-0.00952381	-0.05	0.00455
-0.0047619	-0.05	0.00455
3.46945e-18	-0.05	0.00455
0.0047619	-0.05	0.00455
0.00952381	-0.05	0.00455
0.0142857	-0.05	0.00455
0.0190476	-0.05	0.00455
0.0238095	-0.05	0.00455
0.0285714	-0.05	0.00455
0.0333333	-0.05	0.00455
0.0380952	-0.05	0.00455
0.0428571	-0.05	0.00455
0.047619	-0.05	0.00455
