0.049	-0.049	-0.004
0.049	-0.035	-0.004
0.049	-0.035	-0.00133333
0.049	-0.049	-0.00133333
0.049	-0.049	-0.004

0.049	-0.049	-0.00133333
0.049	-0.035	-0.00133333
0.049	-0.035	0.00133333
0.049	-0.049	0.00133333
0.049	-0.049	-0.00133333

0.049	-0.049	0.00133333
0.049	-0.035	0.00133333
0.049	-0.035	0.004
0.049	-0.049	0.004
0.049	-0.049	0.00133333

0.049	-0.035	-0.004
0.049	-0.021	-0.004
0.049	-0.021	-0.00133333
0.049	-0.035	-0.00133333
0.049	-0.035	-0.004

0.049	-0.035	-0.00133333
0.049	-0.021	-0.00133333
0.049	-0.021	0.00133333
0.049	-0.035	0.00133333
0.049	-0.035	-0.00133333

0.049	-0.035	0.00133333
0.049	-0.021	0.00133333
0.049	-0.021	0.004
0.049	-0.035	0.004
0.049	-0.035	0.00133333

0.049	-0.021	-0.004
0.049	-0.007	-0.004
0.049	-0.007	-0.00133333
0.049	-0.021	-0.00133333
0.049	-0.021	-0.004

0.049	-0.021	-0.00133333
0.049	-0.007	-0.00133333
0.049	-0.007	0.00133333
0.049	-0.021	0.00133333
0.049	-0.021	-0.00133333

0.049	-0.021	0.00133333
0.049	-0.007	0.00133333
0.049	-0.007	0.004
0.049	-0.021	0.004
0.049	-0.021	0.00133333

0.049	-0.007	-0.004
0.049	0.007	-0.004
0.049	0.007	-0.00133333
0.049	-0.007	-0.00133333
0.049	-0.007	-0.004

0.049	-0.007	-0.00133333
0.049	0.007	-0.00133333
0.049	0.007	0.00133333
0.049	-0.007	0.00133333
0.049	-0.007	-0.00133333

0.049	-0.007	0.00133333
0.049	0.007	0.00133333
0.049	0.007	0.004
0.049	-0.007	0.004
0.049	-0.007	0.00133333

0.049	0.007	-0.004
0.049	0.021	-0.004
0.049	0.021	-0.00133333
0.049	0.007	-0.00133333
0.049	0.007	-0.004

0.049	0.007	-0.00133333
0.049	0.021	-0.00133333
0.049	0.021	0.00133333
0.049	0.007	0.00133333
0.049	0.007	-0.00133333

0.049	0.007	0.00133333
0.049	0.021	0.00133333
0.049	0.021	0.004
0.049	0.007	0.004
0.049	0.007	0.00133333

0.049	0.021	-0.004
0.049	0.035	-0.004
0.049	0.035	-0.00133333
0.049	0.021	-0.00133333
0.049	0.021	-0.004

0.049	0.021	-0.00133333
0.049	0.035	-0.00133333
0.049	0.035	0.00133333
0.049	0.021	0.00133333
0.049	0.021	-0.00133333

0.049	0.021	0.00133333
0.049	0.035	0.00133333
0.049	0.035	0.004
0.049	0.021	0.004
0.049	0.021	0.00133333

0.049	0.035	-0.004
0.049	0.049	-0.004
0.049	0.049	-0.00133333
0.049	0.035	-0.00133333
0.049	0.035	-0.004

0.049	0.035	-0.00133333
0.049	0.049	-0.00133333
0.049	0.049	0.00133333
0.049	0.035	0.00133333
0.049	0.035	-0.00133333

0.049	0.035	0.00133333
0.049	0.049	0.00133333
0.049	0.049	0.004
0.049	0.035	0.004
0.049	0.035	0.00133333

