-0.05	-0.05	0.0053
-0.05	-0.0452381	0.0053
-0.0452381	-0.0452381	0.0053
-0.0452381	-0.05	0.0053
-0.05	-0.05	0.0053

-0.0452381	-0.05	0.0053
-0.0452381	-0.0452381	0.0053
-0.0404762	-0.0452381	0.0053
-0.0404762	-0.05	0.0053
-0.0452381	-0.05	0.0053

-0.0404762	-0.05	0.0053
-0.0404762	-0.0452381	0.0053
-0.0357143	-0.0452381	0.0053
-0.0357143	-0.05	0.0053
-0.0404762	-0.05	0.0053

-0.0357143	-0.05	0.0053
-0.0357143	-0.0452381	0.0053
-0.0309524	-0.0452381	0.0053
-0.0309524	-0.05	0.0053
-0.0357143	-0.05	0.0053

-0.0309524	-0.05	0.0053
-0.0309524	-0.0452381	0.0053
-0.0261905	-0.0452381	0.0053
-0.0261905	-0.05	0.0053
-0.0309524	-0.05	0.0053

-0.0261905	-0.05	0.0053
-0.0261905	-0.0452381	0.0053
-0.0214286	-0.0452381	0.0053
-0.0214286	-0.05	0.0053
-0.0261905	-0.05	0.0053

-0.0214286	-0.05	0.0053
-0.0214286	-0.0452381	0.0053
-0.0166667	-0.0452381	0.0053
-0.0166667	-0.05	0.0053
-0.0214286	-0.05	0.0053

-0.0166667	-0.05	0.0053
-0.0166667	-0.0452381	0.0053
-0.0119048	-0.0452381	0.0053
-0.0119048	-0.05	0.0053
-0.0166667	-0.05	0.0053

-0.0119048	-0.05	0.0053
-0.0119048	-0.0452381	0.0053
-0.00714286	-0.0452381	0.0053
-0.00714286	-0.05	0.0053
-0.0119048	-0.05	0.0053

-0.00714286	-0.05	0.0053
-0.00714286	-0.0452381	0.0053
-0.00238095	-0.0452381	0.0053
-0.00238095	-0.05	0.0053
-0.00714286	-0.05	0.0053

-0.00238095	-0.05	0.0053
-0.00238095	-0.0452381	0.0053
0.00238095	-0.0452381	0.0053
0.00238095	-0.05	0.0053
-0.00238095	-0.05	0.0053

0.00238095	-0.05	0.0053
0.00238095	-0.0452381	0.0053
0.00714286	-0.0452381	0.0053
0.00714286	-0.05	0.0053
0.00238095	-0.05	0.0053

0.00714286	-0.05	0.0053
0.00714286	-0.0452381	0.0053
0.0119048	-0.0452381	0.0053
0.0119048	-0.05	0.0053
0.00714286	-0.05	0.0053

0.0119048	-0.05	0.0053
0.0119048	-0.0452381	0.0053
0.0166667	-0.0452381	0.0053
0.0166667	-0.05	0.0053
0.0119048	-0.05	0.0053

0.0166667	-0.05	0.0053
0.0166667	-0.0452381	0.0053
0.0214286	-0.0452381	0.0053
0.0214286	-0.05	0.0053
0.0166667	-0.05	0.0053

0.0214286	-0.05	0.0053
0.0214286	-0.0452381	0.0053
0.0261905	-0.0452381	0.0053
0.0261905	-0.05	0.0053
0.0214286	-0.05	0.0053

0.0261905	-0.05	0.0053
0.0261905	-0.0452381	0.0053
0.0309524	-0.0452381	0.0053
0.0309524	-0.05	0.0053
0.0261905	-0.05	0.0053

0.0309524	-0.05	0.0053
0.0309524	-0.0452381	0.0053
0.0357143	-0.0452381	0.0053
0.0357143	-0.05	0.0053
0.0309524	-0.05	0.0053

0.0357143	-0.05	0.0053
0.0357143	-0.0452381	0.0053
0.0404762	-0.0452381	0.0053
0.0404762	-0.05	0.0053
0.0357143	-0.05	0.0053

0.0404762	-0.05	0.0053
0.0404762	-0.0452381	0.0053
0.0452381	-0.0452381	0.0053
0.0452381	-0.05	0.0053
0.0404762	-0.05	0.0053

0.0452381	-0.05	0.0053
0.0452381	-0.0452381	0.0053
0.05	-0.0452381	0.0053
0.05	-0.05	0.0053
0.0452381	-0.05	0.0053

-0.05	-0.0452381	0.0053
-0.05	-0.0404762	0.0053
-0.0452381	-0.0404762	0.0053
-0.0452381	-0.0452381	0.0053
-0.05	-0.0452381	0.0053

-0.0452381	-0.0452381	0.0053
-0.0452381	-0.0404762	0.0053
-0.0404762	-0.0404762	0.0053
-0.0404762	-0.0452381	0.0053
-0.0452381	-0.0452381	0.0053

-0.0404762	-0.0452381	0.0053
-0.0404762	-0.0404762	0.0053
-0.0357143	-0.0404762	0.0053
-0.0357143	-0.0452381	0.0053
-0.0404762	-0.0452381	0.0053

-0.0357143	-0.0452381	0.0053
-0.0357143	-0.0404762	0.0053
-0.0309524	-0.0404762	0.0053
-0.0309524	-0.0452381	0.0053
-0.0357143	-0.0452381	0.0053

-0.0309524	-0.0452381	0.0053
-0.0309524	-0.0404762	0.0053
-0.0261905	-0.0404762	0.0053
-0.0261905	-0.0452381	0.0053
-0.0309524	-0.0452381	0.0053

-0.0261905	-0.0452381	0.0053
-0.0261905	-0.0404762	0.0053
-0.0214286	-0.0404762	0.0053
-0.0214286	-0.0452381	0.0053
-0.0261905	-0.0452381	0.0053

-0.0214286	-0.0452381	0.0053
-0.0214286	-0.0404762	0.0053
-0.0166667	-0.0404762	0.0053
-0.0166667	-0.0452381	0.0053
-0.0214286	-0.0452381	0.0053

-0.0166667	-0.0452381	0.0053
-0.0166667	-0.0404762	0.0053
-0.0119048	-0.0404762	0.0053
-0.0119048	-0.0452381	0.0053
-0.0166667	-0.0452381	0.0053

-0.0119048	-0.0452381	0.0053
-0.0119048	-0.0404762	0.0053
-0.00714286	-0.0404762	0.0053
-0.00714286	-0.0452381	0.0053
-0.0119048	-0.0452381	0.0053

-0.00714286	-0.0452381	0.0053
-0.00714286	-0.0404762	0.0053
-0.00238095	-0.0404762	0.0053
-0.00238095	-0.0452381	0.0053
-0.00714286	-0.0452381	0.0053

-0.00238095	-0.0452381	0.0053
-0.00238095	-0.0404762	0.0053
0.00238095	-0.0404762	0.0053
0.00238095	-0.0452381	0.0053
-0.00238095	-0.0452381	0.0053

0.00238095	-0.0452381	0.0053
0.00238095	-0.0404762	0.0053
0.00714286	-0.0404762	0.0053
0.00714286	-0.0452381	0.0053
0.00238095	-0.0452381	0.0053

0.00714286	-0.0452381	0.0053
0.00714286	-0.0404762	0.0053
0.0119048	-0.0404762	0.0053
0.0119048	-0.0452381	0.0053
0.00714286	-0.0452381	0.0053

0.0119048	-0.0452381	0.0053
0.0119048	-0.0404762	0.0053
0.0166667	-0.0404762	0.0053
0.0166667	-0.0452381	0.0053
0.0119048	-0.0452381	0.0053

0.0166667	-0.0452381	0.0053
0.0166667	-0.0404762	0.0053
0.0214286	-0.0404762	0.0053
0.0214286	-0.0452381	0.0053
0.0166667	-0.0452381	0.0053

0.0214286	-0.0452381	0.0053
0.0214286	-0.0404762	0.0053
0.0261905	-0.0404762	0.0053
0.0261905	-0.0452381	0.0053
0.0214286	-0.0452381	0.0053

0.0261905	-0.0452381	0.0053
0.0261905	-0.0404762	0.0053
0.0309524	-0.0404762	0.0053
0.0309524	-0.0452381	0.0053
0.0261905	-0.0452381	0.0053

0.0309524	-0.0452381	0.0053
0.0309524	-0.0404762	0.0053
0.0357143	-0.0404762	0.0053
0.0357143	-0.0452381	0.0053
0.0309524	-0.0452381	0.0053

0.0357143	-0.0452381	0.0053
0.0357143	-0.0404762	0.0053
0.0404762	-0.0404762	0.0053
0.0404762	-0.0452381	0.0053
0.0357143	-0.0452381	0.0053

0.0404762	-0.0452381	0.0053
0.0404762	-0.0404762	0.0053
0.0452381	-0.0404762	0.0053
0.0452381	-0.0452381	0.0053
0.0404762	-0.0452381	0.0053

0.0452381	-0.0452381	0.0053
0.0452381	-0.0404762	0.0053
0.05	-0.0404762	0.0053
0.05	-0.0452381	0.0053
0.0452381	-0.0452381	0.0053

-0.05	-0.0404762	0.0053
-0.05	-0.0357143	0.0053
-0.0452381	-0.0357143	0.0053
-0.0452381	-0.0404762	0.0053
-0.05	-0.0404762	0.0053

-0.0452381	-0.0404762	0.0053
-0.0452381	-0.0357143	0.0053
-0.0404762	-0.0357143	0.0053
-0.0404762	-0.0404762	0.0053
-0.0452381	-0.0404762	0.0053

-0.0404762	-0.0404762	0.0053
-0.0404762	-0.0357143	0.0053
-0.0357143	-0.0357143	0.0053
-0.0357143	-0.0404762	0.0053
-0.0404762	-0.0404762	0.0053

-0.0357143	-0.0404762	0.0053
-0.0357143	-0.0357143	0.0053
-0.0309524	-0.0357143	0.0053
-0.0309524	-0.0404762	0.0053
-0.0357143	-0.0404762	0.0053

-0.0309524	-0.0404762	0.0053
-0.0309524	-0.0357143	0.0053
-0.0261905	-0.0357143	0.0053
-0.0261905	-0.0404762	0.0053
-0.0309524	-0.0404762	0.0053

-0.0261905	-0.0404762	0.0053
-0.0261905	-0.0357143	0.0053
-0.0214286	-0.0357143	0.0053
-0.0214286	-0.0404762	0.0053
-0.0261905	-0.0404762	0.0053

-0.0214286	-0.0404762	0.0053
-0.0214286	-0.0357143	0.0053
-0.0166667	-0.0357143	0.0053
-0.0166667	-0.0404762	0.0053
-0.0214286	-0.0404762	0.0053

-0.0166667	-0.0404762	0.0053
-0.0166667	-0.0357143	0.0053
-0.0119048	-0.0357143	0.0053
-0.0119048	-0.0404762	0.0053
-0.0166667	-0.0404762	0.0053

-0.0119048	-0.0404762	0.0053
-0.0119048	-0.0357143	0.0053
-0.00714286	-0.0357143	0.0053
-0.00714286	-0.0404762	0.0053
-0.0119048	-0.0404762	0.0053

-0.00714286	-0.0404762	0.0053
-0.00714286	-0.0357143	0.0053
-0.00238095	-0.0357143	0.0053
-0.00238095	-0.0404762	0.0053
-0.00714286	-0.0404762	0.0053

-0.00238095	-0.0404762	0.0053
-0.00238095	-0.0357143	0.0053
0.00238095	-0.0357143	0.0053
0.00238095	-0.0404762	0.0053
-0.00238095	-0.0404762	0.0053

0.00238095	-0.0404762	0.0053
0.00238095	-0.0357143	0.0053
0.00714286	-0.0357143	0.0053
0.00714286	-0.0404762	0.0053
0.00238095	-0.0404762	0.0053

0.00714286	-0.0404762	0.0053
0.00714286	-0.0357143	0.0053
0.0119048	-0.0357143	0.0053
0.0119048	-0.0404762	0.0053
0.00714286	-0.0404762	0.0053

0.0119048	-0.0404762	0.0053
0.0119048	-0.0357143	0.0053
0.0166667	-0.0357143	0.0053
0.0166667	-0.0404762	0.0053
0.0119048	-0.0404762	0.0053

0.0166667	-0.0404762	0.0053
0.0166667	-0.0357143	0.0053
0.0214286	-0.0357143	0.0053
0.0214286	-0.0404762	0.0053
0.0166667	-0.0404762	0.0053

0.0214286	-0.0404762	0.0053
0.0214286	-0.0357143	0.0053
0.0261905	-0.0357143	0.0053
0.0261905	-0.0404762	0.0053
0.0214286	-0.0404762	0.0053

0.0261905	-0.0404762	0.0053
0.0261905	-0.0357143	0.0053
0.0309524	-0.0357143	0.0053
0.0309524	-0.0404762	0.0053
0.0261905	-0.0404762	0.0053

0.0309524	-0.0404762	0.0053
0.0309524	-0.0357143	0.0053
0.0357143	-0.0357143	0.0053
0.0357143	-0.0404762	0.0053
0.0309524	-0.0404762	0.0053

0.0357143	-0.0404762	0.0053
0.0357143	-0.0357143	0.0053
0.0404762	-0.0357143	0.0053
0.0404762	-0.0404762	0.0053
0.0357143	-0.0404762	0.0053

0.0404762	-0.0404762	0.0053
0.0404762	-0.0357143	0.0053
0.0452381	-0.0357143	0.0053
0.0452381	-0.0404762	0.0053
0.0404762	-0.0404762	0.0053

0.0452381	-0.0404762	0.0053
0.0452381	-0.0357143	0.0053
0.05	-0.0357143	0.0053
0.05	-0.0404762	0.0053
0.0452381	-0.0404762	0.0053

-0.05	-0.0357143	0.0053
-0.05	-0.0309524	0.0053
-0.0452381	-0.0309524	0.0053
-0.0452381	-0.0357143	0.0053
-0.05	-0.0357143	0.0053

-0.0452381	-0.0357143	0.0053
-0.0452381	-0.0309524	0.0053
-0.0404762	-0.0309524	0.0053
-0.0404762	-0.0357143	0.0053
-0.0452381	-0.0357143	0.0053

-0.0404762	-0.0357143	0.0053
-0.0404762	-0.0309524	0.0053
-0.0357143	-0.0309524	0.0053
-0.0357143	-0.0357143	0.0053
-0.0404762	-0.0357143	0.0053

-0.0357143	-0.0357143	0.0053
-0.0357143	-0.0309524	0.0053
-0.0309524	-0.0309524	0.0053
-0.0309524	-0.0357143	0.0053
-0.0357143	-0.0357143	0.0053

-0.0309524	-0.0357143	0.0053
-0.0309524	-0.0309524	0.0053
-0.0261905	-0.0309524	0.0053
-0.0261905	-0.0357143	0.0053
-0.0309524	-0.0357143	0.0053

-0.0261905	-0.0357143	0.0053
-0.0261905	-0.0309524	0.0053
-0.0214286	-0.0309524	0.0053
-0.0214286	-0.0357143	0.0053
-0.0261905	-0.0357143	0.0053

-0.0214286	-0.0357143	0.0053
-0.0214286	-0.0309524	0.0053
-0.0166667	-0.0309524	0.0053
-0.0166667	-0.0357143	0.0053
-0.0214286	-0.0357143	0.0053

-0.0166667	-0.0357143	0.0053
-0.0166667	-0.0309524	0.0053
-0.0119048	-0.0309524	0.0053
-0.0119048	-0.0357143	0.0053
-0.0166667	-0.0357143	0.0053

-0.0119048	-0.0357143	0.0053
-0.0119048	-0.0309524	0.0053
-0.00714286	-0.0309524	0.0053
-0.00714286	-0.0357143	0.0053
-0.0119048	-0.0357143	0.0053

-0.00714286	-0.0357143	0.0053
-0.00714286	-0.0309524	0.0053
-0.00238095	-0.0309524	0.0053
-0.00238095	-0.0357143	0.0053
-0.00714286	-0.0357143	0.0053

-0.00238095	-0.0357143	0.0053
-0.00238095	-0.0309524	0.0053
0.00238095	-0.0309524	0.0053
0.00238095	-0.0357143	0.0053
-0.00238095	-0.0357143	0.0053

0.00238095	-0.0357143	0.0053
0.00238095	-0.0309524	0.0053
0.00714286	-0.0309524	0.0053
0.00714286	-0.0357143	0.0053
0.00238095	-0.0357143	0.0053

0.00714286	-0.0357143	0.0053
0.00714286	-0.0309524	0.0053
0.0119048	-0.0309524	0.0053
0.0119048	-0.0357143	0.0053
0.00714286	-0.0357143	0.0053

0.0119048	-0.0357143	0.0053
0.0119048	-0.0309524	0.0053
0.0166667	-0.0309524	0.0053
0.0166667	-0.0357143	0.0053
0.0119048	-0.0357143	0.0053

0.0166667	-0.0357143	0.0053
0.0166667	-0.0309524	0.0053
0.0214286	-0.0309524	0.0053
0.0214286	-0.0357143	0.0053
0.0166667	-0.0357143	0.0053

0.0214286	-0.0357143	0.0053
0.0214286	-0.0309524	0.0053
0.0261905	-0.0309524	0.0053
0.0261905	-0.0357143	0.0053
0.0214286	-0.0357143	0.0053

0.0261905	-0.0357143	0.0053
0.0261905	-0.0309524	0.0053
0.0309524	-0.0309524	0.0053
0.0309524	-0.0357143	0.0053
0.0261905	-0.0357143	0.0053

0.0309524	-0.0357143	0.0053
0.0309524	-0.0309524	0.0053
0.0357143	-0.0309524	0.0053
0.0357143	-0.0357143	0.0053
0.0309524	-0.0357143	0.0053

0.0357143	-0.0357143	0.0053
0.0357143	-0.0309524	0.0053
0.0404762	-0.0309524	0.0053
0.0404762	-0.0357143	0.0053
0.0357143	-0.0357143	0.0053

0.0404762	-0.0357143	0.0053
0.0404762	-0.0309524	0.0053
0.0452381	-0.0309524	0.0053
0.0452381	-0.0357143	0.0053
0.0404762	-0.0357143	0.0053

0.0452381	-0.0357143	0.0053
0.0452381	-0.0309524	0.0053
0.05	-0.0309524	0.0053
0.05	-0.0357143	0.0053
0.0452381	-0.0357143	0.0053

-0.05	-0.0309524	0.0053
-0.05	-0.0261905	0.0053
-0.0452381	-0.0261905	0.0053
-0.0452381	-0.0309524	0.0053
-0.05	-0.0309524	0.0053

-0.0452381	-0.0309524	0.0053
-0.0452381	-0.0261905	0.0053
-0.0404762	-0.0261905	0.0053
-0.0404762	-0.0309524	0.0053
-0.0452381	-0.0309524	0.0053

-0.0404762	-0.0309524	0.0053
-0.0404762	-0.0261905	0.0053
-0.0357143	-0.0261905	0.0053
-0.0357143	-0.0309524	0.0053
-0.0404762	-0.0309524	0.0053

-0.0357143	-0.0309524	0.0053
-0.0357143	-0.0261905	0.0053
-0.0309524	-0.0261905	0.0053
-0.0309524	-0.0309524	0.0053
-0.0357143	-0.0309524	0.0053

-0.0309524	-0.0309524	0.0053
-0.0309524	-0.0261905	0.0053
-0.0261905	-0.0261905	0.0053
-0.0261905	-0.0309524	0.0053
-0.0309524	-0.0309524	0.0053

-0.0261905	-0.0309524	0.0053
-0.0261905	-0.0261905	0.0053
-0.0214286	-0.0261905	0.0053
-0.0214286	-0.0309524	0.0053
-0.0261905	-0.0309524	0.0053

-0.0214286	-0.0309524	0.0053
-0.0214286	-0.0261905	0.0053
-0.0166667	-0.0261905	0.0053
-0.0166667	-0.0309524	0.0053
-0.0214286	-0.0309524	0.0053

-0.0166667	-0.0309524	0.0053
-0.0166667	-0.0261905	0.0053
-0.0119048	-0.0261905	0.0053
-0.0119048	-0.0309524	0.0053
-0.0166667	-0.0309524	0.0053

-0.0119048	-0.0309524	0.0053
-0.0119048	-0.0261905	0.0053
-0.00714286	-0.0261905	0.0053
-0.00714286	-0.0309524	0.0053
-0.0119048	-0.0309524	0.0053

-0.00714286	-0.0309524	0.0053
-0.00714286	-0.0261905	0.0053
-0.00238095	-0.0261905	0.0053
-0.00238095	-0.0309524	0.0053
-0.00714286	-0.0309524	0.0053

-0.00238095	-0.0309524	0.0053
-0.00238095	-0.0261905	0.0053
0.00238095	-0.0261905	0.0053
0.00238095	-0.0309524	0.0053
-0.00238095	-0.0309524	0.0053

0.00238095	-0.0309524	0.0053
0.00238095	-0.0261905	0.0053
0.00714286	-0.0261905	0.0053
0.00714286	-0.0309524	0.0053
0.00238095	-0.0309524	0.0053

0.00714286	-0.0309524	0.0053
0.00714286	-0.0261905	0.0053
0.0119048	-0.0261905	0.0053
0.0119048	-0.0309524	0.0053
0.00714286	-0.0309524	0.0053

0.0119048	-0.0309524	0.0053
0.0119048	-0.0261905	0.0053
0.0166667	-0.0261905	0.0053
0.0166667	-0.0309524	0.0053
0.0119048	-0.0309524	0.0053

0.0166667	-0.0309524	0.0053
0.0166667	-0.0261905	0.0053
0.0214286	-0.0261905	0.0053
0.0214286	-0.0309524	0.0053
0.0166667	-0.0309524	0.0053

0.0214286	-0.0309524	0.0053
0.0214286	-0.0261905	0.0053
0.0261905	-0.0261905	0.0053
0.0261905	-0.0309524	0.0053
0.0214286	-0.0309524	0.0053

0.0261905	-0.0309524	0.0053
0.0261905	-0.0261905	0.0053
0.0309524	-0.0261905	0.0053
0.0309524	-0.0309524	0.0053
0.0261905	-0.0309524	0.0053

0.0309524	-0.0309524	0.0053
0.0309524	-0.0261905	0.0053
0.0357143	-0.0261905	0.0053
0.0357143	-0.0309524	0.0053
0.0309524	-0.0309524	0.0053

0.0357143	-0.0309524	0.0053
0.0357143	-0.0261905	0.0053
0.0404762	-0.0261905	0.0053
0.0404762	-0.0309524	0.0053
0.0357143	-0.0309524	0.0053

0.0404762	-0.0309524	0.0053
0.0404762	-0.0261905	0.0053
0.0452381	-0.0261905	0.0053
0.0452381	-0.0309524	0.0053
0.0404762	-0.0309524	0.0053

0.0452381	-0.0309524	0.0053
0.0452381	-0.0261905	0.0053
0.05	-0.0261905	0.0053
0.05	-0.0309524	0.0053
0.0452381	-0.0309524	0.0053

-0.05	-0.0261905	0.0053
-0.05	-0.0214286	0.0053
-0.0452381	-0.0214286	0.0053
-0.0452381	-0.0261905	0.0053
-0.05	-0.0261905	0.0053

-0.0452381	-0.0261905	0.0053
-0.0452381	-0.0214286	0.0053
-0.0404762	-0.0214286	0.0053
-0.0404762	-0.0261905	0.0053
-0.0452381	-0.0261905	0.0053

-0.0404762	-0.0261905	0.0053
-0.0404762	-0.0214286	0.0053
-0.0357143	-0.0214286	0.0053
-0.0357143	-0.0261905	0.0053
-0.0404762	-0.0261905	0.0053

-0.0357143	-0.0261905	0.0053
-0.0357143	-0.0214286	0.0053
-0.0309524	-0.0214286	0.0053
-0.0309524	-0.0261905	0.0053
-0.0357143	-0.0261905	0.0053

-0.0309524	-0.0261905	0.0053
-0.0309524	-0.0214286	0.0053
-0.0261905	-0.0214286	0.0053
-0.0261905	-0.0261905	0.0053
-0.0309524	-0.0261905	0.0053

-0.0261905	-0.0261905	0.0053
-0.0261905	-0.0214286	0.0053
-0.0214286	-0.0214286	0.0053
-0.0214286	-0.0261905	0.0053
-0.0261905	-0.0261905	0.0053

-0.0214286	-0.0261905	0.0053
-0.0214286	-0.0214286	0.0053
-0.0166667	-0.0214286	0.0053
-0.0166667	-0.0261905	0.0053
-0.0214286	-0.0261905	0.0053

-0.0166667	-0.0261905	0.0053
-0.0166667	-0.0214286	0.0053
-0.0119048	-0.0214286	0.0053
-0.0119048	-0.0261905	0.0053
-0.0166667	-0.0261905	0.0053

-0.0119048	-0.0261905	0.0053
-0.0119048	-0.0214286	0.0053
-0.00714286	-0.0214286	0.0053
-0.00714286	-0.0261905	0.0053
-0.0119048	-0.0261905	0.0053

-0.00714286	-0.0261905	0.0053
-0.00714286	-0.0214286	0.0053
-0.00238095	-0.0214286	0.0053
-0.00238095	-0.0261905	0.0053
-0.00714286	-0.0261905	0.0053

-0.00238095	-0.0261905	0.0053
-0.00238095	-0.0214286	0.0053
0.00238095	-0.0214286	0.0053
0.00238095	-0.0261905	0.0053
-0.00238095	-0.0261905	0.0053

0.00238095	-0.0261905	0.0053
0.00238095	-0.0214286	0.0053
0.00714286	-0.0214286	0.0053
0.00714286	-0.0261905	0.0053
0.00238095	-0.0261905	0.0053

0.00714286	-0.0261905	0.0053
0.00714286	-0.0214286	0.0053
0.0119048	-0.0214286	0.0053
0.0119048	-0.0261905	0.0053
0.00714286	-0.0261905	0.0053

0.0119048	-0.0261905	0.0053
0.0119048	-0.0214286	0.0053
0.0166667	-0.0214286	0.0053
0.0166667	-0.0261905	0.0053
0.0119048	-0.0261905	0.0053

0.0166667	-0.0261905	0.0053
0.0166667	-0.0214286	0.0053
0.0214286	-0.0214286	0.0053
0.0214286	-0.0261905	0.0053
0.0166667	-0.0261905	0.0053

0.0214286	-0.0261905	0.0053
0.0214286	-0.0214286	0.0053
0.0261905	-0.0214286	0.0053
0.0261905	-0.0261905	0.0053
0.0214286	-0.0261905	0.0053

0.0261905	-0.0261905	0.0053
0.0261905	-0.0214286	0.0053
0.0309524	-0.0214286	0.0053
0.0309524	-0.0261905	0.0053
0.0261905	-0.0261905	0.0053

0.0309524	-0.0261905	0.0053
0.0309524	-0.0214286	0.0053
0.0357143	-0.0214286	0.0053
0.0357143	-0.0261905	0.0053
0.0309524	-0.0261905	0.0053

0.0357143	-0.0261905	0.0053
0.0357143	-0.0214286	0.0053
0.0404762	-0.0214286	0.0053
0.0404762	-0.0261905	0.0053
0.0357143	-0.0261905	0.0053

0.0404762	-0.0261905	0.0053
0.0404762	-0.0214286	0.0053
0.0452381	-0.0214286	0.0053
0.0452381	-0.0261905	0.0053
0.0404762	-0.0261905	0.0053

0.0452381	-0.0261905	0.0053
0.0452381	-0.0214286	0.0053
0.05	-0.0214286	0.0053
0.05	-0.0261905	0.0053
0.0452381	-0.0261905	0.0053

-0.05	-0.0214286	0.0053
-0.05	-0.0166667	0.0053
-0.0452381	-0.0166667	0.0053
-0.0452381	-0.0214286	0.0053
-0.05	-0.0214286	0.0053

-0.0452381	-0.0214286	0.0053
-0.0452381	-0.0166667	0.0053
-0.0404762	-0.0166667	0.0053
-0.0404762	-0.0214286	0.0053
-0.0452381	-0.0214286	0.0053

-0.0404762	-0.0214286	0.0053
-0.0404762	-0.0166667	0.0053
-0.0357143	-0.0166667	0.0053
-0.0357143	-0.0214286	0.0053
-0.0404762	-0.0214286	0.0053

-0.0357143	-0.0214286	0.0053
-0.0357143	-0.0166667	0.0053
-0.0309524	-0.0166667	0.0053
-0.0309524	-0.0214286	0.0053
-0.0357143	-0.0214286	0.0053

-0.0309524	-0.0214286	0.0053
-0.0309524	-0.0166667	0.0053
-0.0261905	-0.0166667	0.0053
-0.0261905	-0.0214286	0.0053
-0.0309524	-0.0214286	0.0053

-0.0261905	-0.0214286	0.0053
-0.0261905	-0.0166667	0.0053
-0.0214286	-0.0166667	0.0053
-0.0214286	-0.0214286	0.0053
-0.0261905	-0.0214286	0.0053

-0.0214286	-0.0214286	0.0053
-0.0214286	-0.0166667	0.0053
-0.0166667	-0.0166667	0.0053
-0.0166667	-0.0214286	0.0053
-0.0214286	-0.0214286	0.0053

-0.0166667	-0.0214286	0.0053
-0.0166667	-0.0166667	0.0053
-0.0119048	-0.0166667	0.0053
-0.0119048	-0.0214286	0.0053
-0.0166667	-0.0214286	0.0053

-0.0119048	-0.0214286	0.0053
-0.0119048	-0.0166667	0.0053
-0.00714286	-0.0166667	0.0053
-0.00714286	-0.0214286	0.0053
-0.0119048	-0.0214286	0.0053

-0.00714286	-0.0214286	0.0053
-0.00714286	-0.0166667	0.0053
-0.00238095	-0.0166667	0.0053
-0.00238095	-0.0214286	0.0053
-0.00714286	-0.0214286	0.0053

-0.00238095	-0.0214286	0.0053
-0.00238095	-0.0166667	0.0053
0.00238095	-0.0166667	0.0053
0.00238095	-0.0214286	0.0053
-0.00238095	-0.0214286	0.0053

0.00238095	-0.0214286	0.0053
0.00238095	-0.0166667	0.0053
0.00714286	-0.0166667	0.0053
0.00714286	-0.0214286	0.0053
0.00238095	-0.0214286	0.0053

0.00714286	-0.0214286	0.0053
0.00714286	-0.0166667	0.0053
0.0119048	-0.0166667	0.0053
0.0119048	-0.0214286	0.0053
0.00714286	-0.0214286	0.0053

0.0119048	-0.0214286	0.0053
0.0119048	-0.0166667	0.0053
0.0166667	-0.0166667	0.0053
0.0166667	-0.0214286	0.0053
0.0119048	-0.0214286	0.0053

0.0166667	-0.0214286	0.0053
0.0166667	-0.0166667	0.0053
0.0214286	-0.0166667	0.0053
0.0214286	-0.0214286	0.0053
0.0166667	-0.0214286	0.0053

0.0214286	-0.0214286	0.0053
0.0214286	-0.0166667	0.0053
0.0261905	-0.0166667	0.0053
0.0261905	-0.0214286	0.0053
0.0214286	-0.0214286	0.0053

0.0261905	-0.0214286	0.0053
0.0261905	-0.0166667	0.0053
0.0309524	-0.0166667	0.0053
0.0309524	-0.0214286	0.0053
0.0261905	-0.0214286	0.0053

0.0309524	-0.0214286	0.0053
0.0309524	-0.0166667	0.0053
0.0357143	-0.0166667	0.0053
0.0357143	-0.0214286	0.0053
0.0309524	-0.0214286	0.0053

0.0357143	-0.0214286	0.0053
0.0357143	-0.0166667	0.0053
0.0404762	-0.0166667	0.0053
0.0404762	-0.0214286	0.0053
0.0357143	-0.0214286	0.0053

0.0404762	-0.0214286	0.0053
0.0404762	-0.0166667	0.0053
0.0452381	-0.0166667	0.0053
0.0452381	-0.0214286	0.0053
0.0404762	-0.0214286	0.0053

0.0452381	-0.0214286	0.0053
0.0452381	-0.0166667	0.0053
0.05	-0.0166667	0.0053
0.05	-0.0214286	0.0053
0.0452381	-0.0214286	0.0053

-0.05	-0.0166667	0.0053
-0.05	-0.0119048	0.0053
-0.0452381	-0.0119048	0.0053
-0.0452381	-0.0166667	0.0053
-0.05	-0.0166667	0.0053

-0.0452381	-0.0166667	0.0053
-0.0452381	-0.0119048	0.0053
-0.0404762	-0.0119048	0.0053
-0.0404762	-0.0166667	0.0053
-0.0452381	-0.0166667	0.0053

-0.0404762	-0.0166667	0.0053
-0.0404762	-0.0119048	0.0053
-0.0357143	-0.0119048	0.0053
-0.0357143	-0.0166667	0.0053
-0.0404762	-0.0166667	0.0053

-0.0357143	-0.0166667	0.0053
-0.0357143	-0.0119048	0.0053
-0.0309524	-0.0119048	0.0053
-0.0309524	-0.0166667	0.0053
-0.0357143	-0.0166667	0.0053

-0.0309524	-0.0166667	0.0053
-0.0309524	-0.0119048	0.0053
-0.0261905	-0.0119048	0.0053
-0.0261905	-0.0166667	0.0053
-0.0309524	-0.0166667	0.0053

-0.0261905	-0.0166667	0.0053
-0.0261905	-0.0119048	0.0053
-0.0214286	-0.0119048	0.0053
-0.0214286	-0.0166667	0.0053
-0.0261905	-0.0166667	0.0053

-0.0214286	-0.0166667	0.0053
-0.0214286	-0.0119048	0.0053
-0.0166667	-0.0119048	0.0053
-0.0166667	-0.0166667	0.0053
-0.0214286	-0.0166667	0.0053

-0.0166667	-0.0166667	0.0053
-0.0166667	-0.0119048	0.0053
-0.0119048	-0.0119048	0.0053
-0.0119048	-0.0166667	0.0053
-0.0166667	-0.0166667	0.0053

-0.0119048	-0.0166667	0.0053
-0.0119048	-0.0119048	0.0053
-0.00714286	-0.0119048	0.0053
-0.00714286	-0.0166667	0.0053
-0.0119048	-0.0166667	0.0053

-0.00714286	-0.0166667	0.0053
-0.00714286	-0.0119048	0.0053
-0.00238095	-0.0119048	0.0053
-0.00238095	-0.0166667	0.0053
-0.00714286	-0.0166667	0.0053

-0.00238095	-0.0166667	0.0053
-0.00238095	-0.0119048	0.0053
0.00238095	-0.0119048	0.0053
0.00238095	-0.0166667	0.0053
-0.00238095	-0.0166667	0.0053

0.00238095	-0.0166667	0.0053
0.00238095	-0.0119048	0.0053
0.00714286	-0.0119048	0.0053
0.00714286	-0.0166667	0.0053
0.00238095	-0.0166667	0.0053

0.00714286	-0.0166667	0.0053
0.00714286	-0.0119048	0.0053
0.0119048	-0.0119048	0.0053
0.0119048	-0.0166667	0.0053
0.00714286	-0.0166667	0.0053

0.0119048	-0.0166667	0.0053
0.0119048	-0.0119048	0.0053
0.0166667	-0.0119048	0.0053
0.0166667	-0.0166667	0.0053
0.0119048	-0.0166667	0.0053

0.0166667	-0.0166667	0.0053
0.0166667	-0.0119048	0.0053
0.0214286	-0.0119048	0.0053
0.0214286	-0.0166667	0.0053
0.0166667	-0.0166667	0.0053

0.0214286	-0.0166667	0.0053
0.0214286	-0.0119048	0.0053
0.0261905	-0.0119048	0.0053
0.0261905	-0.0166667	0.0053
0.0214286	-0.0166667	0.0053

0.0261905	-0.0166667	0.0053
0.0261905	-0.0119048	0.0053
0.0309524	-0.0119048	0.0053
0.0309524	-0.0166667	0.0053
0.0261905	-0.0166667	0.0053

0.0309524	-0.0166667	0.0053
0.0309524	-0.0119048	0.0053
0.0357143	-0.0119048	0.0053
0.0357143	-0.0166667	0.0053
0.0309524	-0.0166667	0.0053

0.0357143	-0.0166667	0.0053
0.0357143	-0.0119048	0.0053
0.0404762	-0.0119048	0.0053
0.0404762	-0.0166667	0.0053
0.0357143	-0.0166667	0.0053

0.0404762	-0.0166667	0.0053
0.0404762	-0.0119048	0.0053
0.0452381	-0.0119048	0.0053
0.0452381	-0.0166667	0.0053
0.0404762	-0.0166667	0.0053

0.0452381	-0.0166667	0.0053
0.0452381	-0.0119048	0.0053
0.05	-0.0119048	0.0053
0.05	-0.0166667	0.0053
0.0452381	-0.0166667	0.0053

-0.05	-0.0119048	0.0053
-0.05	-0.00714286	0.0053
-0.0452381	-0.00714286	0.0053
-0.0452381	-0.0119048	0.0053
-0.05	-0.0119048	0.0053

-0.0452381	-0.0119048	0.0053
-0.0452381	-0.00714286	0.0053
-0.0404762	-0.00714286	0.0053
-0.0404762	-0.0119048	0.0053
-0.0452381	-0.0119048	0.0053

-0.0404762	-0.0119048	0.0053
-0.0404762	-0.00714286	0.0053
-0.0357143	-0.00714286	0.0053
-0.0357143	-0.0119048	0.0053
-0.0404762	-0.0119048	0.0053

-0.0357143	-0.0119048	0.0053
-0.0357143	-0.00714286	0.0053
-0.0309524	-0.00714286	0.0053
-0.0309524	-0.0119048	0.0053
-0.0357143	-0.0119048	0.0053

-0.0309524	-0.0119048	0.0053
-0.0309524	-0.00714286	0.0053
-0.0261905	-0.00714286	0.0053
-0.0261905	-0.0119048	0.0053
-0.0309524	-0.0119048	0.0053

-0.0261905	-0.0119048	0.0053
-0.0261905	-0.00714286	0.0053
-0.0214286	-0.00714286	0.0053
-0.0214286	-0.0119048	0.0053
-0.0261905	-0.0119048	0.0053

-0.0214286	-0.0119048	0.0053
-0.0214286	-0.00714286	0.0053
-0.0166667	-0.00714286	0.0053
-0.0166667	-0.0119048	0.0053
-0.0214286	-0.0119048	0.0053

-0.0166667	-0.0119048	0.0053
-0.0166667	-0.00714286	0.0053
-0.0119048	-0.00714286	0.0053
-0.0119048	-0.0119048	0.0053
-0.0166667	-0.0119048	0.0053

-0.0119048	-0.0119048	0.0053
-0.0119048	-0.00714286	0.0053
-0.00714286	-0.00714286	0.0053
-0.00714286	-0.0119048	0.0053
-0.0119048	-0.0119048	0.0053

-0.00714286	-0.0119048	0.0053
-0.00714286	-0.00714286	0.0053
-0.00238095	-0.00714286	0.0053
-0.00238095	-0.0119048	0.0053
-0.00714286	-0.0119048	0.0053

-0.00238095	-0.0119048	0.0053
-0.00238095	-0.00714286	0.0053
0.00238095	-0.00714286	0.0053
0.00238095	-0.0119048	0.0053
-0.00238095	-0.0119048	0.0053

0.00238095	-0.0119048	0.0053
0.00238095	-0.00714286	0.0053
0.00714286	-0.00714286	0.0053
0.00714286	-0.0119048	0.0053
0.00238095	-0.0119048	0.0053

0.00714286	-0.0119048	0.0053
0.00714286	-0.00714286	0.0053
0.0119048	-0.00714286	0.0053
0.0119048	-0.0119048	0.0053
0.00714286	-0.0119048	0.0053

0.0119048	-0.0119048	0.0053
0.0119048	-0.00714286	0.0053
0.0166667	-0.00714286	0.0053
0.0166667	-0.0119048	0.0053
0.0119048	-0.0119048	0.0053

0.0166667	-0.0119048	0.0053
0.0166667	-0.00714286	0.0053
0.0214286	-0.00714286	0.0053
0.0214286	-0.0119048	0.0053
0.0166667	-0.0119048	0.0053

0.0214286	-0.0119048	0.0053
0.0214286	-0.00714286	0.0053
0.0261905	-0.00714286	0.0053
0.0261905	-0.0119048	0.0053
0.0214286	-0.0119048	0.0053

0.0261905	-0.0119048	0.0053
0.0261905	-0.00714286	0.0053
0.0309524	-0.00714286	0.0053
0.0309524	-0.0119048	0.0053
0.0261905	-0.0119048	0.0053

0.0309524	-0.0119048	0.0053
0.0309524	-0.00714286	0.0053
0.0357143	-0.00714286	0.0053
0.0357143	-0.0119048	0.0053
0.0309524	-0.0119048	0.0053

0.0357143	-0.0119048	0.0053
0.0357143	-0.00714286	0.0053
0.0404762	-0.00714286	0.0053
0.0404762	-0.0119048	0.0053
0.0357143	-0.0119048	0.0053

0.0404762	-0.0119048	0.0053
0.0404762	-0.00714286	0.0053
0.0452381	-0.00714286	0.0053
0.0452381	-0.0119048	0.0053
0.0404762	-0.0119048	0.0053

0.0452381	-0.0119048	0.0053
0.0452381	-0.00714286	0.0053
0.05	-0.00714286	0.0053
0.05	-0.0119048	0.0053
0.0452381	-0.0119048	0.0053

-0.05	-0.00714286	0.0053
-0.05	-0.00238095	0.0053
-0.0452381	-0.00238095	0.0053
-0.0452381	-0.00714286	0.0053
-0.05	-0.00714286	0.0053

-0.0452381	-0.00714286	0.0053
-0.0452381	-0.00238095	0.0053
-0.0404762	-0.00238095	0.0053
-0.0404762	-0.00714286	0.0053
-0.0452381	-0.00714286	0.0053

-0.0404762	-0.00714286	0.0053
-0.0404762	-0.00238095	0.0053
-0.0357143	-0.00238095	0.0053
-0.0357143	-0.00714286	0.0053
-0.0404762	-0.00714286	0.0053

-0.0357143	-0.00714286	0.0053
-0.0357143	-0.00238095	0.0053
-0.0309524	-0.00238095	0.0053
-0.0309524	-0.00714286	0.0053
-0.0357143	-0.00714286	0.0053

-0.0309524	-0.00714286	0.0053
-0.0309524	-0.00238095	0.0053
-0.0261905	-0.00238095	0.0053
-0.0261905	-0.00714286	0.0053
-0.0309524	-0.00714286	0.0053

-0.0261905	-0.00714286	0.0053
-0.0261905	-0.00238095	0.0053
-0.0214286	-0.00238095	0.0053
-0.0214286	-0.00714286	0.0053
-0.0261905	-0.00714286	0.0053

-0.0214286	-0.00714286	0.0053
-0.0214286	-0.00238095	0.0053
-0.0166667	-0.00238095	0.0053
-0.0166667	-0.00714286	0.0053
-0.0214286	-0.00714286	0.0053

-0.0166667	-0.00714286	0.0053
-0.0166667	-0.00238095	0.0053
-0.0119048	-0.00238095	0.0053
-0.0119048	-0.00714286	0.0053
-0.0166667	-0.00714286	0.0053

-0.0119048	-0.00714286	0.0053
-0.0119048	-0.00238095	0.0053
-0.00714286	-0.00238095	0.0053
-0.00714286	-0.00714286	0.0053
-0.0119048	-0.00714286	0.0053

-0.00714286	-0.00714286	0.0053
-0.00714286	-0.00238095	0.0053
-0.00238095	-0.00238095	0.0053
-0.00238095	-0.00714286	0.0053
-0.00714286	-0.00714286	0.0053

-0.00238095	-0.00714286	0.0053
-0.00238095	-0.00238095	0.0053
0.00238095	-0.00238095	0.0053
0.00238095	-0.00714286	0.0053
-0.00238095	-0.00714286	0.0053

0.00238095	-0.00714286	0.0053
0.00238095	-0.00238095	0.0053
0.00714286	-0.00238095	0.0053
0.00714286	-0.00714286	0.0053
0.00238095	-0.00714286	0.0053

0.00714286	-0.00714286	0.0053
0.00714286	-0.00238095	0.0053
0.0119048	-0.00238095	0.0053
0.0119048	-0.00714286	0.0053
0.00714286	-0.00714286	0.0053

0.0119048	-0.00714286	0.0053
0.0119048	-0.00238095	0.0053
0.0166667	-0.00238095	0.0053
0.0166667	-0.00714286	0.0053
0.0119048	-0.00714286	0.0053

0.0166667	-0.00714286	0.0053
0.0166667	-0.00238095	0.0053
0.0214286	-0.00238095	0.0053
0.0214286	-0.00714286	0.0053
0.0166667	-0.00714286	0.0053

0.0214286	-0.00714286	0.0053
0.0214286	-0.00238095	0.0053
0.0261905	-0.00238095	0.0053
0.0261905	-0.00714286	0.0053
0.0214286	-0.00714286	0.0053

0.0261905	-0.00714286	0.0053
0.0261905	-0.00238095	0.0053
0.0309524	-0.00238095	0.0053
0.0309524	-0.00714286	0.0053
0.0261905	-0.00714286	0.0053

0.0309524	-0.00714286	0.0053
0.0309524	-0.00238095	0.0053
0.0357143	-0.00238095	0.0053
0.0357143	-0.00714286	0.0053
0.0309524	-0.00714286	0.0053

0.0357143	-0.00714286	0.0053
0.0357143	-0.00238095	0.0053
0.0404762	-0.00238095	0.0053
0.0404762	-0.00714286	0.0053
0.0357143	-0.00714286	0.0053

0.0404762	-0.00714286	0.0053
0.0404762	-0.00238095	0.0053
0.0452381	-0.00238095	0.0053
0.0452381	-0.00714286	0.0053
0.0404762	-0.00714286	0.0053

0.0452381	-0.00714286	0.0053
0.0452381	-0.00238095	0.0053
0.05	-0.00238095	0.0053
0.05	-0.00714286	0.0053
0.0452381	-0.00714286	0.0053

-0.05	-0.00238095	0.0053
-0.05	0.00238095	0.0053
-0.0452381	0.00238095	0.0053
-0.0452381	-0.00238095	0.0053
-0.05	-0.00238095	0.0053

-0.0452381	-0.00238095	0.0053
-0.0452381	0.00238095	0.0053
-0.0404762	0.00238095	0.0053
-0.0404762	-0.00238095	0.0053
-0.0452381	-0.00238095	0.0053

-0.0404762	-0.00238095	0.0053
-0.0404762	0.00238095	0.0053
-0.0357143	0.00238095	0.0053
-0.0357143	-0.00238095	0.0053
-0.0404762	-0.00238095	0.0053

-0.0357143	-0.00238095	0.0053
-0.0357143	0.00238095	0.0053
-0.0309524	0.00238095	0.0053
-0.0309524	-0.00238095	0.0053
-0.0357143	-0.00238095	0.0053

-0.0309524	-0.00238095	0.0053
-0.0309524	0.00238095	0.0053
-0.0261905	0.00238095	0.0053
-0.0261905	-0.00238095	0.0053
-0.0309524	-0.00238095	0.0053

-0.0261905	-0.00238095	0.0053
-0.0261905	0.00238095	0.0053
-0.0214286	0.00238095	0.0053
-0.0214286	-0.00238095	0.0053
-0.0261905	-0.00238095	0.0053

-0.0214286	-0.00238095	0.0053
-0.0214286	0.00238095	0.0053
-0.0166667	0.00238095	0.0053
-0.0166667	-0.00238095	0.0053
-0.0214286	-0.00238095	0.0053

-0.0166667	-0.00238095	0.0053
-0.0166667	0.00238095	0.0053
-0.0119048	0.00238095	0.0053
-0.0119048	-0.00238095	0.0053
-0.0166667	-0.00238095	0.0053

-0.0119048	-0.00238095	0.0053
-0.0119048	0.00238095	0.0053
-0.00714286	0.00238095	0.0053
-0.00714286	-0.00238095	0.0053
-0.0119048	-0.00238095	0.0053

-0.00714286	-0.00238095	0.0053
-0.00714286	0.00238095	0.0053
-0.00238095	0.00238095	0.0053
-0.00238095	-0.00238095	0.0053
-0.00714286	-0.00238095	0.0053

-0.00238095	-0.00238095	0.0053
-0.00238095	0.00238095	0.0053
0.00238095	0.00238095	0.0053
0.00238095	-0.00238095	0.0053
-0.00238095	-0.00238095	0.0053

0.00238095	-0.00238095	0.0053
0.00238095	0.00238095	0.0053
0.00714286	0.00238095	0.0053
0.00714286	-0.00238095	0.0053
0.00238095	-0.00238095	0.0053

0.00714286	-0.00238095	0.0053
0.00714286	0.00238095	0.0053
0.0119048	0.00238095	0.0053
0.0119048	-0.00238095	0.0053
0.00714286	-0.00238095	0.0053

0.0119048	-0.00238095	0.0053
0.0119048	0.00238095	0.0053
0.0166667	0.00238095	0.0053
0.0166667	-0.00238095	0.0053
0.0119048	-0.00238095	0.0053

0.0166667	-0.00238095	0.0053
0.0166667	0.00238095	0.0053
0.0214286	0.00238095	0.0053
0.0214286	-0.00238095	0.0053
0.0166667	-0.00238095	0.0053

0.0214286	-0.00238095	0.0053
0.0214286	0.00238095	0.0053
0.0261905	0.00238095	0.0053
0.0261905	-0.00238095	0.0053
0.0214286	-0.00238095	0.0053

0.0261905	-0.00238095	0.0053
0.0261905	0.00238095	0.0053
0.0309524	0.00238095	0.0053
0.0309524	-0.00238095	0.0053
0.0261905	-0.00238095	0.0053

0.0309524	-0.00238095	0.0053
0.0309524	0.00238095	0.0053
0.0357143	0.00238095	0.0053
0.0357143	-0.00238095	0.0053
0.0309524	-0.00238095	0.0053

0.0357143	-0.00238095	0.0053
0.0357143	0.00238095	0.0053
0.0404762	0.00238095	0.0053
0.0404762	-0.00238095	0.0053
0.0357143	-0.00238095	0.0053

0.0404762	-0.00238095	0.0053
0.0404762	0.00238095	0.0053
0.0452381	0.00238095	0.0053
0.0452381	-0.00238095	0.0053
0.0404762	-0.00238095	0.0053

0.0452381	-0.00238095	0.0053
0.0452381	0.00238095	0.0053
0.05	0.00238095	0.0053
0.05	-0.00238095	0.0053
0.0452381	-0.00238095	0.0053

-0.05	0.00238095	0.0053
-0.05	0.00714286	0.0053
-0.0452381	0.00714286	0.0053
-0.0452381	0.00238095	0.0053
-0.05	0.00238095	0.0053

-0.0452381	0.00238095	0.0053
-0.0452381	0.00714286	0.0053
-0.0404762	0.00714286	0.0053
-0.0404762	0.00238095	0.0053
-0.0452381	0.00238095	0.0053

-0.0404762	0.00238095	0.0053
-0.0404762	0.00714286	0.0053
-0.0357143	0.00714286	0.0053
-0.0357143	0.00238095	0.0053
-0.0404762	0.00238095	0.0053

-0.0357143	0.00238095	0.0053
-0.0357143	0.00714286	0.0053
-0.0309524	0.00714286	0.0053
-0.0309524	0.00238095	0.0053
-0.0357143	0.00238095	0.0053

-0.0309524	0.00238095	0.0053
-0.0309524	0.00714286	0.0053
-0.0261905	0.00714286	0.0053
-0.0261905	0.00238095	0.0053
-0.0309524	0.00238095	0.0053

-0.0261905	0.00238095	0.0053
-0.0261905	0.00714286	0.0053
-0.0214286	0.00714286	0.0053
-0.0214286	0.00238095	0.0053
-0.0261905	0.00238095	0.0053

-0.0214286	0.00238095	0.0053
-0.0214286	0.00714286	0.0053
-0.0166667	0.00714286	0.0053
-0.0166667	0.00238095	0.0053
-0.0214286	0.00238095	0.0053

-0.0166667	0.00238095	0.0053
-0.0166667	0.00714286	0.0053
-0.0119048	0.00714286	0.0053
-0.0119048	0.00238095	0.0053
-0.0166667	0.00238095	0.0053

-0.0119048	0.00238095	0.0053
-0.0119048	0.00714286	0.0053
-0.00714286	0.00714286	0.0053
-0.00714286	0.00238095	0.0053
-0.0119048	0.00238095	0.0053

-0.00714286	0.00238095	0.0053
-0.00714286	0.00714286	0.0053
-0.00238095	0.00714286	0.0053
-0.00238095	0.00238095	0.0053
-0.00714286	0.00238095	0.0053

-0.00238095	0.00238095	0.0053
-0.00238095	0.00714286	0.0053
0.00238095	0.00714286	0.0053
0.00238095	0.00238095	0.0053
-0.00238095	0.00238095	0.0053

0.00238095	0.00238095	0.0053
0.00238095	0.00714286	0.0053
0.00714286	0.00714286	0.0053
0.00714286	0.00238095	0.0053
0.00238095	0.00238095	0.0053

0.00714286	0.00238095	0.0053
0.00714286	0.00714286	0.0053
0.0119048	0.00714286	0.0053
0.0119048	0.00238095	0.0053
0.00714286	0.00238095	0.0053

0.0119048	0.00238095	0.0053
0.0119048	0.00714286	0.0053
0.0166667	0.00714286	0.0053
0.0166667	0.00238095	0.0053
0.0119048	0.00238095	0.0053

0.0166667	0.00238095	0.0053
0.0166667	0.00714286	0.0053
0.0214286	0.00714286	0.0053
0.0214286	0.00238095	0.0053
0.0166667	0.00238095	0.0053

0.0214286	0.00238095	0.0053
0.0214286	0.00714286	0.0053
0.0261905	0.00714286	0.0053
0.0261905	0.00238095	0.0053
0.0214286	0.00238095	0.0053

0.0261905	0.00238095	0.0053
0.0261905	0.00714286	0.0053
0.0309524	0.00714286	0.0053
0.0309524	0.00238095	0.0053
0.0261905	0.00238095	0.0053

0.0309524	0.00238095	0.0053
0.0309524	0.00714286	0.0053
0.0357143	0.00714286	0.0053
0.0357143	0.00238095	0.0053
0.0309524	0.00238095	0.0053

0.0357143	0.00238095	0.0053
0.0357143	0.00714286	0.0053
0.0404762	0.00714286	0.0053
0.0404762	0.00238095	0.0053
0.0357143	0.00238095	0.0053

0.0404762	0.00238095	0.0053
0.0404762	0.00714286	0.0053
0.0452381	0.00714286	0.0053
0.0452381	0.00238095	0.0053
0.0404762	0.00238095	0.0053

0.0452381	0.00238095	0.0053
0.0452381	0.00714286	0.0053
0.05	0.00714286	0.0053
0.05	0.00238095	0.0053
0.0452381	0.00238095	0.0053

-0.05	0.00714286	0.0053
-0.05	0.0119048	0.0053
-0.0452381	0.0119048	0.0053
-0.0452381	0.00714286	0.0053
-0.05	0.00714286	0.0053

-0.0452381	0.00714286	0.0053
-0.0452381	0.0119048	0.0053
-0.0404762	0.0119048	0.0053
-0.0404762	0.00714286	0.0053
-0.0452381	0.00714286	0.0053

-0.0404762	0.00714286	0.0053
-0.0404762	0.0119048	0.0053
-0.0357143	0.0119048	0.0053
-0.0357143	0.00714286	0.0053
-0.0404762	0.00714286	0.0053

-0.0357143	0.00714286	0.0053
-0.0357143	0.0119048	0.0053
-0.0309524	0.0119048	0.0053
-0.0309524	0.00714286	0.0053
-0.0357143	0.00714286	0.0053

-0.0309524	0.00714286	0.0053
-0.0309524	0.0119048	0.0053
-0.0261905	0.0119048	0.0053
-0.0261905	0.00714286	0.0053
-0.0309524	0.00714286	0.0053

-0.0261905	0.00714286	0.0053
-0.0261905	0.0119048	0.0053
-0.0214286	0.0119048	0.0053
-0.0214286	0.00714286	0.0053
-0.0261905	0.00714286	0.0053

-0.0214286	0.00714286	0.0053
-0.0214286	0.0119048	0.0053
-0.0166667	0.0119048	0.0053
-0.0166667	0.00714286	0.0053
-0.0214286	0.00714286	0.0053

-0.0166667	0.00714286	0.0053
-0.0166667	0.0119048	0.0053
-0.0119048	0.0119048	0.0053
-0.0119048	0.00714286	0.0053
-0.0166667	0.00714286	0.0053

-0.0119048	0.00714286	0.0053
-0.0119048	0.0119048	0.0053
-0.00714286	0.0119048	0.0053
-0.00714286	0.00714286	0.0053
-0.0119048	0.00714286	0.0053

-0.00714286	0.00714286	0.0053
-0.00714286	0.0119048	0.0053
-0.00238095	0.0119048	0.0053
-0.00238095	0.00714286	0.0053
-0.00714286	0.00714286	0.0053

-0.00238095	0.00714286	0.0053
-0.00238095	0.0119048	0.0053
0.00238095	0.0119048	0.0053
0.00238095	0.00714286	0.0053
-0.00238095	0.00714286	0.0053

0.00238095	0.00714286	0.0053
0.00238095	0.0119048	0.0053
0.00714286	0.0119048	0.0053
0.00714286	0.00714286	0.0053
0.00238095	0.00714286	0.0053

0.00714286	0.00714286	0.0053
0.00714286	0.0119048	0.0053
0.0119048	0.0119048	0.0053
0.0119048	0.00714286	0.0053
0.00714286	0.00714286	0.0053

0.0119048	0.00714286	0.0053
0.0119048	0.0119048	0.0053
0.0166667	0.0119048	0.0053
0.0166667	0.00714286	0.0053
0.0119048	0.00714286	0.0053

0.0166667	0.00714286	0.0053
0.0166667	0.0119048	0.0053
0.0214286	0.0119048	0.0053
0.0214286	0.00714286	0.0053
0.0166667	0.00714286	0.0053

0.0214286	0.00714286	0.0053
0.0214286	0.0119048	0.0053
0.0261905	0.0119048	0.0053
0.0261905	0.00714286	0.0053
0.0214286	0.00714286	0.0053

0.0261905	0.00714286	0.0053
0.0261905	0.0119048	0.0053
0.0309524	0.0119048	0.0053
0.0309524	0.00714286	0.0053
0.0261905	0.00714286	0.0053

0.0309524	0.00714286	0.0053
0.0309524	0.0119048	0.0053
0.0357143	0.0119048	0.0053
0.0357143	0.00714286	0.0053
0.0309524	0.00714286	0.0053

0.0357143	0.00714286	0.0053
0.0357143	0.0119048	0.0053
0.0404762	0.0119048	0.0053
0.0404762	0.00714286	0.0053
0.0357143	0.00714286	0.0053

0.0404762	0.00714286	0.0053
0.0404762	0.0119048	0.0053
0.0452381	0.0119048	0.0053
0.0452381	0.00714286	0.0053
0.0404762	0.00714286	0.0053

0.0452381	0.00714286	0.0053
0.0452381	0.0119048	0.0053
0.05	0.0119048	0.0053
0.05	0.00714286	0.0053
0.0452381	0.00714286	0.0053

-0.05	0.0119048	0.0053
-0.05	0.0166667	0.0053
-0.0452381	0.0166667	0.0053
-0.0452381	0.0119048	0.0053
-0.05	0.0119048	0.0053

-0.0452381	0.0119048	0.0053
-0.0452381	0.0166667	0.0053
-0.0404762	0.0166667	0.0053
-0.0404762	0.0119048	0.0053
-0.0452381	0.0119048	0.0053

-0.0404762	0.0119048	0.0053
-0.0404762	0.0166667	0.0053
-0.0357143	0.0166667	0.0053
-0.0357143	0.0119048	0.0053
-0.0404762	0.0119048	0.0053

-0.0357143	0.0119048	0.0053
-0.0357143	0.0166667	0.0053
-0.0309524	0.0166667	0.0053
-0.0309524	0.0119048	0.0053
-0.0357143	0.0119048	0.0053

-0.0309524	0.0119048	0.0053
-0.0309524	0.0166667	0.0053
-0.0261905	0.0166667	0.0053
-0.0261905	0.0119048	0.0053
-0.0309524	0.0119048	0.0053

-0.0261905	0.0119048	0.0053
-0.0261905	0.0166667	0.0053
-0.0214286	0.0166667	0.0053
-0.0214286	0.0119048	0.0053
-0.0261905	0.0119048	0.0053

-0.0214286	0.0119048	0.0053
-0.0214286	0.0166667	0.0053
-0.0166667	0.0166667	0.0053
-0.0166667	0.0119048	0.0053
-0.0214286	0.0119048	0.0053

-0.0166667	0.0119048	0.0053
-0.0166667	0.0166667	0.0053
-0.0119048	0.0166667	0.0053
-0.0119048	0.0119048	0.0053
-0.0166667	0.0119048	0.0053

-0.0119048	0.0119048	0.0053
-0.0119048	0.0166667	0.0053
-0.00714286	0.0166667	0.0053
-0.00714286	0.0119048	0.0053
-0.0119048	0.0119048	0.0053

-0.00714286	0.0119048	0.0053
-0.00714286	0.0166667	0.0053
-0.00238095	0.0166667	0.0053
-0.00238095	0.0119048	0.0053
-0.00714286	0.0119048	0.0053

-0.00238095	0.0119048	0.0053
-0.00238095	0.0166667	0.0053
0.00238095	0.0166667	0.0053
0.00238095	0.0119048	0.0053
-0.00238095	0.0119048	0.0053

0.00238095	0.0119048	0.0053
0.00238095	0.0166667	0.0053
0.00714286	0.0166667	0.0053
0.00714286	0.0119048	0.0053
0.00238095	0.0119048	0.0053

0.00714286	0.0119048	0.0053
0.00714286	0.0166667	0.0053
0.0119048	0.0166667	0.0053
0.0119048	0.0119048	0.0053
0.00714286	0.0119048	0.0053

0.0119048	0.0119048	0.0053
0.0119048	0.0166667	0.0053
0.0166667	0.0166667	0.0053
0.0166667	0.0119048	0.0053
0.0119048	0.0119048	0.0053

0.0166667	0.0119048	0.0053
0.0166667	0.0166667	0.0053
0.0214286	0.0166667	0.0053
0.0214286	0.0119048	0.0053
0.0166667	0.0119048	0.0053

0.0214286	0.0119048	0.0053
0.0214286	0.0166667	0.0053
0.0261905	0.0166667	0.0053
0.0261905	0.0119048	0.0053
0.0214286	0.0119048	0.0053

0.0261905	0.0119048	0.0053
0.0261905	0.0166667	0.0053
0.0309524	0.0166667	0.0053
0.0309524	0.0119048	0.0053
0.0261905	0.0119048	0.0053

0.0309524	0.0119048	0.0053
0.0309524	0.0166667	0.0053
0.0357143	0.0166667	0.0053
0.0357143	0.0119048	0.0053
0.0309524	0.0119048	0.0053

0.0357143	0.0119048	0.0053
0.0357143	0.0166667	0.0053
0.0404762	0.0166667	0.0053
0.0404762	0.0119048	0.0053
0.0357143	0.0119048	0.0053

0.0404762	0.0119048	0.0053
0.0404762	0.0166667	0.0053
0.0452381	0.0166667	0.0053
0.0452381	0.0119048	0.0053
0.0404762	0.0119048	0.0053

0.0452381	0.0119048	0.0053
0.0452381	0.0166667	0.0053
0.05	0.0166667	0.0053
0.05	0.0119048	0.0053
0.0452381	0.0119048	0.0053

-0.05	0.0166667	0.0053
-0.05	0.0214286	0.0053
-0.0452381	0.0214286	0.0053
-0.0452381	0.0166667	0.0053
-0.05	0.0166667	0.0053

-0.0452381	0.0166667	0.0053
-0.0452381	0.0214286	0.0053
-0.0404762	0.0214286	0.0053
-0.0404762	0.0166667	0.0053
-0.0452381	0.0166667	0.0053

-0.0404762	0.0166667	0.0053
-0.0404762	0.0214286	0.0053
-0.0357143	0.0214286	0.0053
-0.0357143	0.0166667	0.0053
-0.0404762	0.0166667	0.0053

-0.0357143	0.0166667	0.0053
-0.0357143	0.0214286	0.0053
-0.0309524	0.0214286	0.0053
-0.0309524	0.0166667	0.0053
-0.0357143	0.0166667	0.0053

-0.0309524	0.0166667	0.0053
-0.0309524	0.0214286	0.0053
-0.0261905	0.0214286	0.0053
-0.0261905	0.0166667	0.0053
-0.0309524	0.0166667	0.0053

-0.0261905	0.0166667	0.0053
-0.0261905	0.0214286	0.0053
-0.0214286	0.0214286	0.0053
-0.0214286	0.0166667	0.0053
-0.0261905	0.0166667	0.0053

-0.0214286	0.0166667	0.0053
-0.0214286	0.0214286	0.0053
-0.0166667	0.0214286	0.0053
-0.0166667	0.0166667	0.0053
-0.0214286	0.0166667	0.0053

-0.0166667	0.0166667	0.0053
-0.0166667	0.0214286	0.0053
-0.0119048	0.0214286	0.0053
-0.0119048	0.0166667	0.0053
-0.0166667	0.0166667	0.0053

-0.0119048	0.0166667	0.0053
-0.0119048	0.0214286	0.0053
-0.00714286	0.0214286	0.0053
-0.00714286	0.0166667	0.0053
-0.0119048	0.0166667	0.0053

-0.00714286	0.0166667	0.0053
-0.00714286	0.0214286	0.0053
-0.00238095	0.0214286	0.0053
-0.00238095	0.0166667	0.0053
-0.00714286	0.0166667	0.0053

-0.00238095	0.0166667	0.0053
-0.00238095	0.0214286	0.0053
0.00238095	0.0214286	0.0053
0.00238095	0.0166667	0.0053
-0.00238095	0.0166667	0.0053

0.00238095	0.0166667	0.0053
0.00238095	0.0214286	0.0053
0.00714286	0.0214286	0.0053
0.00714286	0.0166667	0.0053
0.00238095	0.0166667	0.0053

0.00714286	0.0166667	0.0053
0.00714286	0.0214286	0.0053
0.0119048	0.0214286	0.0053
0.0119048	0.0166667	0.0053
0.00714286	0.0166667	0.0053

0.0119048	0.0166667	0.0053
0.0119048	0.0214286	0.0053
0.0166667	0.0214286	0.0053
0.0166667	0.0166667	0.0053
0.0119048	0.0166667	0.0053

0.0166667	0.0166667	0.0053
0.0166667	0.0214286	0.0053
0.0214286	0.0214286	0.0053
0.0214286	0.0166667	0.0053
0.0166667	0.0166667	0.0053

0.0214286	0.0166667	0.0053
0.0214286	0.0214286	0.0053
0.0261905	0.0214286	0.0053
0.0261905	0.0166667	0.0053
0.0214286	0.0166667	0.0053

0.0261905	0.0166667	0.0053
0.0261905	0.0214286	0.0053
0.0309524	0.0214286	0.0053
0.0309524	0.0166667	0.0053
0.0261905	0.0166667	0.0053

0.0309524	0.0166667	0.0053
0.0309524	0.0214286	0.0053
0.0357143	0.0214286	0.0053
0.0357143	0.0166667	0.0053
0.0309524	0.0166667	0.0053

0.0357143	0.0166667	0.0053
0.0357143	0.0214286	0.0053
0.0404762	0.0214286	0.0053
0.0404762	0.0166667	0.0053
0.0357143	0.0166667	0.0053

0.0404762	0.0166667	0.0053
0.0404762	0.0214286	0.0053
0.0452381	0.0214286	0.0053
0.0452381	0.0166667	0.0053
0.0404762	0.0166667	0.0053

0.0452381	0.0166667	0.0053
0.0452381	0.0214286	0.0053
0.05	0.0214286	0.0053
0.05	0.0166667	0.0053
0.0452381	0.0166667	0.0053

-0.05	0.0214286	0.0053
-0.05	0.0261905	0.0053
-0.0452381	0.0261905	0.0053
-0.0452381	0.0214286	0.0053
-0.05	0.0214286	0.0053

-0.0452381	0.0214286	0.0053
-0.0452381	0.0261905	0.0053
-0.0404762	0.0261905	0.0053
-0.0404762	0.0214286	0.0053
-0.0452381	0.0214286	0.0053

-0.0404762	0.0214286	0.0053
-0.0404762	0.0261905	0.0053
-0.0357143	0.0261905	0.0053
-0.0357143	0.0214286	0.0053
-0.0404762	0.0214286	0.0053

-0.0357143	0.0214286	0.0053
-0.0357143	0.0261905	0.0053
-0.0309524	0.0261905	0.0053
-0.0309524	0.0214286	0.0053
-0.0357143	0.0214286	0.0053

-0.0309524	0.0214286	0.0053
-0.0309524	0.0261905	0.0053
-0.0261905	0.0261905	0.0053
-0.0261905	0.0214286	0.0053
-0.0309524	0.0214286	0.0053

-0.0261905	0.0214286	0.0053
-0.0261905	0.0261905	0.0053
-0.0214286	0.0261905	0.0053
-0.0214286	0.0214286	0.0053
-0.0261905	0.0214286	0.0053

-0.0214286	0.0214286	0.0053
-0.0214286	0.0261905	0.0053
-0.0166667	0.0261905	0.0053
-0.0166667	0.0214286	0.0053
-0.0214286	0.0214286	0.0053

-0.0166667	0.0214286	0.0053
-0.0166667	0.0261905	0.0053
-0.0119048	0.0261905	0.0053
-0.0119048	0.0214286	0.0053
-0.0166667	0.0214286	0.0053

-0.0119048	0.0214286	0.0053
-0.0119048	0.0261905	0.0053
-0.00714286	0.0261905	0.0053
-0.00714286	0.0214286	0.0053
-0.0119048	0.0214286	0.0053

-0.00714286	0.0214286	0.0053
-0.00714286	0.0261905	0.0053
-0.00238095	0.0261905	0.0053
-0.00238095	0.0214286	0.0053
-0.00714286	0.0214286	0.0053

-0.00238095	0.0214286	0.0053
-0.00238095	0.0261905	0.0053
0.00238095	0.0261905	0.0053
0.00238095	0.0214286	0.0053
-0.00238095	0.0214286	0.0053

0.00238095	0.0214286	0.0053
0.00238095	0.0261905	0.0053
0.00714286	0.0261905	0.0053
0.00714286	0.0214286	0.0053
0.00238095	0.0214286	0.0053

0.00714286	0.0214286	0.0053
0.00714286	0.0261905	0.0053
0.0119048	0.0261905	0.0053
0.0119048	0.0214286	0.0053
0.00714286	0.0214286	0.0053

0.0119048	0.0214286	0.0053
0.0119048	0.0261905	0.0053
0.0166667	0.0261905	0.0053
0.0166667	0.0214286	0.0053
0.0119048	0.0214286	0.0053

0.0166667	0.0214286	0.0053
0.0166667	0.0261905	0.0053
0.0214286	0.0261905	0.0053
0.0214286	0.0214286	0.0053
0.0166667	0.0214286	0.0053

0.0214286	0.0214286	0.0053
0.0214286	0.0261905	0.0053
0.0261905	0.0261905	0.0053
0.0261905	0.0214286	0.0053
0.0214286	0.0214286	0.0053

0.0261905	0.0214286	0.0053
0.0261905	0.0261905	0.0053
0.0309524	0.0261905	0.0053
0.0309524	0.0214286	0.0053
0.0261905	0.0214286	0.0053

0.0309524	0.0214286	0.0053
0.0309524	0.0261905	0.0053
0.0357143	0.0261905	0.0053
0.0357143	0.0214286	0.0053
0.0309524	0.0214286	0.0053

0.0357143	0.0214286	0.0053
0.0357143	0.0261905	0.0053
0.0404762	0.0261905	0.0053
0.0404762	0.0214286	0.0053
0.0357143	0.0214286	0.0053

0.0404762	0.0214286	0.0053
0.0404762	0.0261905	0.0053
0.0452381	0.0261905	0.0053
0.0452381	0.0214286	0.0053
0.0404762	0.0214286	0.0053

0.0452381	0.0214286	0.0053
0.0452381	0.0261905	0.0053
0.05	0.0261905	0.0053
0.05	0.0214286	0.0053
0.0452381	0.0214286	0.0053

-0.05	0.0261905	0.0053
-0.05	0.0309524	0.0053
-0.0452381	0.0309524	0.0053
-0.0452381	0.0261905	0.0053
-0.05	0.0261905	0.0053

-0.0452381	0.0261905	0.0053
-0.0452381	0.0309524	0.0053
-0.0404762	0.0309524	0.0053
-0.0404762	0.0261905	0.0053
-0.0452381	0.0261905	0.0053

-0.0404762	0.0261905	0.0053
-0.0404762	0.0309524	0.0053
-0.0357143	0.0309524	0.0053
-0.0357143	0.0261905	0.0053
-0.0404762	0.0261905	0.0053

-0.0357143	0.0261905	0.0053
-0.0357143	0.0309524	0.0053
-0.0309524	0.0309524	0.0053
-0.0309524	0.0261905	0.0053
-0.0357143	0.0261905	0.0053

-0.0309524	0.0261905	0.0053
-0.0309524	0.0309524	0.0053
-0.0261905	0.0309524	0.0053
-0.0261905	0.0261905	0.0053
-0.0309524	0.0261905	0.0053

-0.0261905	0.0261905	0.0053
-0.0261905	0.0309524	0.0053
-0.0214286	0.0309524	0.0053
-0.0214286	0.0261905	0.0053
-0.0261905	0.0261905	0.0053

-0.0214286	0.0261905	0.0053
-0.0214286	0.0309524	0.0053
-0.0166667	0.0309524	0.0053
-0.0166667	0.0261905	0.0053
-0.0214286	0.0261905	0.0053

-0.0166667	0.0261905	0.0053
-0.0166667	0.0309524	0.0053
-0.0119048	0.0309524	0.0053
-0.0119048	0.0261905	0.0053
-0.0166667	0.0261905	0.0053

-0.0119048	0.0261905	0.0053
-0.0119048	0.0309524	0.0053
-0.00714286	0.0309524	0.0053
-0.00714286	0.0261905	0.0053
-0.0119048	0.0261905	0.0053

-0.00714286	0.0261905	0.0053
-0.00714286	0.0309524	0.0053
-0.00238095	0.0309524	0.0053
-0.00238095	0.0261905	0.0053
-0.00714286	0.0261905	0.0053

-0.00238095	0.0261905	0.0053
-0.00238095	0.0309524	0.0053
0.00238095	0.0309524	0.0053
0.00238095	0.0261905	0.0053
-0.00238095	0.0261905	0.0053

0.00238095	0.0261905	0.0053
0.00238095	0.0309524	0.0053
0.00714286	0.0309524	0.0053
0.00714286	0.0261905	0.0053
0.00238095	0.0261905	0.0053

0.00714286	0.0261905	0.0053
0.00714286	0.0309524	0.0053
0.0119048	0.0309524	0.0053
0.0119048	0.0261905	0.0053
0.00714286	0.0261905	0.0053

0.0119048	0.0261905	0.0053
0.0119048	0.0309524	0.0053
0.0166667	0.0309524	0.0053
0.0166667	0.0261905	0.0053
0.0119048	0.0261905	0.0053

0.0166667	0.0261905	0.0053
0.0166667	0.0309524	0.0053
0.0214286	0.0309524	0.0053
0.0214286	0.0261905	0.0053
0.0166667	0.0261905	0.0053

0.0214286	0.0261905	0.0053
0.0214286	0.0309524	0.0053
0.0261905	0.0309524	0.0053
0.0261905	0.0261905	0.0053
0.0214286	0.0261905	0.0053

0.0261905	0.0261905	0.0053
0.0261905	0.0309524	0.0053
0.0309524	0.0309524	0.0053
0.0309524	0.0261905	0.0053
0.0261905	0.0261905	0.0053

0.0309524	0.0261905	0.0053
0.0309524	0.0309524	0.0053
0.0357143	0.0309524	0.0053
0.0357143	0.0261905	0.0053
0.0309524	0.0261905	0.0053

0.0357143	0.0261905	0.0053
0.0357143	0.0309524	0.0053
0.0404762	0.0309524	0.0053
0.0404762	0.0261905	0.0053
0.0357143	0.0261905	0.0053

0.0404762	0.0261905	0.0053
0.0404762	0.0309524	0.0053
0.0452381	0.0309524	0.0053
0.0452381	0.0261905	0.0053
0.0404762	0.0261905	0.0053

0.0452381	0.0261905	0.0053
0.0452381	0.0309524	0.0053
0.05	0.0309524	0.0053
0.05	0.0261905	0.0053
0.0452381	0.0261905	0.0053

-0.05	0.0309524	0.0053
-0.05	0.0357143	0.0053
-0.0452381	0.0357143	0.0053
-0.0452381	0.0309524	0.0053
-0.05	0.0309524	0.0053

-0.0452381	0.0309524	0.0053
-0.0452381	0.0357143	0.0053
-0.0404762	0.0357143	0.0053
-0.0404762	0.0309524	0.0053
-0.0452381	0.0309524	0.0053

-0.0404762	0.0309524	0.0053
-0.0404762	0.0357143	0.0053
-0.0357143	0.0357143	0.0053
-0.0357143	0.0309524	0.0053
-0.0404762	0.0309524	0.0053

-0.0357143	0.0309524	0.0053
-0.0357143	0.0357143	0.0053
-0.0309524	0.0357143	0.0053
-0.0309524	0.0309524	0.0053
-0.0357143	0.0309524	0.0053

-0.0309524	0.0309524	0.0053
-0.0309524	0.0357143	0.0053
-0.0261905	0.0357143	0.0053
-0.0261905	0.0309524	0.0053
-0.0309524	0.0309524	0.0053

-0.0261905	0.0309524	0.0053
-0.0261905	0.0357143	0.0053
-0.0214286	0.0357143	0.0053
-0.0214286	0.0309524	0.0053
-0.0261905	0.0309524	0.0053

-0.0214286	0.0309524	0.0053
-0.0214286	0.0357143	0.0053
-0.0166667	0.0357143	0.0053
-0.0166667	0.0309524	0.0053
-0.0214286	0.0309524	0.0053

-0.0166667	0.0309524	0.0053
-0.0166667	0.0357143	0.0053
-0.0119048	0.0357143	0.0053
-0.0119048	0.0309524	0.0053
-0.0166667	0.0309524	0.0053

-0.0119048	0.0309524	0.0053
-0.0119048	0.0357143	0.0053
-0.00714286	0.0357143	0.0053
-0.00714286	0.0309524	0.0053
-0.0119048	0.0309524	0.0053

-0.00714286	0.0309524	0.0053
-0.00714286	0.0357143	0.0053
-0.00238095	0.0357143	0.0053
-0.00238095	0.0309524	0.0053
-0.00714286	0.0309524	0.0053

-0.00238095	0.0309524	0.0053
-0.00238095	0.0357143	0.0053
0.00238095	0.0357143	0.0053
0.00238095	0.0309524	0.0053
-0.00238095	0.0309524	0.0053

0.00238095	0.0309524	0.0053
0.00238095	0.0357143	0.0053
0.00714286	0.0357143	0.0053
0.00714286	0.0309524	0.0053
0.00238095	0.0309524	0.0053

0.00714286	0.0309524	0.0053
0.00714286	0.0357143	0.0053
0.0119048	0.0357143	0.0053
0.0119048	0.0309524	0.0053
0.00714286	0.0309524	0.0053

0.0119048	0.0309524	0.0053
0.0119048	0.0357143	0.0053
0.0166667	0.0357143	0.0053
0.0166667	0.0309524	0.0053
0.0119048	0.0309524	0.0053

0.0166667	0.0309524	0.0053
0.0166667	0.0357143	0.0053
0.0214286	0.0357143	0.0053
0.0214286	0.0309524	0.0053
0.0166667	0.0309524	0.0053

0.0214286	0.0309524	0.0053
0.0214286	0.0357143	0.0053
0.0261905	0.0357143	0.0053
0.0261905	0.0309524	0.0053
0.0214286	0.0309524	0.0053

0.0261905	0.0309524	0.0053
0.0261905	0.0357143	0.0053
0.0309524	0.0357143	0.0053
0.0309524	0.0309524	0.0053
0.0261905	0.0309524	0.0053

0.0309524	0.0309524	0.0053
0.0309524	0.0357143	0.0053
0.0357143	0.0357143	0.0053
0.0357143	0.0309524	0.0053
0.0309524	0.0309524	0.0053

0.0357143	0.0309524	0.0053
0.0357143	0.0357143	0.0053
0.0404762	0.0357143	0.0053
0.0404762	0.0309524	0.0053
0.0357143	0.0309524	0.0053

0.0404762	0.0309524	0.0053
0.0404762	0.0357143	0.0053
0.0452381	0.0357143	0.0053
0.0452381	0.0309524	0.0053
0.0404762	0.0309524	0.0053

0.0452381	0.0309524	0.0053
0.0452381	0.0357143	0.0053
0.05	0.0357143	0.0053
0.05	0.0309524	0.0053
0.0452381	0.0309524	0.0053

-0.05	0.0357143	0.0053
-0.05	0.0404762	0.0053
-0.0452381	0.0404762	0.0053
-0.0452381	0.0357143	0.0053
-0.05	0.0357143	0.0053

-0.0452381	0.0357143	0.0053
-0.0452381	0.0404762	0.0053
-0.0404762	0.0404762	0.0053
-0.0404762	0.0357143	0.0053
-0.0452381	0.0357143	0.0053

-0.0404762	0.0357143	0.0053
-0.0404762	0.0404762	0.0053
-0.0357143	0.0404762	0.0053
-0.0357143	0.0357143	0.0053
-0.0404762	0.0357143	0.0053

-0.0357143	0.0357143	0.0053
-0.0357143	0.0404762	0.0053
-0.0309524	0.0404762	0.0053
-0.0309524	0.0357143	0.0053
-0.0357143	0.0357143	0.0053

-0.0309524	0.0357143	0.0053
-0.0309524	0.0404762	0.0053
-0.0261905	0.0404762	0.0053
-0.0261905	0.0357143	0.0053
-0.0309524	0.0357143	0.0053

-0.0261905	0.0357143	0.0053
-0.0261905	0.0404762	0.0053
-0.0214286	0.0404762	0.0053
-0.0214286	0.0357143	0.0053
-0.0261905	0.0357143	0.0053

-0.0214286	0.0357143	0.0053
-0.0214286	0.0404762	0.0053
-0.0166667	0.0404762	0.0053
-0.0166667	0.0357143	0.0053
-0.0214286	0.0357143	0.0053

-0.0166667	0.0357143	0.0053
-0.0166667	0.0404762	0.0053
-0.0119048	0.0404762	0.0053
-0.0119048	0.0357143	0.0053
-0.0166667	0.0357143	0.0053

-0.0119048	0.0357143	0.0053
-0.0119048	0.0404762	0.0053
-0.00714286	0.0404762	0.0053
-0.00714286	0.0357143	0.0053
-0.0119048	0.0357143	0.0053

-0.00714286	0.0357143	0.0053
-0.00714286	0.0404762	0.0053
-0.00238095	0.0404762	0.0053
-0.00238095	0.0357143	0.0053
-0.00714286	0.0357143	0.0053

-0.00238095	0.0357143	0.0053
-0.00238095	0.0404762	0.0053
0.00238095	0.0404762	0.0053
0.00238095	0.0357143	0.0053
-0.00238095	0.0357143	0.0053

0.00238095	0.0357143	0.0053
0.00238095	0.0404762	0.0053
0.00714286	0.0404762	0.0053
0.00714286	0.0357143	0.0053
0.00238095	0.0357143	0.0053

0.00714286	0.0357143	0.0053
0.00714286	0.0404762	0.0053
0.0119048	0.0404762	0.0053
0.0119048	0.0357143	0.0053
0.00714286	0.0357143	0.0053

0.0119048	0.0357143	0.0053
0.0119048	0.0404762	0.0053
0.0166667	0.0404762	0.0053
0.0166667	0.0357143	0.0053
0.0119048	0.0357143	0.0053

0.0166667	0.0357143	0.0053
0.0166667	0.0404762	0.0053
0.0214286	0.0404762	0.0053
0.0214286	0.0357143	0.0053
0.0166667	0.0357143	0.0053

0.0214286	0.0357143	0.0053
0.0214286	0.0404762	0.0053
0.0261905	0.0404762	0.0053
0.0261905	0.0357143	0.0053
0.0214286	0.0357143	0.0053

0.0261905	0.0357143	0.0053
0.0261905	0.0404762	0.0053
0.0309524	0.0404762	0.0053
0.0309524	0.0357143	0.0053
0.0261905	0.0357143	0.0053

0.0309524	0.0357143	0.0053
0.0309524	0.0404762	0.0053
0.0357143	0.0404762	0.0053
0.0357143	0.0357143	0.0053
0.0309524	0.0357143	0.0053

0.0357143	0.0357143	0.0053
0.0357143	0.0404762	0.0053
0.0404762	0.0404762	0.0053
0.0404762	0.0357143	0.0053
0.0357143	0.0357143	0.0053

0.0404762	0.0357143	0.0053
0.0404762	0.0404762	0.0053
0.0452381	0.0404762	0.0053
0.0452381	0.0357143	0.0053
0.0404762	0.0357143	0.0053

0.0452381	0.0357143	0.0053
0.0452381	0.0404762	0.0053
0.05	0.0404762	0.0053
0.05	0.0357143	0.0053
0.0452381	0.0357143	0.0053

-0.05	0.0404762	0.0053
-0.05	0.0452381	0.0053
-0.0452381	0.0452381	0.0053
-0.0452381	0.0404762	0.0053
-0.05	0.0404762	0.0053

-0.0452381	0.0404762	0.0053
-0.0452381	0.0452381	0.0053
-0.0404762	0.0452381	0.0053
-0.0404762	0.0404762	0.0053
-0.0452381	0.0404762	0.0053

-0.0404762	0.0404762	0.0053
-0.0404762	0.0452381	0.0053
-0.0357143	0.0452381	0.0053
-0.0357143	0.0404762	0.0053
-0.0404762	0.0404762	0.0053

-0.0357143	0.0404762	0.0053
-0.0357143	0.0452381	0.0053
-0.0309524	0.0452381	0.0053
-0.0309524	0.0404762	0.0053
-0.0357143	0.0404762	0.0053

-0.0309524	0.0404762	0.0053
-0.0309524	0.0452381	0.0053
-0.0261905	0.0452381	0.0053
-0.0261905	0.0404762	0.0053
-0.0309524	0.0404762	0.0053

-0.0261905	0.0404762	0.0053
-0.0261905	0.0452381	0.0053
-0.0214286	0.0452381	0.0053
-0.0214286	0.0404762	0.0053
-0.0261905	0.0404762	0.0053

-0.0214286	0.0404762	0.0053
-0.0214286	0.0452381	0.0053
-0.0166667	0.0452381	0.0053
-0.0166667	0.0404762	0.0053
-0.0214286	0.0404762	0.0053

-0.0166667	0.0404762	0.0053
-0.0166667	0.0452381	0.0053
-0.0119048	0.0452381	0.0053
-0.0119048	0.0404762	0.0053
-0.0166667	0.0404762	0.0053

-0.0119048	0.0404762	0.0053
-0.0119048	0.0452381	0.0053
-0.00714286	0.0452381	0.0053
-0.00714286	0.0404762	0.0053
-0.0119048	0.0404762	0.0053

-0.00714286	0.0404762	0.0053
-0.00714286	0.0452381	0.0053
-0.00238095	0.0452381	0.0053
-0.00238095	0.0404762	0.0053
-0.00714286	0.0404762	0.0053

-0.00238095	0.0404762	0.0053
-0.00238095	0.0452381	0.0053
0.00238095	0.0452381	0.0053
0.00238095	0.0404762	0.0053
-0.00238095	0.0404762	0.0053

0.00238095	0.0404762	0.0053
0.00238095	0.0452381	0.0053
0.00714286	0.0452381	0.0053
0.00714286	0.0404762	0.0053
0.00238095	0.0404762	0.0053

0.00714286	0.0404762	0.0053
0.00714286	0.0452381	0.0053
0.0119048	0.0452381	0.0053
0.0119048	0.0404762	0.0053
0.00714286	0.0404762	0.0053

0.0119048	0.0404762	0.0053
0.0119048	0.0452381	0.0053
0.0166667	0.0452381	0.0053
0.0166667	0.0404762	0.0053
0.0119048	0.0404762	0.0053

0.0166667	0.0404762	0.0053
0.0166667	0.0452381	0.0053
0.0214286	0.0452381	0.0053
0.0214286	0.0404762	0.0053
0.0166667	0.0404762	0.0053

0.0214286	0.0404762	0.0053
0.0214286	0.0452381	0.0053
0.0261905	0.0452381	0.0053
0.0261905	0.0404762	0.0053
0.0214286	0.0404762	0.0053

0.0261905	0.0404762	0.0053
0.0261905	0.0452381	0.0053
0.0309524	0.0452381	0.0053
0.0309524	0.0404762	0.0053
0.0261905	0.0404762	0.0053

0.0309524	0.0404762	0.0053
0.0309524	0.0452381	0.0053
0.0357143	0.0452381	0.0053
0.0357143	0.0404762	0.0053
0.0309524	0.0404762	0.0053

0.0357143	0.0404762	0.0053
0.0357143	0.0452381	0.0053
0.0404762	0.0452381	0.0053
0.0404762	0.0404762	0.0053
0.0357143	0.0404762	0.0053

0.0404762	0.0404762	0.0053
0.0404762	0.0452381	0.0053
0.0452381	0.0452381	0.0053
0.0452381	0.0404762	0.0053
0.0404762	0.0404762	0.0053

0.0452381	0.0404762	0.0053
0.0452381	0.0452381	0.0053
0.05	0.0452381	0.0053
0.05	0.0404762	0.0053
0.0452381	0.0404762	0.0053

-0.05	0.0452381	0.0053
-0.05	0.05	0.0053
-0.0452381	0.05	0.0053
-0.0452381	0.0452381	0.0053
-0.05	0.0452381	0.0053

-0.0452381	0.0452381	0.0053
-0.0452381	0.05	0.0053
-0.0404762	0.05	0.0053
-0.0404762	0.0452381	0.0053
-0.0452381	0.0452381	0.0053

-0.0404762	0.0452381	0.0053
-0.0404762	0.05	0.0053
-0.0357143	0.05	0.0053
-0.0357143	0.0452381	0.0053
-0.0404762	0.0452381	0.0053

-0.0357143	0.0452381	0.0053
-0.0357143	0.05	0.0053
-0.0309524	0.05	0.0053
-0.0309524	0.0452381	0.0053
-0.0357143	0.0452381	0.0053

-0.0309524	0.0452381	0.0053
-0.0309524	0.05	0.0053
-0.0261905	0.05	0.0053
-0.0261905	0.0452381	0.0053
-0.0309524	0.0452381	0.0053

-0.0261905	0.0452381	0.0053
-0.0261905	0.05	0.0053
-0.0214286	0.05	0.0053
-0.0214286	0.0452381	0.0053
-0.0261905	0.0452381	0.0053

-0.0214286	0.0452381	0.0053
-0.0214286	0.05	0.0053
-0.0166667	0.05	0.0053
-0.0166667	0.0452381	0.0053
-0.0214286	0.0452381	0.0053

-0.0166667	0.0452381	0.0053
-0.0166667	0.05	0.0053
-0.0119048	0.05	0.0053
-0.0119048	0.0452381	0.0053
-0.0166667	0.0452381	0.0053

-0.0119048	0.0452381	0.0053
-0.0119048	0.05	0.0053
-0.00714286	0.05	0.0053
-0.00714286	0.0452381	0.0053
-0.0119048	0.0452381	0.0053

-0.00714286	0.0452381	0.0053
-0.00714286	0.05	0.0053
-0.00238095	0.05	0.0053
-0.00238095	0.0452381	0.0053
-0.00714286	0.0452381	0.0053

-0.00238095	0.0452381	0.0053
-0.00238095	0.05	0.0053
0.00238095	0.05	0.0053
0.00238095	0.0452381	0.0053
-0.00238095	0.0452381	0.0053

0.00238095	0.0452381	0.0053
0.00238095	0.05	0.0053
0.00714286	0.05	0.0053
0.00714286	0.0452381	0.0053
0.00238095	0.0452381	0.0053

0.00714286	0.0452381	0.0053
0.00714286	0.05	0.0053
0.0119048	0.05	0.0053
0.0119048	0.0452381	0.0053
0.00714286	0.0452381	0.0053

0.0119048	0.0452381	0.0053
0.0119048	0.05	0.0053
0.0166667	0.05	0.0053
0.0166667	0.0452381	0.0053
0.0119048	0.0452381	0.0053

0.0166667	0.0452381	0.0053
0.0166667	0.05	0.0053
0.0214286	0.05	0.0053
0.0214286	0.0452381	0.0053
0.0166667	0.0452381	0.0053

0.0214286	0.0452381	0.0053
0.0214286	0.05	0.0053
0.0261905	0.05	0.0053
0.0261905	0.0452381	0.0053
0.0214286	0.0452381	0.0053

0.0261905	0.0452381	0.0053
0.0261905	0.05	0.0053
0.0309524	0.05	0.0053
0.0309524	0.0452381	0.0053
0.0261905	0.0452381	0.0053

0.0309524	0.0452381	0.0053
0.0309524	0.05	0.0053
0.0357143	0.05	0.0053
0.0357143	0.0452381	0.0053
0.0309524	0.0452381	0.0053

0.0357143	0.0452381	0.0053
0.0357143	0.05	0.0053
0.0404762	0.05	0.0053
0.0404762	0.0452381	0.0053
0.0357143	0.0452381	0.0053

0.0404762	0.0452381	0.0053
0.0404762	0.05	0.0053
0.0452381	0.05	0.0053
0.0452381	0.0452381	0.0053
0.0404762	0.0452381	0.0053

0.0452381	0.0452381	0.0053
0.0452381	0.05	0.0053
0.05	0.05	0.0053
0.05	0.0452381	0.0053
0.0452381	0.0452381	0.0053

