-0.049	-0.049	-0.004
-0.035	-0.049	-0.004
-0.035	-0.049	-0.00133333
-0.049	-0.049	-0.00133333
-0.049	-0.049	-0.004

-0.049	-0.049	-0.00133333
-0.035	-0.049	-0.00133333
-0.035	-0.049	0.00133333
-0.049	-0.049	0.00133333
-0.049	-0.049	-0.00133333

-0.049	-0.049	0.00133333
-0.035	-0.049	0.00133333
-0.035	-0.049	0.004
-0.049	-0.049	0.004
-0.049	-0.049	0.00133333

-0.035	-0.049	-0.004
-0.021	-0.049	-0.004
-0.021	-0.049	-0.00133333
-0.035	-0.049	-0.00133333
-0.035	-0.049	-0.004

-0.035	-0.049	-0.00133333
-0.021	-0.049	-0.00133333
-0.021	-0.049	0.00133333
-0.035	-0.049	0.00133333
-0.035	-0.049	-0.00133333

-0.035	-0.049	0.00133333
-0.021	-0.049	0.00133333
-0.021	-0.049	0.004
-0.035	-0.049	0.004
-0.035	-0.049	0.00133333

-0.021	-0.049	-0.004
-0.007	-0.049	-0.004
-0.007	-0.049	-0.00133333
-0.021	-0.049	-0.00133333
-0.021	-0.049	-0.004

-0.021	-0.049	-0.00133333
-0.007	-0.049	-0.00133333
-0.007	-0.049	0.00133333
-0.021	-0.049	0.00133333
-0.021	-0.049	-0.00133333

-0.021	-0.049	0.00133333
-0.007	-0.049	0.00133333
-0.007	-0.049	0.004
-0.021	-0.049	0.004
-0.021	-0.049	0.00133333

-0.007	-0.049	-0.004
0.007	-0.049	-0.004
0.007	-0.049	-0.00133333
-0.007	-0.049	-0.00133333
-0.007	-0.049	-0.004

-0.007	-0.049	-0.00133333
0.007	-0.049	-0.00133333
0.007	-0.049	0.00133333
-0.007	-0.049	0.00133333
-0.007	-0.049	-0.00133333

-0.007	-0.049	0.00133333
0.007	-0.049	0.00133333
0.007	-0.049	0.004
-0.007	-0.049	0.004
-0.007	-0.049	0.00133333

0.007	-0.049	-0.004
0.021	-0.049	-0.004
0.021	-0.049	-0.00133333
0.007	-0.049	-0.00133333
0.007	-0.049	-0.004

0.007	-0.049	-0.00133333
0.021	-0.049	-0.00133333
0.021	-0.049	0.00133333
0.007	-0.049	0.00133333
0.007	-0.049	-0.00133333

0.007	-0.049	0.00133333
0.021	-0.049	0.00133333
0.021	-0.049	0.004
0.007	-0.049	0.004
0.007	-0.049	0.00133333

0.021	-0.049	-0.004
0.035	-0.049	-0.004
0.035	-0.049	-0.00133333
0.021	-0.049	-0.00133333
0.021	-0.049	-0.004

0.021	-0.049	-0.00133333
0.035	-0.049	-0.00133333
0.035	-0.049	0.00133333
0.021	-0.049	0.00133333
0.021	-0.049	-0.00133333

0.021	-0.049	0.00133333
0.035	-0.049	0.00133333
0.035	-0.049	0.004
0.021	-0.049	0.004
0.021	-0.049	0.00133333

0.035	-0.049	-0.004
0.049	-0.049	-0.004
0.049	-0.049	-0.00133333
0.035	-0.049	-0.00133333
0.035	-0.049	-0.004

0.035	-0.049	-0.00133333
0.049	-0.049	-0.00133333
0.049	-0.049	0.00133333
0.035	-0.049	0.00133333
0.035	-0.049	-0.00133333

0.035	-0.049	0.00133333
0.049	-0.049	0.00133333
0.049	-0.049	0.004
0.035	-0.049	0.004
0.035	-0.049	0.00133333

