#prim: 59, nvertex: 4
Node1: -0.051	-0.05	-0.0149
Node2: -0.051	0.05	-0.0149
Node3: -0.051	0.05	-0.0129
Node4: -0.051	-0.05	-0.0129
PrimOrigin: -0.051	0	-0.0139
Primitive lengths: 0.1	0.002
Norm: -1	-0	0
#volref1: 6, volref2: -1
#NbSegX: 5, NbSegZ: 2
#ParentObj: 1	EType: 4
#SurfX	SurfY	SurfZ	SurfLZ	SurfLZ
-0.051	0	-0.0139	0.1	0.002
#DirnCosn: 
0, 1, 0
-1, -0, 0
0, -0, 1
#SurfLambda: 0.92	SurfV: 0
Using the input, the aspect ratio of the elements on prim: 59
NbSegX: 5, SurfElLX: 0.02, NbSegZ: 2, SurfElLZ: 0.001, AR: 20
After analyzing the aspect ratio of the elements
NbSegX: 5, SurfElLX: 0.02, NbSegZ: 1, SurfElLZ: 0.002, AR: 10
Element begin: 467, Element end: 471
Number of elements on primitive: 5
