#prim: 82, nvertex: 4
Node1: 0.051	-0.05	-0.004
Node2: 0.051	0.05	-0.004
Node3: 0.051	0.05	0.004
Node4: 0.051	-0.05	0.004
PrimOrigin: 0.051	0	0
Primitive lengths: 0.1	0.008
Norm: 1	0	-0
#volref1: 7, volref2: -1
#NbSegX: 5, NbSegZ: 5
#ParentObj: 1	EType: 4
#SurfX	SurfY	SurfZ	SurfLZ	SurfLZ
0.051	0	0	0.1	0.008
#DirnCosn: 
0, 1, 0
1, 0, -0
-0, 0, -1
#SurfLambda: 0.92	SurfV: 0
Using the input, the aspect ratio of the elements on prim: 82
NbSegX: 5, SurfElLX: 0.02, NbSegZ: 5, SurfElLZ: 0.0016, AR: 12.5
After analyzing the aspect ratio of the elements
NbSegX: 5, SurfElLX: 0.02, NbSegZ: 4, SurfElLZ: 0.002, AR: 10
Element begin: 573, Element end: 592
Number of elements on primitive: 20
