#prim: 43, nvertex: 4
Node1: 0.05	0.05	-0.0029
Node2: 0.05	0.05	-0.004
Node3: 0.051	0.05	-0.004
Node4: 0.051	0.05	-0.0029
PrimOrigin: 0.0505	0.05	-0.00345
Primitive lengths: 0.0011	0.001
Norm: -0	1	0
#volref1: 7, volref2: -1
#NbSegX: 1, NbSegZ: 1
#ParentObj: 1	EType: 4
#SurfX	SurfY	SurfZ	SurfLZ	SurfLZ
0.0505	0.05	-0.00345	0.0011	0.001
#DirnCosn: 
0, 0, -1
-0, 1, 0
1, 0, 0
#SurfLambda: 0.92	SurfV: 0
Using the input, the aspect ratio of the elements on prim: 43
NbSegX: 1, SurfElLX: 0.0011, NbSegZ: 1, SurfElLZ: 0.001, AR: 1.1
After analyzing the aspect ratio of the elements
NbSegX: 1, SurfElLX: 0.0011, NbSegZ: 1, SurfElLZ: 0.001, AR: 1.1
Element begin: 155, Element end: 155
Number of elements on primitive: 1
