#Number of vertices:
4
#Vertex 0:
0.05 -0.05 -0.006
#Vertex 1:
0.05 0.05 -0.006
#Vertex 2:
0.05 0.05 -0.0053
#Vertex 3:
0.05 -0.05 -0.0053
#Outward normal:
1 0 -0
#Volume references:
1 -1
#Maximum number of segments:
0 0
#Information on X periodicity:
0 0 0
#Information on Y periodicity:
0 0 0
#Information on Z periodicity:
0 0 0
