-0.05	-0.05	-0.0053
-0.05	-0.03	-0.0053
-0.05	-0.03	-0.0051
-0.05	-0.05	-0.0051
-0.05	-0.05	-0.0053

-0.05	-0.03	-0.0053
-0.05	-0.01	-0.0053
-0.05	-0.01	-0.0051
-0.05	-0.03	-0.0051
-0.05	-0.03	-0.0053

-0.05	-0.01	-0.0053
-0.05	0.01	-0.0053
-0.05	0.01	-0.0051
-0.05	-0.01	-0.0051
-0.05	-0.01	-0.0053

-0.05	0.01	-0.0053
-0.05	0.03	-0.0053
-0.05	0.03	-0.0051
-0.05	0.01	-0.0051
-0.05	0.01	-0.0053

-0.05	0.03	-0.0053
-0.05	0.05	-0.0053
-0.05	0.05	-0.0051
-0.05	0.03	-0.0051
-0.05	0.03	-0.0053

