-0.049	-0.05	0.004
-0.0294	-0.05	0.004
-0.0294	-0.03	0.004
-0.049	-0.03	0.004
-0.049	-0.05	0.004

-0.049	-0.03	0.004
-0.0294	-0.03	0.004
-0.0294	-0.01	0.004
-0.049	-0.01	0.004
-0.049	-0.03	0.004

-0.049	-0.01	0.004
-0.0294	-0.01	0.004
-0.0294	0.01	0.004
-0.049	0.01	0.004
-0.049	-0.01	0.004

-0.049	0.01	0.004
-0.0294	0.01	0.004
-0.0294	0.03	0.004
-0.049	0.03	0.004
-0.049	0.01	0.004

-0.049	0.03	0.004
-0.0294	0.03	0.004
-0.0294	0.05	0.004
-0.049	0.05	0.004
-0.049	0.03	0.004

-0.0294	-0.05	0.004
-0.0098	-0.05	0.004
-0.0098	-0.03	0.004
-0.0294	-0.03	0.004
-0.0294	-0.05	0.004

-0.0294	-0.03	0.004
-0.0098	-0.03	0.004
-0.0098	-0.01	0.004
-0.0294	-0.01	0.004
-0.0294	-0.03	0.004

-0.0294	-0.01	0.004
-0.0098	-0.01	0.004
-0.0098	0.01	0.004
-0.0294	0.01	0.004
-0.0294	-0.01	0.004

-0.0294	0.01	0.004
-0.0098	0.01	0.004
-0.0098	0.03	0.004
-0.0294	0.03	0.004
-0.0294	0.01	0.004

-0.0294	0.03	0.004
-0.0098	0.03	0.004
-0.0098	0.05	0.004
-0.0294	0.05	0.004
-0.0294	0.03	0.004

-0.0098	-0.05	0.004
0.0098	-0.05	0.004
0.0098	-0.03	0.004
-0.0098	-0.03	0.004
-0.0098	-0.05	0.004

-0.0098	-0.03	0.004
0.0098	-0.03	0.004
0.0098	-0.01	0.004
-0.0098	-0.01	0.004
-0.0098	-0.03	0.004

-0.0098	-0.01	0.004
0.0098	-0.01	0.004
0.0098	0.01	0.004
-0.0098	0.01	0.004
-0.0098	-0.01	0.004

-0.0098	0.01	0.004
0.0098	0.01	0.004
0.0098	0.03	0.004
-0.0098	0.03	0.004
-0.0098	0.01	0.004

-0.0098	0.03	0.004
0.0098	0.03	0.004
0.0098	0.05	0.004
-0.0098	0.05	0.004
-0.0098	0.03	0.004

0.0098	-0.05	0.004
0.0294	-0.05	0.004
0.0294	-0.03	0.004
0.0098	-0.03	0.004
0.0098	-0.05	0.004

0.0098	-0.03	0.004
0.0294	-0.03	0.004
0.0294	-0.01	0.004
0.0098	-0.01	0.004
0.0098	-0.03	0.004

0.0098	-0.01	0.004
0.0294	-0.01	0.004
0.0294	0.01	0.004
0.0098	0.01	0.004
0.0098	-0.01	0.004

0.0098	0.01	0.004
0.0294	0.01	0.004
0.0294	0.03	0.004
0.0098	0.03	0.004
0.0098	0.01	0.004

0.0098	0.03	0.004
0.0294	0.03	0.004
0.0294	0.05	0.004
0.0098	0.05	0.004
0.0098	0.03	0.004

0.0294	-0.05	0.004
0.049	-0.05	0.004
0.049	-0.03	0.004
0.0294	-0.03	0.004
0.0294	-0.05	0.004

0.0294	-0.03	0.004
0.049	-0.03	0.004
0.049	-0.01	0.004
0.0294	-0.01	0.004
0.0294	-0.03	0.004

0.0294	-0.01	0.004
0.049	-0.01	0.004
0.049	0.01	0.004
0.0294	0.01	0.004
0.0294	-0.01	0.004

0.0294	0.01	0.004
0.049	0.01	0.004
0.049	0.03	0.004
0.0294	0.03	0.004
0.0294	0.01	0.004

0.0294	0.03	0.004
0.049	0.03	0.004
0.049	0.05	0.004
0.0294	0.05	0.004
0.0294	0.03	0.004

