#prim: 13, nvertex: 4
Node1: -0.051	-0.05	-0.004
Node2: -0.049	-0.05	-0.004
Node3: -0.049	-0.05	0.004
Node4: -0.051	-0.05	0.004
PrimOrigin: -0.05	-0.05	0
Primitive lengths: 0.002	0.008
Norm: 0	-1	0
#volref1: 4, volref2: -1
#NbSegX: 1, NbSegZ: 8
#ParentObj: 1	EType: 4
#SurfX	SurfY	SurfZ	SurfLZ	SurfLZ
-0.05	-0.05	0	0.002	0.008
#DirnCosn: 
1, 0, 0
0, -1, 0
0, 0, -1
#SurfLambda: 0.92	SurfV: 0
Using the input, the aspect ratio of the elements on prim: 13
NbSegX: 1, SurfElLX: 0.002, NbSegZ: 8, SurfElLZ: 0.001, AR: 2
After analyzing the aspect ratio of the elements
NbSegX: 1, SurfElLX: 0.002, NbSegZ: 8, SurfElLZ: 0.001, AR: 2
Element begin: 253, Element end: 260
Number of elements on primitive: 8
