#prim: 81, nvertex: 4
Node1: -0.001	-0.001	-0.004
Node2: -0.001	0.001	-0.004
Node3: -0.001	0.001	0.004
Node4: -0.001	-0.001	0.004
PrimOrigin: -0.001	0	0
Primitive lengths: 0.002	0.008
Norm: -1	-0	0
#volref1: 7, volref2: -1
#NbSegX: 3, NbSegZ: 3
#ParentObj: 1	EType: 4
#SurfX	SurfY	SurfZ	SurfLZ	SurfLZ
-0.001	0	0	0.002	0.008
#DirnCosn: 
0, 1, 0
-1, -0, 0
0, -0, 1
#SurfLambda: 0.818182	SurfV: 0
Using the input, the aspect ratio of the elements on prim: 81
NbSegX: 3, SurfElLX: 0.000666667, NbSegZ: 3, SurfElLZ: 0.00266667, AR: 0.25
After analyzing the aspect ratio of the elements
NbSegX: 3, SurfElLX: 0.000666667, NbSegZ: 3, SurfElLZ: 0.00266667, AR: 0.25
Element begin: 948, Element end: 956
Number of elements on primitive: 9
