#prim: 61, nvertex: 4
Node1: 0.049	-0.049	0.004
Node2: 0.049	-0.001	0.004
Node3: 0.001	-0.001	0.004
Node4: 0.001	-0.049	0.004
PrimOrigin: 0.025	-0.025	0.004
Primitive lengths: 0.048	0.048
Norm: -0	-0	-1
#volref1: 2, volref2: -1
#NbSegX: 4, NbSegZ: 4
#ParentObj: 1	EType: 4
#SurfX	SurfY	SurfZ	SurfLZ	SurfLZ
0.025	-0.025	0.004	0.048	0.048
#DirnCosn: 
0, 1, 0
-0, -0, -1
-1, 0, 0
#SurfLambda: 0.818182	SurfV: 0
Using the input, the aspect ratio of the elements on prim: 61
NbSegX: 4, SurfElLX: 0.012, NbSegZ: 4, SurfElLZ: 0.012, AR: 1
After analyzing the aspect ratio of the elements
NbSegX: 4, SurfElLX: 0.012, NbSegZ: 4, SurfElLZ: 0.012, AR: 1
Element begin: 561, Element end: 576
Number of elements on primitive: 16
