#prim: 54, nvertex: 4
Node1: -0.049	-0.049	-0.004
Node2: 0.049	-0.049	-0.004
Node3: 0.049	-0.049	0.004
Node4: -0.049	-0.049	0.004
PrimOrigin: 0	-0.049	0
Primitive lengths: 0.098	0.008
Norm: -0	1	0
#volref1: 6, volref2: -1
#NbSegX: 21, NbSegZ: 8
#ParentObj: 1	EType: 4
#SurfX	SurfY	SurfZ	SurfLZ	SurfLZ
0	-0.049	0	0.098	0.008
#DirnCosn: 
1, 0, 0
-0, 1, 0
0, -0, 1
#SurfLambda: 0.92	SurfV: 0
Using the input, the aspect ratio of the elements on prim: 54
NbSegX: 21, SurfElLX: 0.00466667, NbSegZ: 8, SurfElLZ: 0.001, AR: 4.66667
After analyzing the aspect ratio of the elements
NbSegX: 21, SurfElLX: 0.00466667, NbSegZ: 8, SurfElLZ: 0.001, AR: 4.66667
Element begin: 5105, Element end: 5272
Number of elements on primitive: 168
