#prim: 57, nvertex: 3
Node1: 0.0479796	0.049	0.004
Node2: -0.001	0.049	0.004
Node3: -0.001	0.001	0.004
PrimOrigin: -0.001	0.049	0.004
Primitive lengths: 0.048	0.0489796
Norm: -0	-0	-1
#volref1: 2, volref2: -1
#NbSegX: 4, NbSegZ: 4 (check note!)
#ParentObj: 1	EType: 4
#SurfX	SurfY	SurfZ	SurfLX	SurfLZ (Rt. Corner)
-0.001	0.049	0.004	0.048	0.0489796
#DirnCosn: 
-7.22801e-17, -1, 0
0, -0, -1
1, -2.83338e-16, 0
#SurfLambda: 0.818182	SurfV: 0
Using the input, the aspect ratio of the elements on prim: 57
NbSegX: 4, SurfElLX: 0.012, NbSegZ: 4, SurfElLZ: 0.0122449, AR: 0.98
After analyzing the likely aspect ratio of the elements
NbSegX: 4, SurfElLX: 0.012, NbSegZ: 4, SurfElLZ: 0.0122449, AR: 0.98
Element begin: 539, Element end: 548
Number of elements on primitive: 10
