#prim: 76, nvertex: 4
Node1: 0.049	0.05	-0.004
Node2: 0.049	0.051	-0.004
Node3: 0.049	0.051	0.004
Node4: 0.049	0.05	0.004
PrimOrigin: 0.049	0.0505	0
Primitive lengths: 0.001	0.008
Norm: 1	0	-0
#volref1: 8, volref2: -1
#NbSegX: 3, NbSegZ: 3
#ParentObj: 1	EType: 4
#SurfX	SurfY	SurfZ	SurfLZ	SurfLZ
0.049	0.0505	0	0.001	0.008
#DirnCosn: 
0, 1, 0
1, 0, -0
-0, 0, -1
#SurfLambda: 0.818182	SurfV: 0
Using the input, the aspect ratio of the elements on prim: 76
NbSegX: 3, SurfElLX: 0.000333333, NbSegZ: 3, SurfElLZ: 0.00266667, AR: 0.125
After analyzing the aspect ratio of the elements
NbSegX: 3, SurfElLX: 0.000333333, NbSegZ: 3, SurfElLZ: 0.00266667, AR: 0.125
Element begin: 855, Element end: 863
Number of elements on primitive: 9
