##Element Counter: 51
#DevNb	CompNb	PrimNb	Id
1	1	11	51
#GType	X	Y	Z	LX	LZ	dA
4	0.05	-0.04	-0.0019	0.02	0.002	4e-05
#DirnCosn: 
0, 1, 0
1, 0, -0
-0, 0, -1
#EType	Lambda
4	0.92
#NbBCs	CPX	CPY	CPZ	Value
1	0.05	-0.04	-0.0019	1.50818e+161
##Element Counter: 52
#DevNb	CompNb	PrimNb	Id
1	1	11	52
#GType	X	Y	Z	LX	LZ	dA
4	0.05	-0.02	-0.0019	0.02	0.002	4e-05
#DirnCosn: 
0, 1, 0
1, 0, -0
-0, 0, -1
#EType	Lambda
4	0.92
#NbBCs	CPX	CPY	CPZ	Value
1	0.05	-0.02	-0.0019	1.13873e-94
##Element Counter: 53
#DevNb	CompNb	PrimNb	Id
1	1	11	53
#GType	X	Y	Z	LX	LZ	dA
4	0.05	-3.46945e-18	-0.0019	0.02	0.002	4e-05
#DirnCosn: 
0, 1, 0
1, 0, -0
-0, 0, -1
#EType	Lambda
4	0.92
#NbBCs	CPX	CPY	CPZ	Value
1	0.05	-3.46945e-18	-0.0019	3.78858e-258
##Element Counter: 54
#DevNb	CompNb	PrimNb	Id
1	1	11	54
#GType	X	Y	Z	LX	LZ	dA
4	0.05	0.02	-0.0019	0.02	0.002	4e-05
#DirnCosn: 
0, 1, 0
1, 0, -0
-0, 0, -1
#EType	Lambda
4	0.92
#NbBCs	CPX	CPY	CPZ	Value
1	0.05	0.02	-0.0019	2.44514e-154
##Element Counter: 55
#DevNb	CompNb	PrimNb	Id
1	1	11	55
#GType	X	Y	Z	LX	LZ	dA
4	0.05	0.04	-0.0019	0.02	0.002	4e-05
#DirnCosn: 
0, 1, 0
1, 0, -0
-0, 0, -1
#EType	Lambda
4	0.92
#NbBCs	CPX	CPY	CPZ	Value
1	0.05	0.04	-0.0019	2.16636e-27
