##Element Counter: 36
#DevNb	CompNb	PrimNb	Id
1	1	8	36
#GType	X	Y	Z	LX	LZ	dA
4	0.05	-0.04	-0.0139	0.02	0.002	4e-05
#DirnCosn: 
0, 1, 0
1, 0, -0
-0, 0, -1
#EType	Lambda
4	0.92
#NbBCs	CPX	CPY	CPZ	Value
1	0.05	-0.04	-0.0139	6.01347e-154
##Element Counter: 37
#DevNb	CompNb	PrimNb	Id
1	1	8	37
#GType	X	Y	Z	LX	LZ	dA
4	0.05	-0.02	-0.0139	0.02	0.002	4e-05
#DirnCosn: 
0, 1, 0
1, 0, -0
-0, 0, -1
#EType	Lambda
4	0.92
#NbBCs	CPX	CPY	CPZ	Value
1	0.05	-0.02	-0.0139	9.94161e+24
##Element Counter: 38
#DevNb	CompNb	PrimNb	Id
1	1	8	38
#GType	X	Y	Z	LX	LZ	dA
4	0.05	-3.46945e-18	-0.0139	0.02	0.002	4e-05
#DirnCosn: 
0, 1, 0
1, 0, -0
-0, 0, -1
#EType	Lambda
4	0.92
#NbBCs	CPX	CPY	CPZ	Value
1	0.05	-3.46945e-18	-0.0139	1.46343e-28
##Element Counter: 39
#DevNb	CompNb	PrimNb	Id
1	1	8	39
#GType	X	Y	Z	LX	LZ	dA
4	0.05	0.02	-0.0139	0.02	0.002	4e-05
#DirnCosn: 
0, 1, 0
1, 0, -0
-0, 0, -1
#EType	Lambda
4	0.92
#NbBCs	CPX	CPY	CPZ	Value
1	0.05	0.02	-0.0139	6.01347e-154
##Element Counter: 40
#DevNb	CompNb	PrimNb	Id
1	1	8	40
#GType	X	Y	Z	LX	LZ	dA
4	0.05	0.04	-0.0139	0.02	0.002	4e-05
#DirnCosn: 
0, 1, 0
1, 0, -0
-0, 0, -1
#EType	Lambda
4	0.92
#NbBCs	CPX	CPY	CPZ	Value
1	0.05	0.04	-0.0139	6.01347e-154
