##Element Counter: 86
#DevNb	CompNb	PrimNb	Id
1	1	18	86
#GType	X	Y	Z	LX	LZ	dA
4	-0.04	-0.05	-0.0007	0.02	0.0002	4e-06
#DirnCosn: 
1, 0, 0
0, -1, 0
0, 0, -1
#EType	Lambda
1	0
#NbBCs	CPX	CPY	CPZ	Value
1	-0.04	-0.05	-0.0007	6.01347e-154
##Element Counter: 87
#DevNb	CompNb	PrimNb	Id
1	1	18	87
#GType	X	Y	Z	LX	LZ	dA
4	-0.02	-0.05	-0.0007	0.02	0.0002	4e-06
#DirnCosn: 
1, 0, 0
0, -1, 0
0, 0, -1
#EType	Lambda
1	0
#NbBCs	CPX	CPY	CPZ	Value
1	-0.02	-0.05	-0.0007	4.11423e-27
##Element Counter: 88
#DevNb	CompNb	PrimNb	Id
1	1	18	88
#GType	X	Y	Z	LX	LZ	dA
4	-3.46945e-18	-0.05	-0.0007	0.02	0.0002	4e-06
#DirnCosn: 
1, 0, 0
0, -1, 0
0, 0, -1
#EType	Lambda
1	0
#NbBCs	CPX	CPY	CPZ	Value
1	-3.46945e-18	-0.05	-0.0007	2.9989e+180
##Element Counter: 89
#DevNb	CompNb	PrimNb	Id
1	1	18	89
#GType	X	Y	Z	LX	LZ	dA
4	0.02	-0.05	-0.0007	0.02	0.0002	4e-06
#DirnCosn: 
1, 0, 0
0, -1, 0
0, 0, -1
#EType	Lambda
1	0
#NbBCs	CPX	CPY	CPZ	Value
1	0.02	-0.05	-0.0007	4.90363e+252
##Element Counter: 90
#DevNb	CompNb	PrimNb	Id
1	1	18	90
#GType	X	Y	Z	LX	LZ	dA
4	0.04	-0.05	-0.0007	0.02	0.0002	4e-06
#DirnCosn: 
1, 0, 0
0, -1, 0
0, 0, -1
#EType	Lambda
1	0
#NbBCs	CPX	CPY	CPZ	Value
1	0.04	-0.05	-0.0007	1.69594e-152
