##Element Counter: 154
#DevNb	CompNb	PrimNb	Id
1	1	42	154
#GType	X	Y	Z	LX	LZ	dA
4	0.0505	0.05	-0.00085	0.001	0.0001	1e-07
#DirnCosn: 
-1, 0, 6.50521e-16
-0, 1, 0
-6.50521e-16, 0, -1
#EType	Lambda
4	0.92
#NbBCs	CPX	CPY	CPZ	Value
1	0.0505	0.05	-0.00085	0
