##Element Counter: 61
#DevNb	CompNb	PrimNb	Id
1	1	13	61
#GType	X	Y	Z	LX	LZ	dA
4	-0.04	-0.05	-0.0152	0.02	0.0002	4e-06
#DirnCosn: 
1, 0, 0
0, -1, 0
0, 0, -1
#EType	Lambda
1	0
#NbBCs	CPX	CPY	CPZ	Value
1	-0.04	-0.05	-0.0152	6.01347e-154
##Element Counter: 62
#DevNb	CompNb	PrimNb	Id
1	1	13	62
#GType	X	Y	Z	LX	LZ	dA
4	-0.02	-0.05	-0.0152	0.02	0.0002	4e-06
#DirnCosn: 
1, 0, 0
0, -1, 0
0, 0, -1
#EType	Lambda
1	0
#NbBCs	CPX	CPY	CPZ	Value
1	-0.02	-0.05	-0.0152	6.01347e-154
##Element Counter: 63
#DevNb	CompNb	PrimNb	Id
1	1	13	63
#GType	X	Y	Z	LX	LZ	dA
4	-3.46945e-18	-0.05	-0.0152	0.02	0.0002	4e-06
#DirnCosn: 
1, 0, 0
0, -1, 0
0, 0, -1
#EType	Lambda
1	0
#NbBCs	CPX	CPY	CPZ	Value
1	-3.46945e-18	-0.05	-0.0152	5.28759e+180
##Element Counter: 64
#DevNb	CompNb	PrimNb	Id
1	1	13	64
#GType	X	Y	Z	LX	LZ	dA
4	0.02	-0.05	-0.0152	0.02	0.0002	4e-06
#DirnCosn: 
1, 0, 0
0, -1, 0
0, 0, -1
#EType	Lambda
1	0
#NbBCs	CPX	CPY	CPZ	Value
1	0.02	-0.05	-0.0152	5.02621e+180
##Element Counter: 65
#DevNb	CompNb	PrimNb	Id
1	1	13	65
#GType	X	Y	Z	LX	LZ	dA
4	0.04	-0.05	-0.0152	0.02	0.0002	4e-06
#DirnCosn: 
1, 0, 0
0, -1, 0
0, 0, -1
#EType	Lambda
1	0
#NbBCs	CPX	CPY	CPZ	Value
1	0.04	-0.05	-0.0152	6.01347e-154
