##Element Counter: 417
#DevNb	CompNb	PrimNb	Id
1	1	57	417
#GType	X	Y	Z	LX	LZ	dA
4	0.04	-0.04	-0.0008	0.02	0.02	0.0004
#DirnCosn: 
0, 1, 0
-0, -0, -1
-1, 0, 0
#EType	Lambda
1	0
#NbBCs	CPX	CPY	CPZ	Value
1	0.04	-0.04	-0.0008	0
##Element Counter: 418
#DevNb	CompNb	PrimNb	Id
1	1	57	418
#GType	X	Y	Z	LX	LZ	dA
4	0.02	-0.04	-0.0008	0.02	0.02	0.0004
#DirnCosn: 
0, 1, 0
-0, -0, -1
-1, 0, 0
#EType	Lambda
1	0
#NbBCs	CPX	CPY	CPZ	Value
1	0.02	-0.04	-0.0008	0
##Element Counter: 419
#DevNb	CompNb	PrimNb	Id
1	1	57	419
#GType	X	Y	Z	LX	LZ	dA
4	3.46945e-18	-0.04	-0.0008	0.02	0.02	0.0004
#DirnCosn: 
0, 1, 0
-0, -0, -1
-1, 0, 0
#EType	Lambda
1	0
#NbBCs	CPX	CPY	CPZ	Value
1	3.46945e-18	-0.04	-0.0008	0
##Element Counter: 420
#DevNb	CompNb	PrimNb	Id
1	1	57	420
#GType	X	Y	Z	LX	LZ	dA
4	-0.02	-0.04	-0.0008	0.02	0.02	0.0004
#DirnCosn: 
0, 1, 0
-0, -0, -1
-1, 0, 0
#EType	Lambda
1	0
#NbBCs	CPX	CPY	CPZ	Value
1	-0.02	-0.04	-0.0008	0
##Element Counter: 421
#DevNb	CompNb	PrimNb	Id
1	1	57	421
#GType	X	Y	Z	LX	LZ	dA
4	-0.04	-0.04	-0.0008	0.02	0.02	0.0004
#DirnCosn: 
0, 1, 0
-0, -0, -1
-1, 0, 0
#EType	Lambda
1	0
#NbBCs	CPX	CPY	CPZ	Value
1	-0.04	-0.04	-0.0008	0
##Element Counter: 422
#DevNb	CompNb	PrimNb	Id
1	1	57	422
#GType	X	Y	Z	LX	LZ	dA
4	0.04	-0.02	-0.0008	0.02	0.02	0.0004
#DirnCosn: 
0, 1, 0
-0, -0, -1
-1, 0, 0
#EType	Lambda
1	0
#NbBCs	CPX	CPY	CPZ	Value
1	0.04	-0.02	-0.0008	0
##Element Counter: 423
#DevNb	CompNb	PrimNb	Id
1	1	57	423
#GType	X	Y	Z	LX	LZ	dA
4	0.02	-0.02	-0.0008	0.02	0.02	0.0004
#DirnCosn: 
0, 1, 0
-0, -0, -1
-1, 0, 0
#EType	Lambda
1	0
#NbBCs	CPX	CPY	CPZ	Value
1	0.02	-0.02	-0.0008	0
##Element Counter: 424
#DevNb	CompNb	PrimNb	Id
1	1	57	424
#GType	X	Y	Z	LX	LZ	dA
4	3.46945e-18	-0.02	-0.0008	0.02	0.02	0.0004
#DirnCosn: 
0, 1, 0
-0, -0, -1
-1, 0, 0
#EType	Lambda
1	0
#NbBCs	CPX	CPY	CPZ	Value
1	3.46945e-18	-0.02	-0.0008	0
##Element Counter: 425
#DevNb	CompNb	PrimNb	Id
1	1	57	425
#GType	X	Y	Z	LX	LZ	dA
4	-0.02	-0.02	-0.0008	0.02	0.02	0.0004
#DirnCosn: 
0, 1, 0
-0, -0, -1
-1, 0, 0
#EType	Lambda
1	0
#NbBCs	CPX	CPY	CPZ	Value
1	-0.02	-0.02	-0.0008	0
##Element Counter: 426
#DevNb	CompNb	PrimNb	Id
1	1	57	426
#GType	X	Y	Z	LX	LZ	dA
4	-0.04	-0.02	-0.0008	0.02	0.02	0.0004
#DirnCosn: 
0, 1, 0
-0, -0, -1
-1, 0, 0
#EType	Lambda
1	0
#NbBCs	CPX	CPY	CPZ	Value
1	-0.04	-0.02	-0.0008	0
##Element Counter: 427
#DevNb	CompNb	PrimNb	Id
1	1	57	427
#GType	X	Y	Z	LX	LZ	dA
4	0.04	-3.46945e-18	-0.0008	0.02	0.02	0.0004
#DirnCosn: 
0, 1, 0
-0, -0, -1
-1, 0, 0
#EType	Lambda
1	0
#NbBCs	CPX	CPY	CPZ	Value
1	0.04	-3.46945e-18	-0.0008	0
##Element Counter: 428
#DevNb	CompNb	PrimNb	Id
1	1	57	428
#GType	X	Y	Z	LX	LZ	dA
4	0.02	-3.46945e-18	-0.0008	0.02	0.02	0.0004
#DirnCosn: 
0, 1, 0
-0, -0, -1
-1, 0, 0
#EType	Lambda
1	0
#NbBCs	CPX	CPY	CPZ	Value
1	0.02	-3.46945e-18	-0.0008	0
##Element Counter: 429
#DevNb	CompNb	PrimNb	Id
1	1	57	429
#GType	X	Y	Z	LX	LZ	dA
4	3.46945e-18	-3.46945e-18	-0.0008	0.02	0.02	0.0004
#DirnCosn: 
0, 1, 0
-0, -0, -1
-1, 0, 0
#EType	Lambda
1	0
#NbBCs	CPX	CPY	CPZ	Value
1	3.46945e-18	-3.46945e-18	-0.0008	0
##Element Counter: 430
#DevNb	CompNb	PrimNb	Id
1	1	57	430
#GType	X	Y	Z	LX	LZ	dA
4	-0.02	-3.46945e-18	-0.0008	0.02	0.02	0.0004
#DirnCosn: 
0, 1, 0
-0, -0, -1
-1, 0, 0
#EType	Lambda
1	0
#NbBCs	CPX	CPY	CPZ	Value
1	-0.02	-3.46945e-18	-0.0008	0
##Element Counter: 431
#DevNb	CompNb	PrimNb	Id
1	1	57	431
#GType	X	Y	Z	LX	LZ	dA
4	-0.04	-3.46945e-18	-0.0008	0.02	0.02	0.0004
#DirnCosn: 
0, 1, 0
-0, -0, -1
-1, 0, 0
#EType	Lambda
1	0
#NbBCs	CPX	CPY	CPZ	Value
1	-0.04	-3.46945e-18	-0.0008	0
##Element Counter: 432
#DevNb	CompNb	PrimNb	Id
1	1	57	432
#GType	X	Y	Z	LX	LZ	dA
4	0.04	0.02	-0.0008	0.02	0.02	0.0004
#DirnCosn: 
0, 1, 0
-0, -0, -1
-1, 0, 0
#EType	Lambda
1	0
#NbBCs	CPX	CPY	CPZ	Value
1	0.04	0.02	-0.0008	0
##Element Counter: 433
#DevNb	CompNb	PrimNb	Id
1	1	57	433
#GType	X	Y	Z	LX	LZ	dA
4	0.02	0.02	-0.0008	0.02	0.02	0.0004
#DirnCosn: 
0, 1, 0
-0, -0, -1
-1, 0, 0
#EType	Lambda
1	0
#NbBCs	CPX	CPY	CPZ	Value
1	0.02	0.02	-0.0008	0
##Element Counter: 434
#DevNb	CompNb	PrimNb	Id
1	1	57	434
#GType	X	Y	Z	LX	LZ	dA
4	3.46945e-18	0.02	-0.0008	0.02	0.02	0.0004
#DirnCosn: 
0, 1, 0
-0, -0, -1
-1, 0, 0
#EType	Lambda
1	0
#NbBCs	CPX	CPY	CPZ	Value
1	3.46945e-18	0.02	-0.0008	0
##Element Counter: 435
#DevNb	CompNb	PrimNb	Id
1	1	57	435
#GType	X	Y	Z	LX	LZ	dA
4	-0.02	0.02	-0.0008	0.02	0.02	0.0004
#DirnCosn: 
0, 1, 0
-0, -0, -1
-1, 0, 0
#EType	Lambda
1	0
#NbBCs	CPX	CPY	CPZ	Value
1	-0.02	0.02	-0.0008	0
##Element Counter: 436
#DevNb	CompNb	PrimNb	Id
1	1	57	436
#GType	X	Y	Z	LX	LZ	dA
4	-0.04	0.02	-0.0008	0.02	0.02	0.0004
#DirnCosn: 
0, 1, 0
-0, -0, -1
-1, 0, 0
#EType	Lambda
1	0
#NbBCs	CPX	CPY	CPZ	Value
1	-0.04	0.02	-0.0008	0
##Element Counter: 437
#DevNb	CompNb	PrimNb	Id
1	1	57	437
#GType	X	Y	Z	LX	LZ	dA
4	0.04	0.04	-0.0008	0.02	0.02	0.0004
#DirnCosn: 
0, 1, 0
-0, -0, -1
-1, 0, 0
#EType	Lambda
1	0
#NbBCs	CPX	CPY	CPZ	Value
1	0.04	0.04	-0.0008	0
##Element Counter: 438
#DevNb	CompNb	PrimNb	Id
1	1	57	438
#GType	X	Y	Z	LX	LZ	dA
4	0.02	0.04	-0.0008	0.02	0.02	0.0004
#DirnCosn: 
0, 1, 0
-0, -0, -1
-1, 0, 0
#EType	Lambda
1	0
#NbBCs	CPX	CPY	CPZ	Value
1	0.02	0.04	-0.0008	0
##Element Counter: 439
#DevNb	CompNb	PrimNb	Id
1	1	57	439
#GType	X	Y	Z	LX	LZ	dA
4	3.46945e-18	0.04	-0.0008	0.02	0.02	0.0004
#DirnCosn: 
0, 1, 0
-0, -0, -1
-1, 0, 0
#EType	Lambda
1	0
#NbBCs	CPX	CPY	CPZ	Value
1	3.46945e-18	0.04	-0.0008	0
##Element Counter: 440
#DevNb	CompNb	PrimNb	Id
1	1	57	440
#GType	X	Y	Z	LX	LZ	dA
4	-0.02	0.04	-0.0008	0.02	0.02	0.0004
#DirnCosn: 
0, 1, 0
-0, -0, -1
-1, 0, 0
#EType	Lambda
1	0
#NbBCs	CPX	CPY	CPZ	Value
1	-0.02	0.04	-0.0008	0
##Element Counter: 441
#DevNb	CompNb	PrimNb	Id
1	1	57	441
#GType	X	Y	Z	LX	LZ	dA
4	-0.04	0.04	-0.0008	0.02	0.02	0.0004
#DirnCosn: 
0, 1, 0
-0, -0, -1
-1, 0, 0
#EType	Lambda
1	0
#NbBCs	CPX	CPY	CPZ	Value
1	-0.04	0.04	-0.0008	0
