##Element Counter: 171
#DevNb	CompNb	PrimNb	Id
1	1	27	171
#GType	X	Y	Z	LX	LZ	dA
4	0.04	-0.04	-0.0149	0.02	0.02	0.0004
#DirnCosn: 
0, 1, 0
-0, -0, -1
-1, 0, 0
#EType	Lambda
4	0.92
#NbBCs	CPX	CPY	CPZ	Value
1	0.04	-0.04	-0.0149	3.90194e-22
##Element Counter: 172
#DevNb	CompNb	PrimNb	Id
1	1	27	172
#GType	X	Y	Z	LX	LZ	dA
4	0.02	-0.04	-0.0149	0.02	0.02	0.0004
#DirnCosn: 
0, 1, 0
-0, -0, -1
-1, 0, 0
#EType	Lambda
4	0.92
#NbBCs	CPX	CPY	CPZ	Value
1	0.02	-0.04	-0.0149	1.23612e+224
##Element Counter: 173
#DevNb	CompNb	PrimNb	Id
1	1	27	173
#GType	X	Y	Z	LX	LZ	dA
4	3.46945e-18	-0.04	-0.0149	0.02	0.02	0.0004
#DirnCosn: 
0, 1, 0
-0, -0, -1
-1, 0, 0
#EType	Lambda
4	0.92
#NbBCs	CPX	CPY	CPZ	Value
1	3.46945e-18	-0.04	-0.0149	2.05771e-115
##Element Counter: 174
#DevNb	CompNb	PrimNb	Id
1	1	27	174
#GType	X	Y	Z	LX	LZ	dA
4	-0.02	-0.04	-0.0149	0.02	0.02	0.0004
#DirnCosn: 
0, 1, 0
-0, -0, -1
-1, 0, 0
#EType	Lambda
4	0.92
#NbBCs	CPX	CPY	CPZ	Value
1	-0.02	-0.04	-0.0149	6.01347e-154
##Element Counter: 175
#DevNb	CompNb	PrimNb	Id
1	1	27	175
#GType	X	Y	Z	LX	LZ	dA
4	-0.04	-0.04	-0.0149	0.02	0.02	0.0004
#DirnCosn: 
0, 1, 0
-0, -0, -1
-1, 0, 0
#EType	Lambda
4	0.92
#NbBCs	CPX	CPY	CPZ	Value
1	-0.04	-0.04	-0.0149	1.08615e-153
##Element Counter: 176
#DevNb	CompNb	PrimNb	Id
1	1	27	176
#GType	X	Y	Z	LX	LZ	dA
4	0.04	-0.02	-0.0149	0.02	0.02	0.0004
#DirnCosn: 
0, 1, 0
-0, -0, -1
-1, 0, 0
#EType	Lambda
4	0.92
#NbBCs	CPX	CPY	CPZ	Value
1	0.04	-0.02	-0.0149	6.96742e+252
##Element Counter: 177
#DevNb	CompNb	PrimNb	Id
1	1	27	177
#GType	X	Y	Z	LX	LZ	dA
4	0.02	-0.02	-0.0149	0.02	0.02	0.0004
#DirnCosn: 
0, 1, 0
-0, -0, -1
-1, 0, 0
#EType	Lambda
4	0.92
#NbBCs	CPX	CPY	CPZ	Value
1	0.02	-0.02	-0.0149	6.01347e-154
##Element Counter: 178
#DevNb	CompNb	PrimNb	Id
1	1	27	178
#GType	X	Y	Z	LX	LZ	dA
4	3.46945e-18	-0.02	-0.0149	0.02	0.02	0.0004
#DirnCosn: 
0, 1, 0
-0, -0, -1
-1, 0, 0
#EType	Lambda
4	0.92
#NbBCs	CPX	CPY	CPZ	Value
1	3.46945e-18	-0.02	-0.0149	2.97395e+222
##Element Counter: 179
#DevNb	CompNb	PrimNb	Id
1	1	27	179
#GType	X	Y	Z	LX	LZ	dA
4	-0.02	-0.02	-0.0149	0.02	0.02	0.0004
#DirnCosn: 
0, 1, 0
-0, -0, -1
-1, 0, 0
#EType	Lambda
4	0.92
#NbBCs	CPX	CPY	CPZ	Value
1	-0.02	-0.02	-0.0149	6.01347e-154
##Element Counter: 180
#DevNb	CompNb	PrimNb	Id
1	1	27	180
#GType	X	Y	Z	LX	LZ	dA
4	-0.04	-0.02	-0.0149	0.02	0.02	0.0004
#DirnCosn: 
0, 1, 0
-0, -0, -1
-1, 0, 0
#EType	Lambda
4	0.92
#NbBCs	CPX	CPY	CPZ	Value
1	-0.04	-0.02	-0.0149	6.01347e-154
##Element Counter: 181
#DevNb	CompNb	PrimNb	Id
1	1	27	181
#GType	X	Y	Z	LX	LZ	dA
4	0.04	-3.46945e-18	-0.0149	0.02	0.02	0.0004
#DirnCosn: 
0, 1, 0
-0, -0, -1
-1, 0, 0
#EType	Lambda
4	0.92
#NbBCs	CPX	CPY	CPZ	Value
1	0.04	-3.46945e-18	-0.0149	5.98148e-154
##Element Counter: 182
#DevNb	CompNb	PrimNb	Id
1	1	27	182
#GType	X	Y	Z	LX	LZ	dA
4	0.02	-3.46945e-18	-0.0149	0.02	0.02	0.0004
#DirnCosn: 
0, 1, 0
-0, -0, -1
-1, 0, 0
#EType	Lambda
4	0.92
#NbBCs	CPX	CPY	CPZ	Value
1	0.02	-3.46945e-18	-0.0149	2.42778e-154
##Element Counter: 183
#DevNb	CompNb	PrimNb	Id
1	1	27	183
#GType	X	Y	Z	LX	LZ	dA
4	3.46945e-18	-3.46945e-18	-0.0149	0.02	0.02	0.0004
#DirnCosn: 
0, 1, 0
-0, -0, -1
-1, 0, 0
#EType	Lambda
4	0.92
#NbBCs	CPX	CPY	CPZ	Value
1	3.46945e-18	-3.46945e-18	-0.0149	1.34444e+161
##Element Counter: 184
#DevNb	CompNb	PrimNb	Id
1	1	27	184
#GType	X	Y	Z	LX	LZ	dA
4	-0.02	-3.46945e-18	-0.0149	0.02	0.02	0.0004
#DirnCosn: 
0, 1, 0
-0, -0, -1
-1, 0, 0
#EType	Lambda
4	0.92
#NbBCs	CPX	CPY	CPZ	Value
1	-0.02	-3.46945e-18	-0.0149	2.18174e+243
##Element Counter: 185
#DevNb	CompNb	PrimNb	Id
1	1	27	185
#GType	X	Y	Z	LX	LZ	dA
4	-0.04	-3.46945e-18	-0.0149	0.02	0.02	0.0004
#DirnCosn: 
0, 1, 0
-0, -0, -1
-1, 0, 0
#EType	Lambda
4	0.92
#NbBCs	CPX	CPY	CPZ	Value
1	-0.04	-3.46945e-18	-0.0149	6.01347e-154
##Element Counter: 186
#DevNb	CompNb	PrimNb	Id
1	1	27	186
#GType	X	Y	Z	LX	LZ	dA
4	0.04	0.02	-0.0149	0.02	0.02	0.0004
#DirnCosn: 
0, 1, 0
-0, -0, -1
-1, 0, 0
#EType	Lambda
4	0.92
#NbBCs	CPX	CPY	CPZ	Value
1	0.04	0.02	-0.0149	1.27989e-152
##Element Counter: 187
#DevNb	CompNb	PrimNb	Id
1	1	27	187
#GType	X	Y	Z	LX	LZ	dA
4	0.02	0.02	-0.0149	0.02	0.02	0.0004
#DirnCosn: 
0, 1, 0
-0, -0, -1
-1, 0, 0
#EType	Lambda
4	0.92
#NbBCs	CPX	CPY	CPZ	Value
1	0.02	0.02	-0.0149	6.0785e+247
##Element Counter: 188
#DevNb	CompNb	PrimNb	Id
1	1	27	188
#GType	X	Y	Z	LX	LZ	dA
4	3.46945e-18	0.02	-0.0149	0.02	0.02	0.0004
#DirnCosn: 
0, 1, 0
-0, -0, -1
-1, 0, 0
#EType	Lambda
4	0.92
#NbBCs	CPX	CPY	CPZ	Value
1	3.46945e-18	0.02	-0.0149	6.01347e-154
##Element Counter: 189
#DevNb	CompNb	PrimNb	Id
1	1	27	189
#GType	X	Y	Z	LX	LZ	dA
4	-0.02	0.02	-0.0149	0.02	0.02	0.0004
#DirnCosn: 
0, 1, 0
-0, -0, -1
-1, 0, 0
#EType	Lambda
4	0.92
#NbBCs	CPX	CPY	CPZ	Value
1	-0.02	0.02	-0.0149	8.92486e+165
##Element Counter: 190
#DevNb	CompNb	PrimNb	Id
1	1	27	190
#GType	X	Y	Z	LX	LZ	dA
4	-0.04	0.02	-0.0149	0.02	0.02	0.0004
#DirnCosn: 
0, 1, 0
-0, -0, -1
-1, 0, 0
#EType	Lambda
4	0.92
#NbBCs	CPX	CPY	CPZ	Value
1	-0.04	0.02	-0.0149	6.01347e-154
##Element Counter: 191
#DevNb	CompNb	PrimNb	Id
1	1	27	191
#GType	X	Y	Z	LX	LZ	dA
4	0.04	0.04	-0.0149	0.02	0.02	0.0004
#DirnCosn: 
0, 1, 0
-0, -0, -1
-1, 0, 0
#EType	Lambda
4	0.92
#NbBCs	CPX	CPY	CPZ	Value
1	0.04	0.04	-0.0149	6.01347e-154
##Element Counter: 192
#DevNb	CompNb	PrimNb	Id
1	1	27	192
#GType	X	Y	Z	LX	LZ	dA
4	0.02	0.04	-0.0149	0.02	0.02	0.0004
#DirnCosn: 
0, 1, 0
-0, -0, -1
-1, 0, 0
#EType	Lambda
4	0.92
#NbBCs	CPX	CPY	CPZ	Value
1	0.02	0.04	-0.0149	3.04285e+169
##Element Counter: 193
#DevNb	CompNb	PrimNb	Id
1	1	27	193
#GType	X	Y	Z	LX	LZ	dA
4	3.46945e-18	0.04	-0.0149	0.02	0.02	0.0004
#DirnCosn: 
0, 1, 0
-0, -0, -1
-1, 0, 0
#EType	Lambda
4	0.92
#NbBCs	CPX	CPY	CPZ	Value
1	3.46945e-18	0.04	-0.0149	6.01347e-154
##Element Counter: 194
#DevNb	CompNb	PrimNb	Id
1	1	27	194
#GType	X	Y	Z	LX	LZ	dA
4	-0.02	0.04	-0.0149	0.02	0.02	0.0004
#DirnCosn: 
0, 1, 0
-0, -0, -1
-1, 0, 0
#EType	Lambda
4	0.92
#NbBCs	CPX	CPY	CPZ	Value
1	-0.02	0.04	-0.0149	3.6033e+252
##Element Counter: 195
#DevNb	CompNb	PrimNb	Id
1	1	27	195
#GType	X	Y	Z	LX	LZ	dA
4	-0.04	0.04	-0.0149	0.02	0.02	0.0004
#DirnCosn: 
0, 1, 0
-0, -0, -1
-1, 0, 0
#EType	Lambda
4	0.92
#NbBCs	CPX	CPY	CPZ	Value
1	-0.04	0.04	-0.0149	9.72059e+189
