##Element Counter: 41
#DevNb	CompNb	PrimNb	Id
1	1	9	41
#GType	X	Y	Z	LX	LZ	dA
4	0.05	-0.04	-0.0099	0.02	0.002	4e-05
#DirnCosn: 
0, 1, 0
1, 0, -0
-0, 0, -1
#EType	Lambda
4	0.92
#NbBCs	CPX	CPY	CPZ	Value
1	0.05	-0.04	-0.0099	6.01347e-154
##Element Counter: 42
#DevNb	CompNb	PrimNb	Id
1	1	9	42
#GType	X	Y	Z	LX	LZ	dA
4	0.05	-0.02	-0.0099	0.02	0.002	4e-05
#DirnCosn: 
0, 1, 0
1, 0, -0
-0, 0, -1
#EType	Lambda
4	0.92
#NbBCs	CPX	CPY	CPZ	Value
1	0.05	-0.02	-0.0099	4.4439e+252
##Element Counter: 43
#DevNb	CompNb	PrimNb	Id
1	1	9	43
#GType	X	Y	Z	LX	LZ	dA
4	0.05	-3.46945e-18	-0.0099	0.02	0.002	4e-05
#DirnCosn: 
0, 1, 0
1, 0, -0
-0, 0, -1
#EType	Lambda
4	0.92
#NbBCs	CPX	CPY	CPZ	Value
1	0.05	-3.46945e-18	-0.0099	5.98194e-154
##Element Counter: 44
#DevNb	CompNb	PrimNb	Id
1	1	9	44
#GType	X	Y	Z	LX	LZ	dA
4	0.05	0.02	-0.0099	0.02	0.002	4e-05
#DirnCosn: 
0, 1, 0
1, 0, -0
-0, 0, -1
#EType	Lambda
4	0.92
#NbBCs	CPX	CPY	CPZ	Value
1	0.05	0.02	-0.0099	8.56486e+183
##Element Counter: 45
#DevNb	CompNb	PrimNb	Id
1	1	9	45
#GType	X	Y	Z	LX	LZ	dA
4	0.05	0.04	-0.0099	0.02	0.002	4e-05
#DirnCosn: 
0, 1, 0
1, 0, -0
-0, 0, -1
#EType	Lambda
4	0.92
#NbBCs	CPX	CPY	CPZ	Value
1	0.05	0.04	-0.0099	4.95263e+223
