##Element Counter: 106
#DevNb	CompNb	PrimNb	Id
1	1	22	106
#GType	X	Y	Z	LX	LZ	dA
4	-0.04	0.05	-0.0059	0.02	0.002	4e-05
#DirnCosn: 
1, 0, 0
-0, 1, 0
0, -0, 1
#EType	Lambda
4	0.92
#NbBCs	CPX	CPY	CPZ	Value
1	-0.04	0.05	-0.0059	6.96764e+252
##Element Counter: 107
#DevNb	CompNb	PrimNb	Id
1	1	22	107
#GType	X	Y	Z	LX	LZ	dA
4	-0.02	0.05	-0.0059	0.02	0.002	4e-05
#DirnCosn: 
1, 0, 0
-0, 1, 0
0, -0, 1
#EType	Lambda
4	0.92
#NbBCs	CPX	CPY	CPZ	Value
1	-0.02	0.05	-0.0059	7.37528e+271
##Element Counter: 108
#DevNb	CompNb	PrimNb	Id
1	1	22	108
#GType	X	Y	Z	LX	LZ	dA
4	-3.46945e-18	0.05	-0.0059	0.02	0.002	4e-05
#DirnCosn: 
1, 0, 0
-0, 1, 0
0, -0, 1
#EType	Lambda
4	0.92
#NbBCs	CPX	CPY	CPZ	Value
1	-3.46945e-18	0.05	-0.0059	2.20814e-259
##Element Counter: 109
#DevNb	CompNb	PrimNb	Id
1	1	22	109
#GType	X	Y	Z	LX	LZ	dA
4	0.02	0.05	-0.0059	0.02	0.002	4e-05
#DirnCosn: 
1, 0, 0
-0, 1, 0
0, -0, 1
#EType	Lambda
4	0.92
#NbBCs	CPX	CPY	CPZ	Value
1	0.02	0.05	-0.0059	1.41746e+190
##Element Counter: 110
#DevNb	CompNb	PrimNb	Id
1	1	22	110
#GType	X	Y	Z	LX	LZ	dA
4	0.04	0.05	-0.0059	0.02	0.002	4e-05
#DirnCosn: 
1, 0, 0
-0, 1, 0
0, -0, 1
#EType	Lambda
4	0.92
#NbBCs	CPX	CPY	CPZ	Value
1	0.04	0.05	-0.0059	2.2121e+214
