##Element Counter: 271
#DevNb	CompNb	PrimNb	Id
1	1	31	271
#GType	X	Y	Z	LX	LZ	dA
4	0.04	-0.04	-0.0069	0.02	0.02	0.0004
#DirnCosn: 
0, 1, 0
-0, -0, -1
-1, 0, 0
#EType	Lambda
4	0.92
#NbBCs	CPX	CPY	CPZ	Value
1	0.04	-0.04	-0.0069	2.80312e+296
##Element Counter: 272
#DevNb	CompNb	PrimNb	Id
1	1	31	272
#GType	X	Y	Z	LX	LZ	dA
4	0.02	-0.04	-0.0069	0.02	0.02	0.0004
#DirnCosn: 
0, 1, 0
-0, -0, -1
-1, 0, 0
#EType	Lambda
4	0.92
#NbBCs	CPX	CPY	CPZ	Value
1	0.02	-0.04	-0.0069	5.02621e+180
##Element Counter: 273
#DevNb	CompNb	PrimNb	Id
1	1	31	273
#GType	X	Y	Z	LX	LZ	dA
4	3.46945e-18	-0.04	-0.0069	0.02	0.02	0.0004
#DirnCosn: 
0, 1, 0
-0, -0, -1
-1, 0, 0
#EType	Lambda
4	0.92
#NbBCs	CPX	CPY	CPZ	Value
1	3.46945e-18	-0.04	-0.0069	1.34444e+161
##Element Counter: 274
#DevNb	CompNb	PrimNb	Id
1	1	31	274
#GType	X	Y	Z	LX	LZ	dA
4	-0.02	-0.04	-0.0069	0.02	0.02	0.0004
#DirnCosn: 
0, 1, 0
-0, -0, -1
-1, 0, 0
#EType	Lambda
4	0.92
#NbBCs	CPX	CPY	CPZ	Value
1	-0.02	-0.04	-0.0069	8.09271e+175
##Element Counter: 275
#DevNb	CompNb	PrimNb	Id
1	1	31	275
#GType	X	Y	Z	LX	LZ	dA
4	-0.04	-0.04	-0.0069	0.02	0.02	0.0004
#DirnCosn: 
0, 1, 0
-0, -0, -1
-1, 0, 0
#EType	Lambda
4	0.92
#NbBCs	CPX	CPY	CPZ	Value
1	-0.04	-0.04	-0.0069	6.01335e-154
##Element Counter: 276
#DevNb	CompNb	PrimNb	Id
1	1	31	276
#GType	X	Y	Z	LX	LZ	dA
4	0.04	-0.02	-0.0069	0.02	0.02	0.0004
#DirnCosn: 
0, 1, 0
-0, -0, -1
-1, 0, 0
#EType	Lambda
4	0.92
#NbBCs	CPX	CPY	CPZ	Value
1	0.04	-0.02	-0.0069	5.71683e+188
##Element Counter: 277
#DevNb	CompNb	PrimNb	Id
1	1	31	277
#GType	X	Y	Z	LX	LZ	dA
4	0.02	-0.02	-0.0069	0.02	0.02	0.0004
#DirnCosn: 
0, 1, 0
-0, -0, -1
-1, 0, 0
#EType	Lambda
4	0.92
#NbBCs	CPX	CPY	CPZ	Value
1	0.02	-0.02	-0.0069	8.49319e-62
##Element Counter: 278
#DevNb	CompNb	PrimNb	Id
1	1	31	278
#GType	X	Y	Z	LX	LZ	dA
4	3.46945e-18	-0.02	-0.0069	0.02	0.02	0.0004
#DirnCosn: 
0, 1, 0
-0, -0, -1
-1, 0, 0
#EType	Lambda
4	0.92
#NbBCs	CPX	CPY	CPZ	Value
1	3.46945e-18	-0.02	-0.0069	8.51957e+270
##Element Counter: 279
#DevNb	CompNb	PrimNb	Id
1	1	31	279
#GType	X	Y	Z	LX	LZ	dA
4	-0.02	-0.02	-0.0069	0.02	0.02	0.0004
#DirnCosn: 
0, 1, 0
-0, -0, -1
-1, 0, 0
#EType	Lambda
4	0.92
#NbBCs	CPX	CPY	CPZ	Value
1	-0.02	-0.02	-0.0069	1.27989e-152
##Element Counter: 280
#DevNb	CompNb	PrimNb	Id
1	1	31	280
#GType	X	Y	Z	LX	LZ	dA
4	-0.04	-0.02	-0.0069	0.02	0.02	0.0004
#DirnCosn: 
0, 1, 0
-0, -0, -1
-1, 0, 0
#EType	Lambda
4	0.92
#NbBCs	CPX	CPY	CPZ	Value
1	-0.04	-0.02	-0.0069	6.67136e+151
##Element Counter: 281
#DevNb	CompNb	PrimNb	Id
1	1	31	281
#GType	X	Y	Z	LX	LZ	dA
4	0.04	-3.46945e-18	-0.0069	0.02	0.02	0.0004
#DirnCosn: 
0, 1, 0
-0, -0, -1
-1, 0, 0
#EType	Lambda
4	0.92
#NbBCs	CPX	CPY	CPZ	Value
1	0.04	-3.46945e-18	-0.0069	6.01347e-154
##Element Counter: 282
#DevNb	CompNb	PrimNb	Id
1	1	31	282
#GType	X	Y	Z	LX	LZ	dA
4	0.02	-3.46945e-18	-0.0069	0.02	0.02	0.0004
#DirnCosn: 
0, 1, 0
-0, -0, -1
-1, 0, 0
#EType	Lambda
4	0.92
#NbBCs	CPX	CPY	CPZ	Value
1	0.02	-3.46945e-18	-0.0069	9.89847e+169
##Element Counter: 283
#DevNb	CompNb	PrimNb	Id
1	1	31	283
#GType	X	Y	Z	LX	LZ	dA
4	3.46945e-18	-3.46945e-18	-0.0069	0.02	0.02	0.0004
#DirnCosn: 
0, 1, 0
-0, -0, -1
-1, 0, 0
#EType	Lambda
4	0.92
#NbBCs	CPX	CPY	CPZ	Value
1	3.46945e-18	-3.46945e-18	-0.0069	6.01347e-154
##Element Counter: 284
#DevNb	CompNb	PrimNb	Id
1	1	31	284
#GType	X	Y	Z	LX	LZ	dA
4	-0.02	-3.46945e-18	-0.0069	0.02	0.02	0.0004
#DirnCosn: 
0, 1, 0
-0, -0, -1
-1, 0, 0
#EType	Lambda
4	0.92
#NbBCs	CPX	CPY	CPZ	Value
1	-0.02	-3.46945e-18	-0.0069	6.52023e+252
##Element Counter: 285
#DevNb	CompNb	PrimNb	Id
1	1	31	285
#GType	X	Y	Z	LX	LZ	dA
4	-0.04	-3.46945e-18	-0.0069	0.02	0.02	0.0004
#DirnCosn: 
0, 1, 0
-0, -0, -1
-1, 0, 0
#EType	Lambda
4	0.92
#NbBCs	CPX	CPY	CPZ	Value
1	-0.04	-3.46945e-18	-0.0069	4.7751e-125
##Element Counter: 286
#DevNb	CompNb	PrimNb	Id
1	1	31	286
#GType	X	Y	Z	LX	LZ	dA
4	0.04	0.02	-0.0069	0.02	0.02	0.0004
#DirnCosn: 
0, 1, 0
-0, -0, -1
-1, 0, 0
#EType	Lambda
4	0.92
#NbBCs	CPX	CPY	CPZ	Value
1	0.04	0.02	-0.0069	6.01347e-154
##Element Counter: 287
#DevNb	CompNb	PrimNb	Id
1	1	31	287
#GType	X	Y	Z	LX	LZ	dA
4	0.02	0.02	-0.0069	0.02	0.02	0.0004
#DirnCosn: 
0, 1, 0
-0, -0, -1
-1, 0, 0
#EType	Lambda
4	0.92
#NbBCs	CPX	CPY	CPZ	Value
1	0.02	0.02	-0.0069	9.60675e-37
##Element Counter: 288
#DevNb	CompNb	PrimNb	Id
1	1	31	288
#GType	X	Y	Z	LX	LZ	dA
4	3.46945e-18	0.02	-0.0069	0.02	0.02	0.0004
#DirnCosn: 
0, 1, 0
-0, -0, -1
-1, 0, 0
#EType	Lambda
4	0.92
#NbBCs	CPX	CPY	CPZ	Value
1	3.46945e-18	0.02	-0.0069	5.98158e-154
##Element Counter: 289
#DevNb	CompNb	PrimNb	Id
1	1	31	289
#GType	X	Y	Z	LX	LZ	dA
4	-0.02	0.02	-0.0069	0.02	0.02	0.0004
#DirnCosn: 
0, 1, 0
-0, -0, -1
-1, 0, 0
#EType	Lambda
4	0.92
#NbBCs	CPX	CPY	CPZ	Value
1	-0.02	0.02	-0.0069	3.99284e+252
##Element Counter: 290
#DevNb	CompNb	PrimNb	Id
1	1	31	290
#GType	X	Y	Z	LX	LZ	dA
4	-0.04	0.02	-0.0069	0.02	0.02	0.0004
#DirnCosn: 
0, 1, 0
-0, -0, -1
-1, 0, 0
#EType	Lambda
4	0.92
#NbBCs	CPX	CPY	CPZ	Value
1	-0.04	0.02	-0.0069	1.89131e+219
##Element Counter: 291
#DevNb	CompNb	PrimNb	Id
1	1	31	291
#GType	X	Y	Z	LX	LZ	dA
4	0.04	0.04	-0.0069	0.02	0.02	0.0004
#DirnCosn: 
0, 1, 0
-0, -0, -1
-1, 0, 0
#EType	Lambda
4	0.92
#NbBCs	CPX	CPY	CPZ	Value
1	0.04	0.04	-0.0069	2.06999e+161
##Element Counter: 292
#DevNb	CompNb	PrimNb	Id
1	1	31	292
#GType	X	Y	Z	LX	LZ	dA
4	0.02	0.04	-0.0069	0.02	0.02	0.0004
#DirnCosn: 
0, 1, 0
-0, -0, -1
-1, 0, 0
#EType	Lambda
4	0.92
#NbBCs	CPX	CPY	CPZ	Value
1	0.02	0.04	-0.0069	1.97633e+166
##Element Counter: 293
#DevNb	CompNb	PrimNb	Id
1	1	31	293
#GType	X	Y	Z	LX	LZ	dA
4	3.46945e-18	0.04	-0.0069	0.02	0.02	0.0004
#DirnCosn: 
0, 1, 0
-0, -0, -1
-1, 0, 0
#EType	Lambda
4	0.92
#NbBCs	CPX	CPY	CPZ	Value
1	3.46945e-18	0.04	-0.0069	6.01347e-154
##Element Counter: 294
#DevNb	CompNb	PrimNb	Id
1	1	31	294
#GType	X	Y	Z	LX	LZ	dA
4	-0.02	0.04	-0.0069	0.02	0.02	0.0004
#DirnCosn: 
0, 1, 0
-0, -0, -1
-1, 0, 0
#EType	Lambda
4	0.92
#NbBCs	CPX	CPY	CPZ	Value
1	-0.02	0.04	-0.0069	2.99874e+180
##Element Counter: 295
#DevNb	CompNb	PrimNb	Id
1	1	31	295
#GType	X	Y	Z	LX	LZ	dA
4	-0.04	0.04	-0.0069	0.02	0.02	0.0004
#DirnCosn: 
0, 1, 0
-0, -0, -1
-1, 0, 0
#EType	Lambda
4	0.92
#NbBCs	CPX	CPY	CPZ	Value
1	-0.04	0.04	-0.0069	1.33655e+185
