##Element Counter: 346
#DevNb	CompNb	PrimNb	Id
1	1	34	346
#GType	X	Y	Z	LX	LZ	dA
4	-0.04	-0.04	-0.0009	0.02	0.02	0.0004
#DirnCosn: 
0, 1, 0
0, 0, 1
1, 0, 0
#EType	Lambda
4	0.92
#NbBCs	CPX	CPY	CPZ	Value
1	-0.04	-0.04	-0.0009	1.36724e+161
##Element Counter: 347
#DevNb	CompNb	PrimNb	Id
1	1	34	347
#GType	X	Y	Z	LX	LZ	dA
4	-0.02	-0.04	-0.0009	0.02	0.02	0.0004
#DirnCosn: 
0, 1, 0
0, 0, 1
1, 0, 0
#EType	Lambda
4	0.92
#NbBCs	CPX	CPY	CPZ	Value
1	-0.02	-0.04	-0.0009	9.09492e+223
##Element Counter: 348
#DevNb	CompNb	PrimNb	Id
1	1	34	348
#GType	X	Y	Z	LX	LZ	dA
4	-3.46945e-18	-0.04	-0.0009	0.02	0.02	0.0004
#DirnCosn: 
0, 1, 0
0, 0, 1
1, 0, 0
#EType	Lambda
4	0.92
#NbBCs	CPX	CPY	CPZ	Value
1	-3.46945e-18	-0.04	-0.0009	6.01347e-154
##Element Counter: 349
#DevNb	CompNb	PrimNb	Id
1	1	34	349
#GType	X	Y	Z	LX	LZ	dA
4	0.02	-0.04	-0.0009	0.02	0.02	0.0004
#DirnCosn: 
0, 1, 0
0, 0, 1
1, 0, 0
#EType	Lambda
4	0.92
#NbBCs	CPX	CPY	CPZ	Value
1	0.02	-0.04	-0.0009	5.28556e+180
##Element Counter: 350
#DevNb	CompNb	PrimNb	Id
1	1	34	350
#GType	X	Y	Z	LX	LZ	dA
4	0.04	-0.04	-0.0009	0.02	0.02	0.0004
#DirnCosn: 
0, 1, 0
0, 0, 1
1, 0, 0
#EType	Lambda
4	0.92
#NbBCs	CPX	CPY	CPZ	Value
1	0.04	-0.04	-0.0009	9.08367e+223
##Element Counter: 351
#DevNb	CompNb	PrimNb	Id
1	1	34	351
#GType	X	Y	Z	LX	LZ	dA
4	-0.04	-0.02	-0.0009	0.02	0.02	0.0004
#DirnCosn: 
0, 1, 0
0, 0, 1
1, 0, 0
#EType	Lambda
4	0.92
#NbBCs	CPX	CPY	CPZ	Value
1	-0.04	-0.02	-0.0009	4.74835e+170
##Element Counter: 352
#DevNb	CompNb	PrimNb	Id
1	1	34	352
#GType	X	Y	Z	LX	LZ	dA
4	-0.02	-0.02	-0.0009	0.02	0.02	0.0004
#DirnCosn: 
0, 1, 0
0, 0, 1
1, 0, 0
#EType	Lambda
4	0.92
#NbBCs	CPX	CPY	CPZ	Value
1	-0.02	-0.02	-0.0009	9.30283e+242
##Element Counter: 353
#DevNb	CompNb	PrimNb	Id
1	1	34	353
#GType	X	Y	Z	LX	LZ	dA
4	-3.46945e-18	-0.02	-0.0009	0.02	0.02	0.0004
#DirnCosn: 
0, 1, 0
0, 0, 1
1, 0, 0
#EType	Lambda
4	0.92
#NbBCs	CPX	CPY	CPZ	Value
1	-3.46945e-18	-0.02	-0.0009	1.27966e-152
##Element Counter: 354
#DevNb	CompNb	PrimNb	Id
1	1	34	354
#GType	X	Y	Z	LX	LZ	dA
4	0.02	-0.02	-0.0009	0.02	0.02	0.0004
#DirnCosn: 
0, 1, 0
0, 0, 1
1, 0, 0
#EType	Lambda
4	0.92
#NbBCs	CPX	CPY	CPZ	Value
1	0.02	-0.02	-0.0009	2.46562e-154
##Element Counter: 355
#DevNb	CompNb	PrimNb	Id
1	1	34	355
#GType	X	Y	Z	LX	LZ	dA
4	0.04	-0.02	-0.0009	0.02	0.02	0.0004
#DirnCosn: 
0, 1, 0
0, 0, 1
1, 0, 0
#EType	Lambda
4	0.92
#NbBCs	CPX	CPY	CPZ	Value
1	0.04	-0.02	-0.0009	1.87673e-152
##Element Counter: 356
#DevNb	CompNb	PrimNb	Id
1	1	34	356
#GType	X	Y	Z	LX	LZ	dA
4	-0.04	-3.46945e-18	-0.0009	0.02	0.02	0.0004
#DirnCosn: 
0, 1, 0
0, 0, 1
1, 0, 0
#EType	Lambda
4	0.92
#NbBCs	CPX	CPY	CPZ	Value
1	-0.04	-3.46945e-18	-0.0009	2.46953e-154
##Element Counter: 357
#DevNb	CompNb	PrimNb	Id
1	1	34	357
#GType	X	Y	Z	LX	LZ	dA
4	-0.02	-3.46945e-18	-0.0009	0.02	0.02	0.0004
#DirnCosn: 
0, 1, 0
0, 0, 1
1, 0, 0
#EType	Lambda
4	0.92
#NbBCs	CPX	CPY	CPZ	Value
1	-0.02	-3.46945e-18	-0.0009	8.73977e+183
##Element Counter: 358
#DevNb	CompNb	PrimNb	Id
1	1	34	358
#GType	X	Y	Z	LX	LZ	dA
4	-3.46945e-18	-3.46945e-18	-0.0009	0.02	0.02	0.0004
#DirnCosn: 
0, 1, 0
0, 0, 1
1, 0, 0
#EType	Lambda
4	0.92
#NbBCs	CPX	CPY	CPZ	Value
1	-3.46945e-18	-3.46945e-18	-0.0009	2.32159e-152
##Element Counter: 359
#DevNb	CompNb	PrimNb	Id
1	1	34	359
#GType	X	Y	Z	LX	LZ	dA
4	0.02	-3.46945e-18	-0.0009	0.02	0.02	0.0004
#DirnCosn: 
0, 1, 0
0, 0, 1
1, 0, 0
#EType	Lambda
4	0.92
#NbBCs	CPX	CPY	CPZ	Value
1	0.02	-3.46945e-18	-0.0009	6.01335e-154
##Element Counter: 360
#DevNb	CompNb	PrimNb	Id
1	1	34	360
#GType	X	Y	Z	LX	LZ	dA
4	0.04	-3.46945e-18	-0.0009	0.02	0.02	0.0004
#DirnCosn: 
0, 1, 0
0, 0, 1
1, 0, 0
#EType	Lambda
4	0.92
#NbBCs	CPX	CPY	CPZ	Value
1	0.04	-3.46945e-18	-0.0009	1.85721e+165
##Element Counter: 361
#DevNb	CompNb	PrimNb	Id
1	1	34	361
#GType	X	Y	Z	LX	LZ	dA
4	-0.04	0.02	-0.0009	0.02	0.02	0.0004
#DirnCosn: 
0, 1, 0
0, 0, 1
1, 0, 0
#EType	Lambda
4	0.92
#NbBCs	CPX	CPY	CPZ	Value
1	-0.04	0.02	-0.0009	4.90839e+252
##Element Counter: 362
#DevNb	CompNb	PrimNb	Id
1	1	34	362
#GType	X	Y	Z	LX	LZ	dA
4	-0.02	0.02	-0.0009	0.02	0.02	0.0004
#DirnCosn: 
0, 1, 0
0, 0, 1
1, 0, 0
#EType	Lambda
4	0.92
#NbBCs	CPX	CPY	CPZ	Value
1	-0.02	0.02	-0.0009	1.13089e+257
##Element Counter: 363
#DevNb	CompNb	PrimNb	Id
1	1	34	363
#GType	X	Y	Z	LX	LZ	dA
4	-3.46945e-18	0.02	-0.0009	0.02	0.02	0.0004
#DirnCosn: 
0, 1, 0
0, 0, 1
1, 0, 0
#EType	Lambda
4	0.92
#NbBCs	CPX	CPY	CPZ	Value
1	-3.46945e-18	0.02	-0.0009	6.01347e-154
##Element Counter: 364
#DevNb	CompNb	PrimNb	Id
1	1	34	364
#GType	X	Y	Z	LX	LZ	dA
4	0.02	0.02	-0.0009	0.02	0.02	0.0004
#DirnCosn: 
0, 1, 0
0, 0, 1
1, 0, 0
#EType	Lambda
4	0.92
#NbBCs	CPX	CPY	CPZ	Value
1	0.02	0.02	-0.0009	2.06802e+151
##Element Counter: 365
#DevNb	CompNb	PrimNb	Id
1	1	34	365
#GType	X	Y	Z	LX	LZ	dA
4	0.04	0.02	-0.0009	0.02	0.02	0.0004
#DirnCosn: 
0, 1, 0
0, 0, 1
1, 0, 0
#EType	Lambda
4	0.92
#NbBCs	CPX	CPY	CPZ	Value
1	0.04	0.02	-0.0009	8.38862e+242
##Element Counter: 366
#DevNb	CompNb	PrimNb	Id
1	1	34	366
#GType	X	Y	Z	LX	LZ	dA
4	-0.04	0.04	-0.0009	0.02	0.02	0.0004
#DirnCosn: 
0, 1, 0
0, 0, 1
1, 0, 0
#EType	Lambda
4	0.92
#NbBCs	CPX	CPY	CPZ	Value
1	-0.04	0.04	-0.0009	1.04917e-153
##Element Counter: 367
#DevNb	CompNb	PrimNb	Id
1	1	34	367
#GType	X	Y	Z	LX	LZ	dA
4	-0.02	0.04	-0.0009	0.02	0.02	0.0004
#DirnCosn: 
0, 1, 0
0, 0, 1
1, 0, 0
#EType	Lambda
4	0.92
#NbBCs	CPX	CPY	CPZ	Value
1	-0.02	0.04	-0.0009	8.81045e+252
##Element Counter: 368
#DevNb	CompNb	PrimNb	Id
1	1	34	368
#GType	X	Y	Z	LX	LZ	dA
4	-3.46945e-18	0.04	-0.0009	0.02	0.02	0.0004
#DirnCosn: 
0, 1, 0
0, 0, 1
1, 0, 0
#EType	Lambda
4	0.92
#NbBCs	CPX	CPY	CPZ	Value
1	-3.46945e-18	0.04	-0.0009	8.85787e+165
##Element Counter: 369
#DevNb	CompNb	PrimNb	Id
1	1	34	369
#GType	X	Y	Z	LX	LZ	dA
4	0.02	0.04	-0.0009	0.02	0.02	0.0004
#DirnCosn: 
0, 1, 0
0, 0, 1
1, 0, 0
#EType	Lambda
4	0.92
#NbBCs	CPX	CPY	CPZ	Value
1	0.02	0.04	-0.0009	5.98157e-154
##Element Counter: 370
#DevNb	CompNb	PrimNb	Id
1	1	34	370
#GType	X	Y	Z	LX	LZ	dA
4	0.04	0.04	-0.0009	0.02	0.02	0.0004
#DirnCosn: 
0, 1, 0
0, 0, 1
1, 0, 0
#EType	Lambda
4	0.92
#NbBCs	CPX	CPY	CPZ	Value
1	0.04	0.04	-0.0009	3.10499e+169
