#Row	GivenPot	Error
1	0	6.23755e-10
2	0	6.00409e-13
3	0	1.29596e-09
4	0	9.91655e-10
5	0	2.88474e-09
6	0	6.37492e-10
7	0	1.02549e-09
8	0	1.14666e-09
9	0	1.48921e-10
10	0	5.68141e-10
11	1000	2.02363e-10
12	1000	2.3806e-10
13	1000	8.96989e-11
14	1000	2.8524e-10
15	1000	5.34328e-11
16	0	8.87219e-10
17	0	2.73737e-10
18	0	1.09991e-09
19	0	1.53168e-10
20	0	5.32015e-10
21	0	3.77849e-10
22	0	9.02375e-10
23	0	1.40046e-10
24	0	1.41995e-10
25	0	2.11208e-09
26	0	5.54252e-10
27	0	3.35017e-10
28	0	6.97146e-10
29	0	5.82677e-10
30	0	7.57361e-11
31	0	3.28506e-09
32	0	2.77225e-09
33	0	2.48937e-09
34	0	1.81068e-09
35	0	1.25192e-09
36	0	4.34952e-10
37	0	2.57632e-09
38	0	2.91017e-09
39	0	8.44295e-10
40	0	6.27551e-10
41	1000	1.0391e-09
42	1000	4.07454e-10
43	1000	7.62498e-10
44	1000	1.46883e-10
45	1000	3.4629e-10
46	0	1.68756e-10
47	0	1.25445e-10
48	0	5.74445e-10
49	0	2.37925e-11
50	0	7.27823e-10
51	0	1.65407e-09
52	0	1.34201e-09
53	0	3.04544e-10
54	0	2.55977e-10
55	0	3.0704e-10
56	0	1.46642e-11
57	0	6.6791e-10
58	0	5.04033e-10
59	0	7.17692e-11
60	0	1.49652e-10
61	0	6.9778e-11
62	0	4.16005e-10
63	0	4.84321e-10
64	0	4.38903e-10
65	0	1.00443e-10
66	0	4.15831e-10
67	0	4.68514e-10
68	0	4.43908e-10
69	0	9.44905e-10
70	0	2.75804e-10
71	0	9.13849e-10
72	0	1.05714e-09
73	0	6.86207e-10
74	0	2.98969e-09
75	0	1.60836e-09
76	0	1.28972e-10
77	0	3.75683e-10
78	0	1.28474e-09
79	0	1.28419e-09
80	0	1.25219e-09
81	1000	6.82121e-12
82	1000	1.8747e-10
83	1000	2.7967e-10
84	1000	5.90489e-10
85	1000	4.10409e-11
86	0	6.26546e-10
87	0	5.23452e-10
88	0	1.56295e-10
89	0	3.48439e-10
90	0	1.83493e-09
91	0	3.84993e-10
92	0	5.343e-10
93	0	1.1769e-09
94	0	8.4583e-11
95	0	1.11573e-09
96	0	2.61734e-10
97	0	1.70609e-10
98	0	3.27894e-10
99	0	3.1211e-10
100	0	5.32512e-11
101	0	5.68179e-10
102	0	5.4763e-10
103	0	2.00327e-10
104	0	9.73022e-11
105	0	2.38232e-12
106	0	1.69166e-10
107	0	3.15595e-10
108	0	1.02136e-09
109	0	2.69438e-10
110	0	2.69438e-10
111	0	6.51101e-11
112	0	2.28328e-09
113	0	1.60938e-09
114	0	4.56879e-11
115	0	2.30102e-10
116	0	5.96458e-10
117	0	1.63162e-10
118	0	2.24614e-09
119	0	1.73793e-09
120	0	4.69525e-10
121	1000	6.51426e-11
122	1000	2.3897e-10
123	1000	2.32149e-10
124	1000	2.24077e-10
125	1000	2.44995e-10
126	0	3.52631e-10
127	0	3.20369e-10
128	0	1.42011e-10
129	0	2.16616e-10
130	0	6.59043e-10
131	0	1.53284e-09
132	0	4.19142e-10
133	0	7.14046e-10
134	0	2.90629e-10
135	0	4.16364e-10
136	0	1.32876e-10
137	0	1.24032e-10
138	0	2.43523e-10
139	0	3.52371e-11
140	0	4.2957e-10
141	1000	1.68143e-10
142	1000	1.96792e-10
143	1000	1.42904e-10
144	1000	5.23414e-10
145	1000	1.52681e-10
146	1000	2.24759e-10
147	1000	2.50111e-11
148	1000	4.92037e-10
149	1000	2.97746e-10
150	1000	1.43132e-10
151	1000	1.6928e-10
152	1000	6.76437e-11
153	1000	2.91834e-10
154	1000	1.11072e-10
155	1000	3.20597e-11
156	1000	5.18867e-10
157	1000	2.90925e-10
158	1000	5.16138e-11
159	1000	1.4677e-10
160	1000	2.10662e-10
161	1000	2.30557e-10
162	1000	2.04636e-11
163	1000	9.90212e-11
164	1000	1.95882e-10
165	1000	2.62617e-10
166	1000	1.43018e-10
167	1000	3.11957e-10
168	1000	4.32578e-10
169	1000	6.84395e-11
170	1000	5.66729e-10
171	1000	1.13346e-10
172	1000	6.77574e-11
173	1000	1.43928e-10
174	1000	3.38673e-10
175	1000	5.45697e-11
176	1000	4.20641e-12
177	1000	4.89422e-10
178	1000	1.95541e-10
179	1000	1.545e-10
180	1000	1.86446e-10
181	1000	2.14072e-10
182	1000	5.79803e-11
183	1000	1.96678e-11
184	1000	6.99174e-11
185	1000	4.01201e-10
186	1000	1.82808e-10
187	1000	2.74213e-10
188	1000	1.46656e-11
189	1000	2.18392e-10
190	1000	4.6964e-10
191	0	1.77115e-09
192	0	3.93211e-09
193	0	3.66987e-10
194	0	1.19564e-09
195	0	5.62514e-10
196	0	1.59767e-09
197	0	3.17265e-09
198	0	3.78995e-10
199	0	1.00052e-09
200	0	3.61724e-10
201	0	3.17278e-09
202	0	3.56877e-10
203	0	7.84814e-10
204	0	3.8438e-10
205	0	1.45913e-09
206	0	4.37112e-10
207	0	1.79071e-10
208	0	1.73322e-10
209	0	1.5798e-09
210	0	1.62228e-10
211	0	1.34889e-09
212	0	2.7217e-10
213	0	1.56516e-09
214	0	2.11798e-09
215	0	8.36153e-10
216	0	4.66305e-10
217	0	4.05819e-10
218	0	1.16561e-10
219	0	2.43106e-10
220	0	8.46223e-10
221	0	8.60648e-11
222	0	4.35688e-10
223	0	1.38379e-09
224	0	6.3558e-11
225	0	9.29504e-10
226	0	4.913e-10
227	0	4.32994e-10
228	0	1.45263e-09
229	0	3.59545e-10
230	0	2.9771e-10
231	0	2.26266e-09
232	0	1.81474e-09
233	0	8.24224e-10
234	0	1.19959e-09
235	0	4.05554e-11
236	0	1.54072e-09
237	0	3.06678e-10
238	0	6.22902e-10
239	0	1.5712e-10
240	0	5.31813e-10
241	0	9.7108e-10
242	0	6.0647e-10
243	0	3.49649e-10
244	0	1.47492e-09
245	0	2.20019e-09
246	0	1.60171e-10
247	0	4.02547e-10
248	0	2.04599e-09
249	0	2.3171e-09
250	0	1.04715e-09
251	0	3.44246e-10
252	0	6.95906e-10
253	0	1.26163e-10
254	0	1.70688e-10
255	0	5.74434e-10
256	0	2.94222e-10
257	0	3.32108e-10
258	0	4.06125e-10
259	0	9.16684e-10
260	0	2.7422e-10
261	0	7.35717e-10
262	0	5.07933e-10
263	0	1.46416e-09
264	0	2.43504e-10
265	0	1.36901e-09
266	0	1.02047e-09
267	0	2.28877e-10
268	0	1.15647e-10
269	0	2.45003e-10
270	0	6.62888e-10
271	0	6.9025e-10
272	0	8.46155e-10
273	0	3.83693e-11
274	0	1.22821e-10
275	0	1.66265e-10
276	0	1.46848e-09
277	0	4.12053e-10
278	0	3.38703e-10
279	0	1.45426e-09
280	0	1.69962e-11
281	0	1.42893e-10
282	0	1.06756e-09
283	0	1.28217e-09
284	0	3.02606e-10
285	0	1.90369e-10
286	0	1.45085e-09
287	0	4.19564e-10
288	0	3.44436e-11
289	0	7.226e-10
290	0	1.98791e-10
291	0	1.90233e-10
292	0	6.83733e-10
293	0	5.93106e-10
294	0	1.83656e-09
295	0	5.21743e-10
296	0	4.73424e-11
297	0	3.26329e-10
298	0	1.83453e-10
299	0	2.77137e-10
300	0	1.08358e-12
301	0	6.51841e-10
302	0	1.37994e-09
303	0	6.01448e-10
304	0	8.85379e-10
305	0	2.35565e-09
306	0	2.67559e-10
307	0	3.92168e-10
308	0	4.44427e-10
309	0	1.03391e-10
310	0	4.56737e-10
311	0	1.83007e-10
312	0	8.63371e-11
313	0	3.48988e-11
314	0	9.24317e-11
315	0	2.94125e-10
316	0	3.37148e-12
317	0	2.36888e-10
318	0	1.59561e-10
319	0	1.5226e-10
320	0	2.02415e-10
321	0	2.64844e-10
322	0	1.19003e-10
323	0	2.46673e-11
324	0	1.85058e-10
325	0	5.86438e-11
326	0	9.61533e-11
327	0	3.18038e-11
328	0	2.64722e-10
329	0	2.56429e-10
330	0	1.0398e-10
331	0	1.59189e-11
332	0	3.11777e-11
333	0	2.67763e-11
334	0	3.00687e-10
335	0	7.60582e-11
336	0	2.68255e-10
337	0	5.06457e-12
338	0	5.50248e-11
339	0	4.54831e-11
340	0	2.00768e-11
341	0	1.11343e-10
342	0	2.93562e-10
343	0	1.52872e-10
344	0	3.09984e-10
345	0	7.09894e-11
346	0	2.10712e-11
347	0	3.10289e-11
348	0	9.43348e-11
349	0	2.16227e-10
350	0	8.55608e-11
351	0	9.93178e-11
352	0	4.01258e-10
353	0	4.75314e-11
354	0	4.93401e-11
355	0	1.1907e-10
356	0	1.29044e-10
357	0	3.15608e-10
358	0	4.24957e-11
359	0	6.942e-11
360	0	1.9253e-11
361	0	1.98621e-09
362	0	1.25335e-09
363	0	8.95803e-10
364	0	4.91511e-10
365	0	4.38227e-10
366	0	9.12481e-10
367	0	3.66544e-10
368	0	2.15348e-11
369	0	2.61128e-10
370	0	8.39147e-10
371	0	2.81089e-10
372	0	1.8264e-10
373	0	1.38853e-09
374	0	8.60467e-10
375	0	2.25175e-10
376	0	4.27441e-10
377	0	4.77648e-10
378	0	3.24786e-10
379	0	3.20739e-11
380	0	1.03377e-10
381	0	2.42602e-10
382	0	3.25766e-10
383	0	1.95618e-10
384	0	5.85484e-10
385	0	1.47105e-10
386	0	3.90992e-10
387	0	3.10392e-10
388	0	2.77696e-10
389	0	3.97335e-11
390	0	3.86562e-10
391	0	5.44889e-10
392	0	2.88241e-10
393	0	1.32921e-10
394	0	6.51809e-10
395	0	2.49347e-10
396	0	8.97643e-10
397	0	4.36486e-10
398	0	1.01288e-11
399	0	2.09823e-10
400	0	2.50786e-10
401	0	2.44768e-10
402	0	3.09441e-10
403	0	1.27567e-10
404	0	3.43274e-10
405	0	1.13321e-10
406	0	8.99229e-10
407	0	6.96205e-10
408	0	1.23096e-09
409	0	6.97957e-10
410	0	1.83975e-09
411	0	4.08429e-10
412	0	9.83135e-10
413	0	7.06928e-10
414	0	6.72811e-10
415	0	1.06559e-09
416	0	7.2615e-10
417	0	3.9241e-10
418	0	5.07299e-10
419	0	1.04947e-10
420	0	6.9349e-11
421	0	4.06672e-10
422	0	1.00772e-09
423	0	4.36557e-10
424	0	7.50561e-10
425	0	5.66502e-10
426	0	1.16245e-10
427	0	5.01132e-10
428	0	1.628e-10
429	0	3.88354e-10
430	0	8.37645e-10
431	0	5.7662e-10
432	0	2.47837e-11
433	0	3.87445e-10
434	0	4.72937e-10
435	0	7.07587e-10
436	0	9.29845e-10
437	0	5.80258e-10
438	0	1.15688e-09
439	0	1.60071e-10
440	0	9.66338e-12
441	0	6.4756e-10
442	0	1.03319e-09
443	0	2.09184e-10
444	0	4.82999e-10
445	0	1.01863e-10
446	0	1.63709e-10
447	0	4.27463e-10
448	0	1.37334e-10
449	0	2.5284e-10
450	0	7.49424e-10
451	0	2.30106e-09
#Error maximum on element 192 and its magnitude is 3.93211e-09.
