-0.04	-0.04	-0.0089
-0.02	-0.04	-0.0089
-3.46945e-18	-0.04	-0.0089
0.02	-0.04	-0.0089
0.04	-0.04	-0.0089
-0.04	-0.02	-0.0089
-0.02	-0.02	-0.0089
-3.46945e-18	-0.02	-0.0089
0.02	-0.02	-0.0089
0.04	-0.02	-0.0089
-0.04	-3.46945e-18	-0.0089
-0.02	-3.46945e-18	-0.0089
-3.46945e-18	-3.46945e-18	-0.0089
0.02	-3.46945e-18	-0.0089
0.04	-3.46945e-18	-0.0089
-0.04	0.02	-0.0089
-0.02	0.02	-0.0089
-3.46945e-18	0.02	-0.0089
0.02	0.02	-0.0089
0.04	0.02	-0.0089
-0.04	0.04	-0.0089
-0.02	0.04	-0.0089
-3.46945e-18	0.04	-0.0089
0.02	0.04	-0.0089
0.04	0.04	-0.0089
