0.051	-0.04	0.003
0.051	-0.04	0.001
0.051	-0.04	-0.001
0.051	-0.04	-0.003
0.051	-0.02	0.003
0.051	-0.02	0.001
0.051	-0.02	-0.001
0.051	-0.02	-0.003
0.051	-3.46945e-18	0.003
0.051	-3.46945e-18	0.001
0.051	-3.46945e-18	-0.001
0.051	-3.46945e-18	-0.003
0.051	0.02	0.003
0.051	0.02	0.001
0.051	0.02	-0.001
0.051	0.02	-0.003
0.051	0.04	0.003
0.051	0.04	0.001
0.051	0.04	-0.001
0.051	0.04	-0.003
