0.05	-0.05	-0.0089
0.05	-0.03	-0.0089
0.05	-0.03	-0.0109
0.05	-0.05	-0.0109
0.05	-0.05	-0.0089

0.05	-0.03	-0.0089
0.05	-0.01	-0.0089
0.05	-0.01	-0.0109
0.05	-0.03	-0.0109
0.05	-0.03	-0.0089

0.05	-0.01	-0.0089
0.05	0.01	-0.0089
0.05	0.01	-0.0109
0.05	-0.01	-0.0109
0.05	-0.01	-0.0089

0.05	0.01	-0.0089
0.05	0.03	-0.0089
0.05	0.03	-0.0109
0.05	0.01	-0.0109
0.05	0.01	-0.0089

0.05	0.03	-0.0089
0.05	0.05	-0.0089
0.05	0.05	-0.0109
0.05	0.03	-0.0109
0.05	0.03	-0.0089

