0.05	-0.05	-0.0109
0.05	-0.03	-0.0109
0.03	-0.03	-0.0109
0.03	-0.05	-0.0109
0.05	-0.05	-0.0109

0.03	-0.05	-0.0109
0.03	-0.03	-0.0109
0.01	-0.03	-0.0109
0.01	-0.05	-0.0109
0.03	-0.05	-0.0109

0.01	-0.05	-0.0109
0.01	-0.03	-0.0109
-0.01	-0.03	-0.0109
-0.01	-0.05	-0.0109
0.01	-0.05	-0.0109

-0.01	-0.05	-0.0109
-0.01	-0.03	-0.0109
-0.03	-0.03	-0.0109
-0.03	-0.05	-0.0109
-0.01	-0.05	-0.0109

-0.03	-0.05	-0.0109
-0.03	-0.03	-0.0109
-0.05	-0.03	-0.0109
-0.05	-0.05	-0.0109
-0.03	-0.05	-0.0109

0.05	-0.03	-0.0109
0.05	-0.01	-0.0109
0.03	-0.01	-0.0109
0.03	-0.03	-0.0109
0.05	-0.03	-0.0109

0.03	-0.03	-0.0109
0.03	-0.01	-0.0109
0.01	-0.01	-0.0109
0.01	-0.03	-0.0109
0.03	-0.03	-0.0109

0.01	-0.03	-0.0109
0.01	-0.01	-0.0109
-0.01	-0.01	-0.0109
-0.01	-0.03	-0.0109
0.01	-0.03	-0.0109

-0.01	-0.03	-0.0109
-0.01	-0.01	-0.0109
-0.03	-0.01	-0.0109
-0.03	-0.03	-0.0109
-0.01	-0.03	-0.0109

-0.03	-0.03	-0.0109
-0.03	-0.01	-0.0109
-0.05	-0.01	-0.0109
-0.05	-0.03	-0.0109
-0.03	-0.03	-0.0109

0.05	-0.01	-0.0109
0.05	0.01	-0.0109
0.03	0.01	-0.0109
0.03	-0.01	-0.0109
0.05	-0.01	-0.0109

0.03	-0.01	-0.0109
0.03	0.01	-0.0109
0.01	0.01	-0.0109
0.01	-0.01	-0.0109
0.03	-0.01	-0.0109

0.01	-0.01	-0.0109
0.01	0.01	-0.0109
-0.01	0.01	-0.0109
-0.01	-0.01	-0.0109
0.01	-0.01	-0.0109

-0.01	-0.01	-0.0109
-0.01	0.01	-0.0109
-0.03	0.01	-0.0109
-0.03	-0.01	-0.0109
-0.01	-0.01	-0.0109

-0.03	-0.01	-0.0109
-0.03	0.01	-0.0109
-0.05	0.01	-0.0109
-0.05	-0.01	-0.0109
-0.03	-0.01	-0.0109

0.05	0.01	-0.0109
0.05	0.03	-0.0109
0.03	0.03	-0.0109
0.03	0.01	-0.0109
0.05	0.01	-0.0109

0.03	0.01	-0.0109
0.03	0.03	-0.0109
0.01	0.03	-0.0109
0.01	0.01	-0.0109
0.03	0.01	-0.0109

0.01	0.01	-0.0109
0.01	0.03	-0.0109
-0.01	0.03	-0.0109
-0.01	0.01	-0.0109
0.01	0.01	-0.0109

-0.01	0.01	-0.0109
-0.01	0.03	-0.0109
-0.03	0.03	-0.0109
-0.03	0.01	-0.0109
-0.01	0.01	-0.0109

-0.03	0.01	-0.0109
-0.03	0.03	-0.0109
-0.05	0.03	-0.0109
-0.05	0.01	-0.0109
-0.03	0.01	-0.0109

0.05	0.03	-0.0109
0.05	0.05	-0.0109
0.03	0.05	-0.0109
0.03	0.03	-0.0109
0.05	0.03	-0.0109

0.03	0.03	-0.0109
0.03	0.05	-0.0109
0.01	0.05	-0.0109
0.01	0.03	-0.0109
0.03	0.03	-0.0109

0.01	0.03	-0.0109
0.01	0.05	-0.0109
-0.01	0.05	-0.0109
-0.01	0.03	-0.0109
0.01	0.03	-0.0109

-0.01	0.03	-0.0109
-0.01	0.05	-0.0109
-0.03	0.05	-0.0109
-0.03	0.03	-0.0109
-0.01	0.03	-0.0109

-0.03	0.03	-0.0109
-0.03	0.05	-0.0109
-0.05	0.05	-0.0109
-0.05	0.03	-0.0109
-0.03	0.03	-0.0109

