-0.05	-0.05	-0.0008
-0.05	-0.03	-0.0008
-0.05	-0.03	-0.0006
-0.05	-0.05	-0.0006
-0.05	-0.05	-0.0008

-0.05	-0.03	-0.0008
-0.05	-0.01	-0.0008
-0.05	-0.01	-0.0006
-0.05	-0.03	-0.0006
-0.05	-0.03	-0.0008

-0.05	-0.01	-0.0008
-0.05	0.01	-0.0008
-0.05	0.01	-0.0006
-0.05	-0.01	-0.0006
-0.05	-0.01	-0.0008

-0.05	0.01	-0.0008
-0.05	0.03	-0.0008
-0.05	0.03	-0.0006
-0.05	0.01	-0.0006
-0.05	0.01	-0.0008

-0.05	0.03	-0.0008
-0.05	0.05	-0.0008
-0.05	0.05	-0.0006
-0.05	0.03	-0.0006
-0.05	0.03	-0.0008

