0.051	-0.05	-0.004
0.051	-0.03	-0.004
0.049	-0.03	-0.004
0.049	-0.05	-0.004
0.051	-0.05	-0.004

0.051	-0.03	-0.004
0.051	-0.01	-0.004
0.049	-0.01	-0.004
0.049	-0.03	-0.004
0.051	-0.03	-0.004

0.051	-0.01	-0.004
0.051	0.01	-0.004
0.049	0.01	-0.004
0.049	-0.01	-0.004
0.051	-0.01	-0.004

0.051	0.01	-0.004
0.051	0.03	-0.004
0.049	0.03	-0.004
0.049	0.01	-0.004
0.051	0.01	-0.004

0.051	0.03	-0.004
0.051	0.05	-0.004
0.049	0.05	-0.004
0.049	0.03	-0.004
0.051	0.03	-0.004

