0.05	-0.05	-0.0009
0.05	-0.03	-0.0009
0.05	-0.03	-0.0029
0.05	-0.05	-0.0029
0.05	-0.05	-0.0009

0.05	-0.03	-0.0009
0.05	-0.01	-0.0009
0.05	-0.01	-0.0029
0.05	-0.03	-0.0029
0.05	-0.03	-0.0009

0.05	-0.01	-0.0009
0.05	0.01	-0.0009
0.05	0.01	-0.0029
0.05	-0.01	-0.0029
0.05	-0.01	-0.0009

0.05	0.01	-0.0009
0.05	0.03	-0.0009
0.05	0.03	-0.0029
0.05	0.01	-0.0029
0.05	0.01	-0.0009

0.05	0.03	-0.0009
0.05	0.05	-0.0009
0.05	0.05	-0.0029
0.05	0.03	-0.0029
0.05	0.03	-0.0009

