##Element Counter: 688
#DevNb	CompNb	PrimNb	Id
1	1	69	688
#GType	X	Y	Z	LX	LZ	dA
4	0.0428571	-0.0428571	0.0051	0.0142857	0.0142857	0.000204082
#DirnCosn: 
0, 1, 0
-0, -0, -1
-1, 0, 0
#EType	Lambda
1	0
#NbBCs	CPX	CPY	CPZ	Value
1	0.0428571	-0.0428571	0.0051	0
##Element Counter: 689
#DevNb	CompNb	PrimNb	Id
1	1	69	689
#GType	X	Y	Z	LX	LZ	dA
4	0.0285714	-0.0428571	0.0051	0.0142857	0.0142857	0.000204082
#DirnCosn: 
0, 1, 0
-0, -0, -1
-1, 0, 0
#EType	Lambda
1	0
#NbBCs	CPX	CPY	CPZ	Value
1	0.0285714	-0.0428571	0.0051	0
##Element Counter: 690
#DevNb	CompNb	PrimNb	Id
1	1	69	690
#GType	X	Y	Z	LX	LZ	dA
4	0.0142857	-0.0428571	0.0051	0.0142857	0.0142857	0.000204082
#DirnCosn: 
0, 1, 0
-0, -0, -1
-1, 0, 0
#EType	Lambda
1	0
#NbBCs	CPX	CPY	CPZ	Value
1	0.0142857	-0.0428571	0.0051	0
##Element Counter: 691
#DevNb	CompNb	PrimNb	Id
1	1	69	691
#GType	X	Y	Z	LX	LZ	dA
4	0	-0.0428571	0.0051	0.0142857	0.0142857	0.000204082
#DirnCosn: 
0, 1, 0
-0, -0, -1
-1, 0, 0
#EType	Lambda
1	0
#NbBCs	CPX	CPY	CPZ	Value
1	0	-0.0428571	0.0051	0
##Element Counter: 692
#DevNb	CompNb	PrimNb	Id
1	1	69	692
#GType	X	Y	Z	LX	LZ	dA
4	-0.0142857	-0.0428571	0.0051	0.0142857	0.0142857	0.000204082
#DirnCosn: 
0, 1, 0
-0, -0, -1
-1, 0, 0
#EType	Lambda
1	0
#NbBCs	CPX	CPY	CPZ	Value
1	-0.0142857	-0.0428571	0.0051	0
##Element Counter: 693
#DevNb	CompNb	PrimNb	Id
1	1	69	693
#GType	X	Y	Z	LX	LZ	dA
4	-0.0285714	-0.0428571	0.0051	0.0142857	0.0142857	0.000204082
#DirnCosn: 
0, 1, 0
-0, -0, -1
-1, 0, 0
#EType	Lambda
1	0
#NbBCs	CPX	CPY	CPZ	Value
1	-0.0285714	-0.0428571	0.0051	0
##Element Counter: 694
#DevNb	CompNb	PrimNb	Id
1	1	69	694
#GType	X	Y	Z	LX	LZ	dA
4	-0.0428571	-0.0428571	0.0051	0.0142857	0.0142857	0.000204082
#DirnCosn: 
0, 1, 0
-0, -0, -1
-1, 0, 0
#EType	Lambda
1	0
#NbBCs	CPX	CPY	CPZ	Value
1	-0.0428571	-0.0428571	0.0051	0
##Element Counter: 695
#DevNb	CompNb	PrimNb	Id
1	1	69	695
#GType	X	Y	Z	LX	LZ	dA
4	0.0428571	-0.0285714	0.0051	0.0142857	0.0142857	0.000204082
#DirnCosn: 
0, 1, 0
-0, -0, -1
-1, 0, 0
#EType	Lambda
1	0
#NbBCs	CPX	CPY	CPZ	Value
1	0.0428571	-0.0285714	0.0051	0
##Element Counter: 696
#DevNb	CompNb	PrimNb	Id
1	1	69	696
#GType	X	Y	Z	LX	LZ	dA
4	0.0285714	-0.0285714	0.0051	0.0142857	0.0142857	0.000204082
#DirnCosn: 
0, 1, 0
-0, -0, -1
-1, 0, 0
#EType	Lambda
1	0
#NbBCs	CPX	CPY	CPZ	Value
1	0.0285714	-0.0285714	0.0051	0
##Element Counter: 697
#DevNb	CompNb	PrimNb	Id
1	1	69	697
#GType	X	Y	Z	LX	LZ	dA
4	0.0142857	-0.0285714	0.0051	0.0142857	0.0142857	0.000204082
#DirnCosn: 
0, 1, 0
-0, -0, -1
-1, 0, 0
#EType	Lambda
1	0
#NbBCs	CPX	CPY	CPZ	Value
1	0.0142857	-0.0285714	0.0051	0
##Element Counter: 698
#DevNb	CompNb	PrimNb	Id
1	1	69	698
#GType	X	Y	Z	LX	LZ	dA
4	0	-0.0285714	0.0051	0.0142857	0.0142857	0.000204082
#DirnCosn: 
0, 1, 0
-0, -0, -1
-1, 0, 0
#EType	Lambda
1	0
#NbBCs	CPX	CPY	CPZ	Value
1	0	-0.0285714	0.0051	0
##Element Counter: 699
#DevNb	CompNb	PrimNb	Id
1	1	69	699
#GType	X	Y	Z	LX	LZ	dA
4	-0.0142857	-0.0285714	0.0051	0.0142857	0.0142857	0.000204082
#DirnCosn: 
0, 1, 0
-0, -0, -1
-1, 0, 0
#EType	Lambda
1	0
#NbBCs	CPX	CPY	CPZ	Value
1	-0.0142857	-0.0285714	0.0051	0
##Element Counter: 700
#DevNb	CompNb	PrimNb	Id
1	1	69	700
#GType	X	Y	Z	LX	LZ	dA
4	-0.0285714	-0.0285714	0.0051	0.0142857	0.0142857	0.000204082
#DirnCosn: 
0, 1, 0
-0, -0, -1
-1, 0, 0
#EType	Lambda
1	0
#NbBCs	CPX	CPY	CPZ	Value
1	-0.0285714	-0.0285714	0.0051	0
##Element Counter: 701
#DevNb	CompNb	PrimNb	Id
1	1	69	701
#GType	X	Y	Z	LX	LZ	dA
4	-0.0428571	-0.0285714	0.0051	0.0142857	0.0142857	0.000204082
#DirnCosn: 
0, 1, 0
-0, -0, -1
-1, 0, 0
#EType	Lambda
1	0
#NbBCs	CPX	CPY	CPZ	Value
1	-0.0428571	-0.0285714	0.0051	0
##Element Counter: 702
#DevNb	CompNb	PrimNb	Id
1	1	69	702
#GType	X	Y	Z	LX	LZ	dA
4	0.0428571	-0.0142857	0.0051	0.0142857	0.0142857	0.000204082
#DirnCosn: 
0, 1, 0
-0, -0, -1
-1, 0, 0
#EType	Lambda
1	0
#NbBCs	CPX	CPY	CPZ	Value
1	0.0428571	-0.0142857	0.0051	0
##Element Counter: 703
#DevNb	CompNb	PrimNb	Id
1	1	69	703
#GType	X	Y	Z	LX	LZ	dA
4	0.0285714	-0.0142857	0.0051	0.0142857	0.0142857	0.000204082
#DirnCosn: 
0, 1, 0
-0, -0, -1
-1, 0, 0
#EType	Lambda
1	0
#NbBCs	CPX	CPY	CPZ	Value
1	0.0285714	-0.0142857	0.0051	0
##Element Counter: 704
#DevNb	CompNb	PrimNb	Id
1	1	69	704
#GType	X	Y	Z	LX	LZ	dA
4	0.0142857	-0.0142857	0.0051	0.0142857	0.0142857	0.000204082
#DirnCosn: 
0, 1, 0
-0, -0, -1
-1, 0, 0
#EType	Lambda
1	0
#NbBCs	CPX	CPY	CPZ	Value
1	0.0142857	-0.0142857	0.0051	0
##Element Counter: 705
#DevNb	CompNb	PrimNb	Id
1	1	69	705
#GType	X	Y	Z	LX	LZ	dA
4	0	-0.0142857	0.0051	0.0142857	0.0142857	0.000204082
#DirnCosn: 
0, 1, 0
-0, -0, -1
-1, 0, 0
#EType	Lambda
1	0
#NbBCs	CPX	CPY	CPZ	Value
1	0	-0.0142857	0.0051	0
##Element Counter: 706
#DevNb	CompNb	PrimNb	Id
1	1	69	706
#GType	X	Y	Z	LX	LZ	dA
4	-0.0142857	-0.0142857	0.0051	0.0142857	0.0142857	0.000204082
#DirnCosn: 
0, 1, 0
-0, -0, -1
-1, 0, 0
#EType	Lambda
1	0
#NbBCs	CPX	CPY	CPZ	Value
1	-0.0142857	-0.0142857	0.0051	0
##Element Counter: 707
#DevNb	CompNb	PrimNb	Id
1	1	69	707
#GType	X	Y	Z	LX	LZ	dA
4	-0.0285714	-0.0142857	0.0051	0.0142857	0.0142857	0.000204082
#DirnCosn: 
0, 1, 0
-0, -0, -1
-1, 0, 0
#EType	Lambda
1	0
#NbBCs	CPX	CPY	CPZ	Value
1	-0.0285714	-0.0142857	0.0051	0
##Element Counter: 708
#DevNb	CompNb	PrimNb	Id
1	1	69	708
#GType	X	Y	Z	LX	LZ	dA
4	-0.0428571	-0.0142857	0.0051	0.0142857	0.0142857	0.000204082
#DirnCosn: 
0, 1, 0
-0, -0, -1
-1, 0, 0
#EType	Lambda
1	0
#NbBCs	CPX	CPY	CPZ	Value
1	-0.0428571	-0.0142857	0.0051	0
##Element Counter: 709
#DevNb	CompNb	PrimNb	Id
1	1	69	709
#GType	X	Y	Z	LX	LZ	dA
4	0.0428571	0	0.0051	0.0142857	0.0142857	0.000204082
#DirnCosn: 
0, 1, 0
-0, -0, -1
-1, 0, 0
#EType	Lambda
1	0
#NbBCs	CPX	CPY	CPZ	Value
1	0.0428571	0	0.0051	0
##Element Counter: 710
#DevNb	CompNb	PrimNb	Id
1	1	69	710
#GType	X	Y	Z	LX	LZ	dA
4	0.0285714	0	0.0051	0.0142857	0.0142857	0.000204082
#DirnCosn: 
0, 1, 0
-0, -0, -1
-1, 0, 0
#EType	Lambda
1	0
#NbBCs	CPX	CPY	CPZ	Value
1	0.0285714	0	0.0051	0
##Element Counter: 711
#DevNb	CompNb	PrimNb	Id
1	1	69	711
#GType	X	Y	Z	LX	LZ	dA
4	0.0142857	0	0.0051	0.0142857	0.0142857	0.000204082
#DirnCosn: 
0, 1, 0
-0, -0, -1
-1, 0, 0
#EType	Lambda
1	0
#NbBCs	CPX	CPY	CPZ	Value
1	0.0142857	0	0.0051	0
##Element Counter: 712
#DevNb	CompNb	PrimNb	Id
1	1	69	712
#GType	X	Y	Z	LX	LZ	dA
4	0	0	0.0051	0.0142857	0.0142857	0.000204082
#DirnCosn: 
0, 1, 0
-0, -0, -1
-1, 0, 0
#EType	Lambda
1	0
#NbBCs	CPX	CPY	CPZ	Value
1	0	0	0.0051	0
##Element Counter: 713
#DevNb	CompNb	PrimNb	Id
1	1	69	713
#GType	X	Y	Z	LX	LZ	dA
4	-0.0142857	0	0.0051	0.0142857	0.0142857	0.000204082
#DirnCosn: 
0, 1, 0
-0, -0, -1
-1, 0, 0
#EType	Lambda
1	0
#NbBCs	CPX	CPY	CPZ	Value
1	-0.0142857	0	0.0051	0
##Element Counter: 714
#DevNb	CompNb	PrimNb	Id
1	1	69	714
#GType	X	Y	Z	LX	LZ	dA
4	-0.0285714	0	0.0051	0.0142857	0.0142857	0.000204082
#DirnCosn: 
0, 1, 0
-0, -0, -1
-1, 0, 0
#EType	Lambda
1	0
#NbBCs	CPX	CPY	CPZ	Value
1	-0.0285714	0	0.0051	0
##Element Counter: 715
#DevNb	CompNb	PrimNb	Id
1	1	69	715
#GType	X	Y	Z	LX	LZ	dA
4	-0.0428571	0	0.0051	0.0142857	0.0142857	0.000204082
#DirnCosn: 
0, 1, 0
-0, -0, -1
-1, 0, 0
#EType	Lambda
1	0
#NbBCs	CPX	CPY	CPZ	Value
1	-0.0428571	0	0.0051	0
##Element Counter: 716
#DevNb	CompNb	PrimNb	Id
1	1	69	716
#GType	X	Y	Z	LX	LZ	dA
4	0.0428571	0.0142857	0.0051	0.0142857	0.0142857	0.000204082
#DirnCosn: 
0, 1, 0
-0, -0, -1
-1, 0, 0
#EType	Lambda
1	0
#NbBCs	CPX	CPY	CPZ	Value
1	0.0428571	0.0142857	0.0051	0
##Element Counter: 717
#DevNb	CompNb	PrimNb	Id
1	1	69	717
#GType	X	Y	Z	LX	LZ	dA
4	0.0285714	0.0142857	0.0051	0.0142857	0.0142857	0.000204082
#DirnCosn: 
0, 1, 0
-0, -0, -1
-1, 0, 0
#EType	Lambda
1	0
#NbBCs	CPX	CPY	CPZ	Value
1	0.0285714	0.0142857	0.0051	0
##Element Counter: 718
#DevNb	CompNb	PrimNb	Id
1	1	69	718
#GType	X	Y	Z	LX	LZ	dA
4	0.0142857	0.0142857	0.0051	0.0142857	0.0142857	0.000204082
#DirnCosn: 
0, 1, 0
-0, -0, -1
-1, 0, 0
#EType	Lambda
1	0
#NbBCs	CPX	CPY	CPZ	Value
1	0.0142857	0.0142857	0.0051	0
##Element Counter: 719
#DevNb	CompNb	PrimNb	Id
1	1	69	719
#GType	X	Y	Z	LX	LZ	dA
4	0	0.0142857	0.0051	0.0142857	0.0142857	0.000204082
#DirnCosn: 
0, 1, 0
-0, -0, -1
-1, 0, 0
#EType	Lambda
1	0
#NbBCs	CPX	CPY	CPZ	Value
1	0	0.0142857	0.0051	0
##Element Counter: 720
#DevNb	CompNb	PrimNb	Id
1	1	69	720
#GType	X	Y	Z	LX	LZ	dA
4	-0.0142857	0.0142857	0.0051	0.0142857	0.0142857	0.000204082
#DirnCosn: 
0, 1, 0
-0, -0, -1
-1, 0, 0
#EType	Lambda
1	0
#NbBCs	CPX	CPY	CPZ	Value
1	-0.0142857	0.0142857	0.0051	0
##Element Counter: 721
#DevNb	CompNb	PrimNb	Id
1	1	69	721
#GType	X	Y	Z	LX	LZ	dA
4	-0.0285714	0.0142857	0.0051	0.0142857	0.0142857	0.000204082
#DirnCosn: 
0, 1, 0
-0, -0, -1
-1, 0, 0
#EType	Lambda
1	0
#NbBCs	CPX	CPY	CPZ	Value
1	-0.0285714	0.0142857	0.0051	0
##Element Counter: 722
#DevNb	CompNb	PrimNb	Id
1	1	69	722
#GType	X	Y	Z	LX	LZ	dA
4	-0.0428571	0.0142857	0.0051	0.0142857	0.0142857	0.000204082
#DirnCosn: 
0, 1, 0
-0, -0, -1
-1, 0, 0
#EType	Lambda
1	0
#NbBCs	CPX	CPY	CPZ	Value
1	-0.0428571	0.0142857	0.0051	0
##Element Counter: 723
#DevNb	CompNb	PrimNb	Id
1	1	69	723
#GType	X	Y	Z	LX	LZ	dA
4	0.0428571	0.0285714	0.0051	0.0142857	0.0142857	0.000204082
#DirnCosn: 
0, 1, 0
-0, -0, -1
-1, 0, 0
#EType	Lambda
1	0
#NbBCs	CPX	CPY	CPZ	Value
1	0.0428571	0.0285714	0.0051	0
##Element Counter: 724
#DevNb	CompNb	PrimNb	Id
1	1	69	724
#GType	X	Y	Z	LX	LZ	dA
4	0.0285714	0.0285714	0.0051	0.0142857	0.0142857	0.000204082
#DirnCosn: 
0, 1, 0
-0, -0, -1
-1, 0, 0
#EType	Lambda
1	0
#NbBCs	CPX	CPY	CPZ	Value
1	0.0285714	0.0285714	0.0051	0
##Element Counter: 725
#DevNb	CompNb	PrimNb	Id
1	1	69	725
#GType	X	Y	Z	LX	LZ	dA
4	0.0142857	0.0285714	0.0051	0.0142857	0.0142857	0.000204082
#DirnCosn: 
0, 1, 0
-0, -0, -1
-1, 0, 0
#EType	Lambda
1	0
#NbBCs	CPX	CPY	CPZ	Value
1	0.0142857	0.0285714	0.0051	0
##Element Counter: 726
#DevNb	CompNb	PrimNb	Id
1	1	69	726
#GType	X	Y	Z	LX	LZ	dA
4	0	0.0285714	0.0051	0.0142857	0.0142857	0.000204082
#DirnCosn: 
0, 1, 0
-0, -0, -1
-1, 0, 0
#EType	Lambda
1	0
#NbBCs	CPX	CPY	CPZ	Value
1	0	0.0285714	0.0051	0
##Element Counter: 727
#DevNb	CompNb	PrimNb	Id
1	1	69	727
#GType	X	Y	Z	LX	LZ	dA
4	-0.0142857	0.0285714	0.0051	0.0142857	0.0142857	0.000204082
#DirnCosn: 
0, 1, 0
-0, -0, -1
-1, 0, 0
#EType	Lambda
1	0
#NbBCs	CPX	CPY	CPZ	Value
1	-0.0142857	0.0285714	0.0051	0
##Element Counter: 728
#DevNb	CompNb	PrimNb	Id
1	1	69	728
#GType	X	Y	Z	LX	LZ	dA
4	-0.0285714	0.0285714	0.0051	0.0142857	0.0142857	0.000204082
#DirnCosn: 
0, 1, 0
-0, -0, -1
-1, 0, 0
#EType	Lambda
1	0
#NbBCs	CPX	CPY	CPZ	Value
1	-0.0285714	0.0285714	0.0051	0
##Element Counter: 729
#DevNb	CompNb	PrimNb	Id
1	1	69	729
#GType	X	Y	Z	LX	LZ	dA
4	-0.0428571	0.0285714	0.0051	0.0142857	0.0142857	0.000204082
#DirnCosn: 
0, 1, 0
-0, -0, -1
-1, 0, 0
#EType	Lambda
1	0
#NbBCs	CPX	CPY	CPZ	Value
1	-0.0428571	0.0285714	0.0051	0
##Element Counter: 730
#DevNb	CompNb	PrimNb	Id
1	1	69	730
#GType	X	Y	Z	LX	LZ	dA
4	0.0428571	0.0428571	0.0051	0.0142857	0.0142857	0.000204082
#DirnCosn: 
0, 1, 0
-0, -0, -1
-1, 0, 0
#EType	Lambda
1	0
#NbBCs	CPX	CPY	CPZ	Value
1	0.0428571	0.0428571	0.0051	0
##Element Counter: 731
#DevNb	CompNb	PrimNb	Id
1	1	69	731
#GType	X	Y	Z	LX	LZ	dA
4	0.0285714	0.0428571	0.0051	0.0142857	0.0142857	0.000204082
#DirnCosn: 
0, 1, 0
-0, -0, -1
-1, 0, 0
#EType	Lambda
1	0
#NbBCs	CPX	CPY	CPZ	Value
1	0.0285714	0.0428571	0.0051	0
##Element Counter: 732
#DevNb	CompNb	PrimNb	Id
1	1	69	732
#GType	X	Y	Z	LX	LZ	dA
4	0.0142857	0.0428571	0.0051	0.0142857	0.0142857	0.000204082
#DirnCosn: 
0, 1, 0
-0, -0, -1
-1, 0, 0
#EType	Lambda
1	0
#NbBCs	CPX	CPY	CPZ	Value
1	0.0142857	0.0428571	0.0051	0
##Element Counter: 733
#DevNb	CompNb	PrimNb	Id
1	1	69	733
#GType	X	Y	Z	LX	LZ	dA
4	0	0.0428571	0.0051	0.0142857	0.0142857	0.000204082
#DirnCosn: 
0, 1, 0
-0, -0, -1
-1, 0, 0
#EType	Lambda
1	0
#NbBCs	CPX	CPY	CPZ	Value
1	0	0.0428571	0.0051	0
##Element Counter: 734
#DevNb	CompNb	PrimNb	Id
1	1	69	734
#GType	X	Y	Z	LX	LZ	dA
4	-0.0142857	0.0428571	0.0051	0.0142857	0.0142857	0.000204082
#DirnCosn: 
0, 1, 0
-0, -0, -1
-1, 0, 0
#EType	Lambda
1	0
#NbBCs	CPX	CPY	CPZ	Value
1	-0.0142857	0.0428571	0.0051	0
##Element Counter: 735
#DevNb	CompNb	PrimNb	Id
1	1	69	735
#GType	X	Y	Z	LX	LZ	dA
4	-0.0285714	0.0428571	0.0051	0.0142857	0.0142857	0.000204082
#DirnCosn: 
0, 1, 0
-0, -0, -1
-1, 0, 0
#EType	Lambda
1	0
#NbBCs	CPX	CPY	CPZ	Value
1	-0.0285714	0.0428571	0.0051	0
##Element Counter: 736
#DevNb	CompNb	PrimNb	Id
1	1	69	736
#GType	X	Y	Z	LX	LZ	dA
4	-0.0428571	0.0428571	0.0051	0.0142857	0.0142857	0.000204082
#DirnCosn: 
0, 1, 0
-0, -0, -1
-1, 0, 0
#EType	Lambda
1	0
#NbBCs	CPX	CPY	CPZ	Value
1	-0.0428571	0.0428571	0.0051	0
