##Element Counter: 261
#DevNb	CompNb	PrimNb	Id
1	1	14	261
#GType	X	Y	Z	LX	LZ	dA
4	0.05	-0.05	0.0035	0.002	0.001	2e-06
#DirnCosn: 
1, 0, 0
0, -1, 0
0, 0, -1
#EType	Lambda
4	0.92
#NbBCs	CPX	CPY	CPZ	Value
1	0.05	-0.05	0.0035	0.00952381
##Element Counter: 262
#DevNb	CompNb	PrimNb	Id
1	1	14	262
#GType	X	Y	Z	LX	LZ	dA
4	0.05	-0.05	0.0025	0.002	0.001	2e-06
#DirnCosn: 
1, 0, 0
0, -1, 0
0, 0, -1
#EType	Lambda
4	0.92
#NbBCs	CPX	CPY	CPZ	Value
1	0.05	-0.05	0.0025	0
##Element Counter: 263
#DevNb	CompNb	PrimNb	Id
1	1	14	263
#GType	X	Y	Z	LX	LZ	dA
4	0.05	-0.05	0.0015	0.002	0.001	2e-06
#DirnCosn: 
1, 0, 0
0, -1, 0
0, 0, -1
#EType	Lambda
4	0.92
#NbBCs	CPX	CPY	CPZ	Value
1	0.05	-0.05	0.0015	0
##Element Counter: 264
#DevNb	CompNb	PrimNb	Id
1	1	14	264
#GType	X	Y	Z	LX	LZ	dA
4	0.05	-0.05	0.0005	0.002	0.001	2e-06
#DirnCosn: 
1, 0, 0
0, -1, 0
0, 0, -1
#EType	Lambda
4	0.92
#NbBCs	CPX	CPY	CPZ	Value
1	0.05	-0.05	0.0005	1000
##Element Counter: 265
#DevNb	CompNb	PrimNb	Id
1	1	14	265
#GType	X	Y	Z	LX	LZ	dA
4	0.05	-0.05	-0.0005	0.002	0.001	2e-06
#DirnCosn: 
1, 0, 0
0, -1, 0
0, 0, -1
#EType	Lambda
4	0.92
#NbBCs	CPX	CPY	CPZ	Value
1	0.05	-0.05	-0.0005	0.052381
##Element Counter: 266
#DevNb	CompNb	PrimNb	Id
1	1	14	266
#GType	X	Y	Z	LX	LZ	dA
4	0.05	-0.05	-0.0015	0.002	0.001	2e-06
#DirnCosn: 
1, 0, 0
0, -1, 0
0, 0, -1
#EType	Lambda
4	0.92
#NbBCs	CPX	CPY	CPZ	Value
1	0.05	-0.05	-0.0015	0
##Element Counter: 267
#DevNb	CompNb	PrimNb	Id
1	1	14	267
#GType	X	Y	Z	LX	LZ	dA
4	0.05	-0.05	-0.0025	0.002	0.001	2e-06
#DirnCosn: 
1, 0, 0
0, -1, 0
0, 0, -1
#EType	Lambda
4	0.92
#NbBCs	CPX	CPY	CPZ	Value
1	0.05	-0.05	-0.0025	0
##Element Counter: 268
#DevNb	CompNb	PrimNb	Id
1	1	14	268
#GType	X	Y	Z	LX	LZ	dA
4	0.05	-0.05	-0.0035	0.002	0.001	2e-06
#DirnCosn: 
1, 0, 0
0, -1, 0
0, 0, -1
#EType	Lambda
4	0.92
#NbBCs	CPX	CPY	CPZ	Value
1	0.05	-0.05	-0.0035	0
