##Element Counter: 984
#DevNb	CompNb	PrimNb	Id
1	1	85	984
#GType	X	Y	Z	LX	LZ	dA
4	-0.042	0.049	0.00266667	0.014	0.00266667	3.73333e-05
#DirnCosn: 
1, 0, 0
0, -1, 0
0, 0, -1
#EType	Lambda
4	0.818182
#NbBCs	CPX	CPY	CPZ	Value
1	-0.042	0.049	0.00266667	0
##Element Counter: 985
#DevNb	CompNb	PrimNb	Id
1	1	85	985
#GType	X	Y	Z	LX	LZ	dA
4	-0.042	0.049	2.1684e-19	0.014	0.00266667	3.73333e-05
#DirnCosn: 
1, 0, 0
0, -1, 0
0, 0, -1
#EType	Lambda
4	0.818182
#NbBCs	CPX	CPY	CPZ	Value
1	-0.042	0.049	2.1684e-19	0
##Element Counter: 986
#DevNb	CompNb	PrimNb	Id
1	1	85	986
#GType	X	Y	Z	LX	LZ	dA
4	-0.042	0.049	-0.00266667	0.014	0.00266667	3.73333e-05
#DirnCosn: 
1, 0, 0
0, -1, 0
0, 0, -1
#EType	Lambda
4	0.818182
#NbBCs	CPX	CPY	CPZ	Value
1	-0.042	0.049	-0.00266667	0
##Element Counter: 987
#DevNb	CompNb	PrimNb	Id
1	1	85	987
#GType	X	Y	Z	LX	LZ	dA
4	-0.028	0.049	0.00266667	0.014	0.00266667	3.73333e-05
#DirnCosn: 
1, 0, 0
0, -1, 0
0, 0, -1
#EType	Lambda
4	0.818182
#NbBCs	CPX	CPY	CPZ	Value
1	-0.028	0.049	0.00266667	0
##Element Counter: 988
#DevNb	CompNb	PrimNb	Id
1	1	85	988
#GType	X	Y	Z	LX	LZ	dA
4	-0.028	0.049	2.1684e-19	0.014	0.00266667	3.73333e-05
#DirnCosn: 
1, 0, 0
0, -1, 0
0, 0, -1
#EType	Lambda
4	0.818182
#NbBCs	CPX	CPY	CPZ	Value
1	-0.028	0.049	2.1684e-19	0
##Element Counter: 989
#DevNb	CompNb	PrimNb	Id
1	1	85	989
#GType	X	Y	Z	LX	LZ	dA
4	-0.028	0.049	-0.00266667	0.014	0.00266667	3.73333e-05
#DirnCosn: 
1, 0, 0
0, -1, 0
0, 0, -1
#EType	Lambda
4	0.818182
#NbBCs	CPX	CPY	CPZ	Value
1	-0.028	0.049	-0.00266667	0
##Element Counter: 990
#DevNb	CompNb	PrimNb	Id
1	1	85	990
#GType	X	Y	Z	LX	LZ	dA
4	-0.014	0.049	0.00266667	0.014	0.00266667	3.73333e-05
#DirnCosn: 
1, 0, 0
0, -1, 0
0, 0, -1
#EType	Lambda
4	0.818182
#NbBCs	CPX	CPY	CPZ	Value
1	-0.014	0.049	0.00266667	0
##Element Counter: 991
#DevNb	CompNb	PrimNb	Id
1	1	85	991
#GType	X	Y	Z	LX	LZ	dA
4	-0.014	0.049	2.1684e-19	0.014	0.00266667	3.73333e-05
#DirnCosn: 
1, 0, 0
0, -1, 0
0, 0, -1
#EType	Lambda
4	0.818182
#NbBCs	CPX	CPY	CPZ	Value
1	-0.014	0.049	2.1684e-19	0
##Element Counter: 992
#DevNb	CompNb	PrimNb	Id
1	1	85	992
#GType	X	Y	Z	LX	LZ	dA
4	-0.014	0.049	-0.00266667	0.014	0.00266667	3.73333e-05
#DirnCosn: 
1, 0, 0
0, -1, 0
0, 0, -1
#EType	Lambda
4	0.818182
#NbBCs	CPX	CPY	CPZ	Value
1	-0.014	0.049	-0.00266667	0
##Element Counter: 993
#DevNb	CompNb	PrimNb	Id
1	1	85	993
#GType	X	Y	Z	LX	LZ	dA
4	0	0.049	0.00266667	0.014	0.00266667	3.73333e-05
#DirnCosn: 
1, 0, 0
0, -1, 0
0, 0, -1
#EType	Lambda
4	0.818182
#NbBCs	CPX	CPY	CPZ	Value
1	0	0.049	0.00266667	0
##Element Counter: 994
#DevNb	CompNb	PrimNb	Id
1	1	85	994
#GType	X	Y	Z	LX	LZ	dA
4	0	0.049	2.1684e-19	0.014	0.00266667	3.73333e-05
#DirnCosn: 
1, 0, 0
0, -1, 0
0, 0, -1
#EType	Lambda
4	0.818182
#NbBCs	CPX	CPY	CPZ	Value
1	0	0.049	2.1684e-19	0
##Element Counter: 995
#DevNb	CompNb	PrimNb	Id
1	1	85	995
#GType	X	Y	Z	LX	LZ	dA
4	0	0.049	-0.00266667	0.014	0.00266667	3.73333e-05
#DirnCosn: 
1, 0, 0
0, -1, 0
0, 0, -1
#EType	Lambda
4	0.818182
#NbBCs	CPX	CPY	CPZ	Value
1	0	0.049	-0.00266667	0
##Element Counter: 996
#DevNb	CompNb	PrimNb	Id
1	1	85	996
#GType	X	Y	Z	LX	LZ	dA
4	0.014	0.049	0.00266667	0.014	0.00266667	3.73333e-05
#DirnCosn: 
1, 0, 0
0, -1, 0
0, 0, -1
#EType	Lambda
4	0.818182
#NbBCs	CPX	CPY	CPZ	Value
1	0.014	0.049	0.00266667	0
##Element Counter: 997
#DevNb	CompNb	PrimNb	Id
1	1	85	997
#GType	X	Y	Z	LX	LZ	dA
4	0.014	0.049	2.1684e-19	0.014	0.00266667	3.73333e-05
#DirnCosn: 
1, 0, 0
0, -1, 0
0, 0, -1
#EType	Lambda
4	0.818182
#NbBCs	CPX	CPY	CPZ	Value
1	0.014	0.049	2.1684e-19	0
##Element Counter: 998
#DevNb	CompNb	PrimNb	Id
1	1	85	998
#GType	X	Y	Z	LX	LZ	dA
4	0.014	0.049	-0.00266667	0.014	0.00266667	3.73333e-05
#DirnCosn: 
1, 0, 0
0, -1, 0
0, 0, -1
#EType	Lambda
4	0.818182
#NbBCs	CPX	CPY	CPZ	Value
1	0.014	0.049	-0.00266667	0
##Element Counter: 999
#DevNb	CompNb	PrimNb	Id
1	1	85	999
#GType	X	Y	Z	LX	LZ	dA
4	0.028	0.049	0.00266667	0.014	0.00266667	3.73333e-05
#DirnCosn: 
1, 0, 0
0, -1, 0
0, 0, -1
#EType	Lambda
4	0.818182
#NbBCs	CPX	CPY	CPZ	Value
1	0.028	0.049	0.00266667	0
##Element Counter: 1000
#DevNb	CompNb	PrimNb	Id
1	1	85	1000
#GType	X	Y	Z	LX	LZ	dA
4	0.028	0.049	2.1684e-19	0.014	0.00266667	3.73333e-05
#DirnCosn: 
1, 0, 0
0, -1, 0
0, 0, -1
#EType	Lambda
4	0.818182
#NbBCs	CPX	CPY	CPZ	Value
1	0.028	0.049	2.1684e-19	0
##Element Counter: 1001
#DevNb	CompNb	PrimNb	Id
1	1	85	1001
#GType	X	Y	Z	LX	LZ	dA
4	0.028	0.049	-0.00266667	0.014	0.00266667	3.73333e-05
#DirnCosn: 
1, 0, 0
0, -1, 0
0, 0, -1
#EType	Lambda
4	0.818182
#NbBCs	CPX	CPY	CPZ	Value
1	0.028	0.049	-0.00266667	0
##Element Counter: 1002
#DevNb	CompNb	PrimNb	Id
1	1	85	1002
#GType	X	Y	Z	LX	LZ	dA
4	0.042	0.049	0.00266667	0.014	0.00266667	3.73333e-05
#DirnCosn: 
1, 0, 0
0, -1, 0
0, 0, -1
#EType	Lambda
4	0.818182
#NbBCs	CPX	CPY	CPZ	Value
1	0.042	0.049	0.00266667	0
##Element Counter: 1003
#DevNb	CompNb	PrimNb	Id
1	1	85	1003
#GType	X	Y	Z	LX	LZ	dA
4	0.042	0.049	2.1684e-19	0.014	0.00266667	3.73333e-05
#DirnCosn: 
1, 0, 0
0, -1, 0
0, 0, -1
#EType	Lambda
4	0.818182
#NbBCs	CPX	CPY	CPZ	Value
1	0.042	0.049	2.1684e-19	0
##Element Counter: 1004
#DevNb	CompNb	PrimNb	Id
1	1	85	1004
#GType	X	Y	Z	LX	LZ	dA
4	0.042	0.049	-0.00266667	0.014	0.00266667	3.73333e-05
#DirnCosn: 
1, 0, 0
0, -1, 0
0, 0, -1
#EType	Lambda
4	0.818182
#NbBCs	CPX	CPY	CPZ	Value
1	0.042	0.049	-0.00266667	0
