##Element Counter: 211
#DevNb	CompNb	PrimNb	Id
1	1	11	211
#GType	X	Y	Z	LX	LZ	dA
4	0.05	-0.047619	0.00565	0.0007	0.0047619	3.33333e-06
#DirnCosn: 
0, 0, 1
1, 0, -0
-0, 1, 0
#EType	Lambda
4	0.92
#NbBCs	CPX	CPY	CPZ	Value
1	0.05	-0.047619	0.00565	0
##Element Counter: 212
#DevNb	CompNb	PrimNb	Id
1	1	11	212
#GType	X	Y	Z	LX	LZ	dA
4	0.05	-0.0428571	0.00565	0.0007	0.0047619	3.33333e-06
#DirnCosn: 
0, 0, 1
1, 0, -0
-0, 1, 0
#EType	Lambda
4	0.92
#NbBCs	CPX	CPY	CPZ	Value
1	0.05	-0.0428571	0.00565	0
##Element Counter: 213
#DevNb	CompNb	PrimNb	Id
1	1	11	213
#GType	X	Y	Z	LX	LZ	dA
4	0.05	-0.0380952	0.00565	0.0007	0.0047619	3.33333e-06
#DirnCosn: 
0, 0, 1
1, 0, -0
-0, 1, 0
#EType	Lambda
4	0.92
#NbBCs	CPX	CPY	CPZ	Value
1	0.05	-0.0380952	0.00565	0.02
##Element Counter: 214
#DevNb	CompNb	PrimNb	Id
1	1	11	214
#GType	X	Y	Z	LX	LZ	dA
4	0.05	-0.0333333	0.00565	0.0007	0.0047619	3.33333e-06
#DirnCosn: 
0, 0, 1
1, 0, -0
-0, 1, 0
#EType	Lambda
4	0.92
#NbBCs	CPX	CPY	CPZ	Value
1	0.05	-0.0333333	0.00565	0
##Element Counter: 215
#DevNb	CompNb	PrimNb	Id
1	1	11	215
#GType	X	Y	Z	LX	LZ	dA
4	0.05	-0.0285714	0.00565	0.0007	0.0047619	3.33333e-06
#DirnCosn: 
0, 0, 1
1, 0, -0
-0, 1, 0
#EType	Lambda
4	0.92
#NbBCs	CPX	CPY	CPZ	Value
1	0.05	-0.0285714	0.00565	0
##Element Counter: 216
#DevNb	CompNb	PrimNb	Id
1	1	11	216
#GType	X	Y	Z	LX	LZ	dA
4	0.05	-0.0238095	0.00565	0.0007	0.0047619	3.33333e-06
#DirnCosn: 
0, 0, 1
1, 0, -0
-0, 1, 0
#EType	Lambda
4	0.92
#NbBCs	CPX	CPY	CPZ	Value
1	0.05	-0.0238095	0.00565	0
##Element Counter: 217
#DevNb	CompNb	PrimNb	Id
1	1	11	217
#GType	X	Y	Z	LX	LZ	dA
4	0.05	-0.0190476	0.00565	0.0007	0.0047619	3.33333e-06
#DirnCosn: 
0, 0, 1
1, 0, -0
-0, 1, 0
#EType	Lambda
4	0.92
#NbBCs	CPX	CPY	CPZ	Value
1	0.05	-0.0190476	0.00565	0.0333333
##Element Counter: 218
#DevNb	CompNb	PrimNb	Id
1	1	11	218
#GType	X	Y	Z	LX	LZ	dA
4	0.05	-0.0142857	0.00565	0.0007	0.0047619	3.33333e-06
#DirnCosn: 
0, 0, 1
1, 0, -0
-0, 1, 0
#EType	Lambda
4	0.92
#NbBCs	CPX	CPY	CPZ	Value
1	0.05	-0.0142857	0.00565	0
##Element Counter: 219
#DevNb	CompNb	PrimNb	Id
1	1	11	219
#GType	X	Y	Z	LX	LZ	dA
4	0.05	-0.00952381	0.00565	0.0007	0.0047619	3.33333e-06
#DirnCosn: 
0, 0, 1
1, 0, -0
-0, 1, 0
#EType	Lambda
4	0.92
#NbBCs	CPX	CPY	CPZ	Value
1	0.05	-0.00952381	0.00565	0
##Element Counter: 220
#DevNb	CompNb	PrimNb	Id
1	1	11	220
#GType	X	Y	Z	LX	LZ	dA
4	0.05	-0.0047619	0.00565	0.0007	0.0047619	3.33333e-06
#DirnCosn: 
0, 0, 1
1, 0, -0
-0, 1, 0
#EType	Lambda
4	0.92
#NbBCs	CPX	CPY	CPZ	Value
1	0.05	-0.0047619	0.00565	0
##Element Counter: 221
#DevNb	CompNb	PrimNb	Id
1	1	11	221
#GType	X	Y	Z	LX	LZ	dA
4	0.05	3.46945e-18	0.00565	0.0007	0.0047619	3.33333e-06
#DirnCosn: 
0, 0, 1
1, 0, -0
-0, 1, 0
#EType	Lambda
4	0.92
#NbBCs	CPX	CPY	CPZ	Value
1	0.05	3.46945e-18	0.00565	0.0333333
##Element Counter: 222
#DevNb	CompNb	PrimNb	Id
1	1	11	222
#GType	X	Y	Z	LX	LZ	dA
4	0.05	0.0047619	0.00565	0.0007	0.0047619	3.33333e-06
#DirnCosn: 
0, 0, 1
1, 0, -0
-0, 1, 0
#EType	Lambda
4	0.92
#NbBCs	CPX	CPY	CPZ	Value
1	0.05	0.0047619	0.00565	0
##Element Counter: 223
#DevNb	CompNb	PrimNb	Id
1	1	11	223
#GType	X	Y	Z	LX	LZ	dA
4	0.05	0.00952381	0.00565	0.0007	0.0047619	3.33333e-06
#DirnCosn: 
0, 0, 1
1, 0, -0
-0, 1, 0
#EType	Lambda
4	0.92
#NbBCs	CPX	CPY	CPZ	Value
1	0.05	0.00952381	0.00565	0
##Element Counter: 224
#DevNb	CompNb	PrimNb	Id
1	1	11	224
#GType	X	Y	Z	LX	LZ	dA
4	0.05	0.0142857	0.00565	0.0007	0.0047619	3.33333e-06
#DirnCosn: 
0, 0, 1
1, 0, -0
-0, 1, 0
#EType	Lambda
4	0.92
#NbBCs	CPX	CPY	CPZ	Value
1	0.05	0.0142857	0.00565	0
##Element Counter: 225
#DevNb	CompNb	PrimNb	Id
1	1	11	225
#GType	X	Y	Z	LX	LZ	dA
4	0.05	0.0190476	0.00565	0.0007	0.0047619	3.33333e-06
#DirnCosn: 
0, 0, 1
1, 0, -0
-0, 1, 0
#EType	Lambda
4	0.92
#NbBCs	CPX	CPY	CPZ	Value
1	0.05	0.0190476	0.00565	0.0333333
##Element Counter: 226
#DevNb	CompNb	PrimNb	Id
1	1	11	226
#GType	X	Y	Z	LX	LZ	dA
4	0.05	0.0238095	0.00565	0.0007	0.0047619	3.33333e-06
#DirnCosn: 
0, 0, 1
1, 0, -0
-0, 1, 0
#EType	Lambda
4	0.92
#NbBCs	CPX	CPY	CPZ	Value
1	0.05	0.0238095	0.00565	0
##Element Counter: 227
#DevNb	CompNb	PrimNb	Id
1	1	11	227
#GType	X	Y	Z	LX	LZ	dA
4	0.05	0.0285714	0.00565	0.0007	0.0047619	3.33333e-06
#DirnCosn: 
0, 0, 1
1, 0, -0
-0, 1, 0
#EType	Lambda
4	0.92
#NbBCs	CPX	CPY	CPZ	Value
1	0.05	0.0285714	0.00565	0
##Element Counter: 228
#DevNb	CompNb	PrimNb	Id
1	1	11	228
#GType	X	Y	Z	LX	LZ	dA
4	0.05	0.0333333	0.00565	0.0007	0.0047619	3.33333e-06
#DirnCosn: 
0, 0, 1
1, 0, -0
-0, 1, 0
#EType	Lambda
4	0.92
#NbBCs	CPX	CPY	CPZ	Value
1	0.05	0.0333333	0.00565	0
##Element Counter: 229
#DevNb	CompNb	PrimNb	Id
1	1	11	229
#GType	X	Y	Z	LX	LZ	dA
4	0.05	0.0380952	0.00565	0.0007	0.0047619	3.33333e-06
#DirnCosn: 
0, 0, 1
1, 0, -0
-0, 1, 0
#EType	Lambda
4	0.92
#NbBCs	CPX	CPY	CPZ	Value
1	0.05	0.0380952	0.00565	0.0333333
##Element Counter: 230
#DevNb	CompNb	PrimNb	Id
1	1	11	230
#GType	X	Y	Z	LX	LZ	dA
4	0.05	0.0428571	0.00565	0.0007	0.0047619	3.33333e-06
#DirnCosn: 
0, 0, 1
1, 0, -0
-0, 1, 0
#EType	Lambda
4	0.92
#NbBCs	CPX	CPY	CPZ	Value
1	0.05	0.0428571	0.00565	0
##Element Counter: 231
#DevNb	CompNb	PrimNb	Id
1	1	11	231
#GType	X	Y	Z	LX	LZ	dA
4	0.05	0.047619	0.00565	0.0007	0.0047619	3.33333e-06
#DirnCosn: 
0, 0, 1
1, 0, -0
-0, 1, 0
#EType	Lambda
4	0.92
#NbBCs	CPX	CPY	CPZ	Value
1	0.05	0.047619	0.00565	0
