##Element Counter: 361
#DevNb	CompNb	PrimNb	Id
1	1	41	361
#GType	X	Y	Z	LX	LZ	dA
4	-0.051	-0.04	-0.003	0.02	0.002	4e-05
#DirnCosn: 
0, 1, 0
-1, -0, 0
0, -0, 1
#EType	Lambda
4	0.92
#NbBCs	CPX	CPY	CPZ	Value
1	-0.051	-0.04	-0.003	0
##Element Counter: 362
#DevNb	CompNb	PrimNb	Id
1	1	41	362
#GType	X	Y	Z	LX	LZ	dA
4	-0.051	-0.04	-0.001	0.02	0.002	4e-05
#DirnCosn: 
0, 1, 0
-1, -0, 0
0, -0, 1
#EType	Lambda
4	0.92
#NbBCs	CPX	CPY	CPZ	Value
1	-0.051	-0.04	-0.001	0
##Element Counter: 363
#DevNb	CompNb	PrimNb	Id
1	1	41	363
#GType	X	Y	Z	LX	LZ	dA
4	-0.051	-0.04	0.001	0.02	0.002	4e-05
#DirnCosn: 
0, 1, 0
-1, -0, 0
0, -0, 1
#EType	Lambda
4	0.92
#NbBCs	CPX	CPY	CPZ	Value
1	-0.051	-0.04	0.001	0
##Element Counter: 364
#DevNb	CompNb	PrimNb	Id
1	1	41	364
#GType	X	Y	Z	LX	LZ	dA
4	-0.051	-0.04	0.003	0.02	0.002	4e-05
#DirnCosn: 
0, 1, 0
-1, -0, 0
0, -0, 1
#EType	Lambda
4	0.92
#NbBCs	CPX	CPY	CPZ	Value
1	-0.051	-0.04	0.003	0
##Element Counter: 365
#DevNb	CompNb	PrimNb	Id
1	1	41	365
#GType	X	Y	Z	LX	LZ	dA
4	-0.051	-0.02	-0.003	0.02	0.002	4e-05
#DirnCosn: 
0, 1, 0
-1, -0, 0
0, -0, 1
#EType	Lambda
4	0.92
#NbBCs	CPX	CPY	CPZ	Value
1	-0.051	-0.02	-0.003	0
##Element Counter: 366
#DevNb	CompNb	PrimNb	Id
1	1	41	366
#GType	X	Y	Z	LX	LZ	dA
4	-0.051	-0.02	-0.001	0.02	0.002	4e-05
#DirnCosn: 
0, 1, 0
-1, -0, 0
0, -0, 1
#EType	Lambda
4	0.92
#NbBCs	CPX	CPY	CPZ	Value
1	-0.051	-0.02	-0.001	0
##Element Counter: 367
#DevNb	CompNb	PrimNb	Id
1	1	41	367
#GType	X	Y	Z	LX	LZ	dA
4	-0.051	-0.02	0.001	0.02	0.002	4e-05
#DirnCosn: 
0, 1, 0
-1, -0, 0
0, -0, 1
#EType	Lambda
4	0.92
#NbBCs	CPX	CPY	CPZ	Value
1	-0.051	-0.02	0.001	0
##Element Counter: 368
#DevNb	CompNb	PrimNb	Id
1	1	41	368
#GType	X	Y	Z	LX	LZ	dA
4	-0.051	-0.02	0.003	0.02	0.002	4e-05
#DirnCosn: 
0, 1, 0
-1, -0, 0
0, -0, 1
#EType	Lambda
4	0.92
#NbBCs	CPX	CPY	CPZ	Value
1	-0.051	-0.02	0.003	0
##Element Counter: 369
#DevNb	CompNb	PrimNb	Id
1	1	41	369
#GType	X	Y	Z	LX	LZ	dA
4	-0.051	-3.46945e-18	-0.003	0.02	0.002	4e-05
#DirnCosn: 
0, 1, 0
-1, -0, 0
0, -0, 1
#EType	Lambda
4	0.92
#NbBCs	CPX	CPY	CPZ	Value
1	-0.051	-3.46945e-18	-0.003	0
##Element Counter: 370
#DevNb	CompNb	PrimNb	Id
1	1	41	370
#GType	X	Y	Z	LX	LZ	dA
4	-0.051	-3.46945e-18	-0.001	0.02	0.002	4e-05
#DirnCosn: 
0, 1, 0
-1, -0, 0
0, -0, 1
#EType	Lambda
4	0.92
#NbBCs	CPX	CPY	CPZ	Value
1	-0.051	-3.46945e-18	-0.001	0
##Element Counter: 371
#DevNb	CompNb	PrimNb	Id
1	1	41	371
#GType	X	Y	Z	LX	LZ	dA
4	-0.051	-3.46945e-18	0.001	0.02	0.002	4e-05
#DirnCosn: 
0, 1, 0
-1, -0, 0
0, -0, 1
#EType	Lambda
4	0.92
#NbBCs	CPX	CPY	CPZ	Value
1	-0.051	-3.46945e-18	0.001	0
##Element Counter: 372
#DevNb	CompNb	PrimNb	Id
1	1	41	372
#GType	X	Y	Z	LX	LZ	dA
4	-0.051	-3.46945e-18	0.003	0.02	0.002	4e-05
#DirnCosn: 
0, 1, 0
-1, -0, 0
0, -0, 1
#EType	Lambda
4	0.92
#NbBCs	CPX	CPY	CPZ	Value
1	-0.051	-3.46945e-18	0.003	0
##Element Counter: 373
#DevNb	CompNb	PrimNb	Id
1	1	41	373
#GType	X	Y	Z	LX	LZ	dA
4	-0.051	0.02	-0.003	0.02	0.002	4e-05
#DirnCosn: 
0, 1, 0
-1, -0, 0
0, -0, 1
#EType	Lambda
4	0.92
#NbBCs	CPX	CPY	CPZ	Value
1	-0.051	0.02	-0.003	0
##Element Counter: 374
#DevNb	CompNb	PrimNb	Id
1	1	41	374
#GType	X	Y	Z	LX	LZ	dA
4	-0.051	0.02	-0.001	0.02	0.002	4e-05
#DirnCosn: 
0, 1, 0
-1, -0, 0
0, -0, 1
#EType	Lambda
4	0.92
#NbBCs	CPX	CPY	CPZ	Value
1	-0.051	0.02	-0.001	0
##Element Counter: 375
#DevNb	CompNb	PrimNb	Id
1	1	41	375
#GType	X	Y	Z	LX	LZ	dA
4	-0.051	0.02	0.001	0.02	0.002	4e-05
#DirnCosn: 
0, 1, 0
-1, -0, 0
0, -0, 1
#EType	Lambda
4	0.92
#NbBCs	CPX	CPY	CPZ	Value
1	-0.051	0.02	0.001	0
##Element Counter: 376
#DevNb	CompNb	PrimNb	Id
1	1	41	376
#GType	X	Y	Z	LX	LZ	dA
4	-0.051	0.02	0.003	0.02	0.002	4e-05
#DirnCosn: 
0, 1, 0
-1, -0, 0
0, -0, 1
#EType	Lambda
4	0.92
#NbBCs	CPX	CPY	CPZ	Value
1	-0.051	0.02	0.003	0
##Element Counter: 377
#DevNb	CompNb	PrimNb	Id
1	1	41	377
#GType	X	Y	Z	LX	LZ	dA
4	-0.051	0.04	-0.003	0.02	0.002	4e-05
#DirnCosn: 
0, 1, 0
-1, -0, 0
0, -0, 1
#EType	Lambda
4	0.92
#NbBCs	CPX	CPY	CPZ	Value
1	-0.051	0.04	-0.003	0
##Element Counter: 378
#DevNb	CompNb	PrimNb	Id
1	1	41	378
#GType	X	Y	Z	LX	LZ	dA
4	-0.051	0.04	-0.001	0.02	0.002	4e-05
#DirnCosn: 
0, 1, 0
-1, -0, 0
0, -0, 1
#EType	Lambda
4	0.92
#NbBCs	CPX	CPY	CPZ	Value
1	-0.051	0.04	-0.001	0
##Element Counter: 379
#DevNb	CompNb	PrimNb	Id
1	1	41	379
#GType	X	Y	Z	LX	LZ	dA
4	-0.051	0.04	0.001	0.02	0.002	4e-05
#DirnCosn: 
0, 1, 0
-1, -0, 0
0, -0, 1
#EType	Lambda
4	0.92
#NbBCs	CPX	CPY	CPZ	Value
1	-0.051	0.04	0.001	0
##Element Counter: 380
#DevNb	CompNb	PrimNb	Id
1	1	41	380
#GType	X	Y	Z	LX	LZ	dA
4	-0.051	0.04	0.003	0.02	0.002	4e-05
#DirnCosn: 
0, 1, 0
-1, -0, 0
0, -0, 1
#EType	Lambda
4	0.92
#NbBCs	CPX	CPY	CPZ	Value
1	-0.051	0.04	0.003	0
