##Element Counter: 26
#DevNb	CompNb	PrimNb	Id
1	1	6	26
#GType	X	Y	Z	LX	LZ	dA
4	-0.05	0.04	0.0052	0.0002	0.02	4e-06
#DirnCosn: 
0, 0, 1
-1, -0, 0
0, -1, 0
#EType	Lambda
1	0
#NbBCs	CPX	CPY	CPZ	Value
1	-0.05	0.04	0.0052	0
##Element Counter: 27
#DevNb	CompNb	PrimNb	Id
1	1	6	27
#GType	X	Y	Z	LX	LZ	dA
4	-0.05	0.02	0.0052	0.0002	0.02	4e-06
#DirnCosn: 
0, 0, 1
-1, -0, 0
0, -1, 0
#EType	Lambda
1	0
#NbBCs	CPX	CPY	CPZ	Value
1	-0.05	0.02	0.0052	0
##Element Counter: 28
#DevNb	CompNb	PrimNb	Id
1	1	6	28
#GType	X	Y	Z	LX	LZ	dA
4	-0.05	3.46945e-18	0.0052	0.0002	0.02	4e-06
#DirnCosn: 
0, 0, 1
-1, -0, 0
0, -1, 0
#EType	Lambda
1	0
#NbBCs	CPX	CPY	CPZ	Value
1	-0.05	3.46945e-18	0.0052	0
##Element Counter: 29
#DevNb	CompNb	PrimNb	Id
1	1	6	29
#GType	X	Y	Z	LX	LZ	dA
4	-0.05	-0.02	0.0052	0.0002	0.02	4e-06
#DirnCosn: 
0, 0, 1
-1, -0, 0
0, -1, 0
#EType	Lambda
1	0
#NbBCs	CPX	CPY	CPZ	Value
1	-0.05	-0.02	0.0052	0
##Element Counter: 30
#DevNb	CompNb	PrimNb	Id
1	1	6	30
#GType	X	Y	Z	LX	LZ	dA
4	-0.05	-0.04	0.0052	0.0002	0.02	4e-06
#DirnCosn: 
0, 0, 1
-1, -0, 0
0, -1, 0
#EType	Lambda
1	0
#NbBCs	CPX	CPY	CPZ	Value
1	-0.05	-0.04	0.0052	0
