##Element Counter: 415
#DevNb	CompNb	PrimNb	Id
1	1	60	415
#GType	X	Y	Z	LX	LZ	dA
4	-0.049	-0.0401	0.003	0.0198	0.002	3.96e-05
#DirnCosn: 
0, 1, 0
1, 0, -0
-0, 0, -1
#EType	Lambda
4	0.92
#NbBCs	CPX	CPY	CPZ	Value
1	-0.049	-0.0401	0.003	0
##Element Counter: 416
#DevNb	CompNb	PrimNb	Id
1	1	60	416
#GType	X	Y	Z	LX	LZ	dA
4	-0.049	-0.0401	0.001	0.0198	0.002	3.96e-05
#DirnCosn: 
0, 1, 0
1, 0, -0
-0, 0, -1
#EType	Lambda
4	0.92
#NbBCs	CPX	CPY	CPZ	Value
1	-0.049	-0.0401	0.001	0
##Element Counter: 417
#DevNb	CompNb	PrimNb	Id
1	1	60	417
#GType	X	Y	Z	LX	LZ	dA
4	-0.049	-0.0401	-0.001	0.0198	0.002	3.96e-05
#DirnCosn: 
0, 1, 0
1, 0, -0
-0, 0, -1
#EType	Lambda
4	0.92
#NbBCs	CPX	CPY	CPZ	Value
1	-0.049	-0.0401	-0.001	0
##Element Counter: 418
#DevNb	CompNb	PrimNb	Id
1	1	60	418
#GType	X	Y	Z	LX	LZ	dA
4	-0.049	-0.0401	-0.003	0.0198	0.002	3.96e-05
#DirnCosn: 
0, 1, 0
1, 0, -0
-0, 0, -1
#EType	Lambda
4	0.92
#NbBCs	CPX	CPY	CPZ	Value
1	-0.049	-0.0401	-0.003	0
##Element Counter: 419
#DevNb	CompNb	PrimNb	Id
1	1	60	419
#GType	X	Y	Z	LX	LZ	dA
4	-0.049	-0.0203	0.003	0.0198	0.002	3.96e-05
#DirnCosn: 
0, 1, 0
1, 0, -0
-0, 0, -1
#EType	Lambda
4	0.92
#NbBCs	CPX	CPY	CPZ	Value
1	-0.049	-0.0203	0.003	0
##Element Counter: 420
#DevNb	CompNb	PrimNb	Id
1	1	60	420
#GType	X	Y	Z	LX	LZ	dA
4	-0.049	-0.0203	0.001	0.0198	0.002	3.96e-05
#DirnCosn: 
0, 1, 0
1, 0, -0
-0, 0, -1
#EType	Lambda
4	0.92
#NbBCs	CPX	CPY	CPZ	Value
1	-0.049	-0.0203	0.001	0
##Element Counter: 421
#DevNb	CompNb	PrimNb	Id
1	1	60	421
#GType	X	Y	Z	LX	LZ	dA
4	-0.049	-0.0203	-0.001	0.0198	0.002	3.96e-05
#DirnCosn: 
0, 1, 0
1, 0, -0
-0, 0, -1
#EType	Lambda
4	0.92
#NbBCs	CPX	CPY	CPZ	Value
1	-0.049	-0.0203	-0.001	0
##Element Counter: 422
#DevNb	CompNb	PrimNb	Id
1	1	60	422
#GType	X	Y	Z	LX	LZ	dA
4	-0.049	-0.0203	-0.003	0.0198	0.002	3.96e-05
#DirnCosn: 
0, 1, 0
1, 0, -0
-0, 0, -1
#EType	Lambda
4	0.92
#NbBCs	CPX	CPY	CPZ	Value
1	-0.049	-0.0203	-0.003	0
##Element Counter: 423
#DevNb	CompNb	PrimNb	Id
1	1	60	423
#GType	X	Y	Z	LX	LZ	dA
4	-0.049	-0.0005	0.003	0.0198	0.002	3.96e-05
#DirnCosn: 
0, 1, 0
1, 0, -0
-0, 0, -1
#EType	Lambda
4	0.92
#NbBCs	CPX	CPY	CPZ	Value
1	-0.049	-0.0005	0.003	0
##Element Counter: 424
#DevNb	CompNb	PrimNb	Id
1	1	60	424
#GType	X	Y	Z	LX	LZ	dA
4	-0.049	-0.0005	0.001	0.0198	0.002	3.96e-05
#DirnCosn: 
0, 1, 0
1, 0, -0
-0, 0, -1
#EType	Lambda
4	0.92
#NbBCs	CPX	CPY	CPZ	Value
1	-0.049	-0.0005	0.001	0
##Element Counter: 425
#DevNb	CompNb	PrimNb	Id
1	1	60	425
#GType	X	Y	Z	LX	LZ	dA
4	-0.049	-0.0005	-0.001	0.0198	0.002	3.96e-05
#DirnCosn: 
0, 1, 0
1, 0, -0
-0, 0, -1
#EType	Lambda
4	0.92
#NbBCs	CPX	CPY	CPZ	Value
1	-0.049	-0.0005	-0.001	0
##Element Counter: 426
#DevNb	CompNb	PrimNb	Id
1	1	60	426
#GType	X	Y	Z	LX	LZ	dA
4	-0.049	-0.0005	-0.003	0.0198	0.002	3.96e-05
#DirnCosn: 
0, 1, 0
1, 0, -0
-0, 0, -1
#EType	Lambda
4	0.92
#NbBCs	CPX	CPY	CPZ	Value
1	-0.049	-0.0005	-0.003	0
##Element Counter: 427
#DevNb	CompNb	PrimNb	Id
1	1	60	427
#GType	X	Y	Z	LX	LZ	dA
4	-0.049	0.0193	0.003	0.0198	0.002	3.96e-05
#DirnCosn: 
0, 1, 0
1, 0, -0
-0, 0, -1
#EType	Lambda
4	0.92
#NbBCs	CPX	CPY	CPZ	Value
1	-0.049	0.0193	0.003	0
##Element Counter: 428
#DevNb	CompNb	PrimNb	Id
1	1	60	428
#GType	X	Y	Z	LX	LZ	dA
4	-0.049	0.0193	0.001	0.0198	0.002	3.96e-05
#DirnCosn: 
0, 1, 0
1, 0, -0
-0, 0, -1
#EType	Lambda
4	0.92
#NbBCs	CPX	CPY	CPZ	Value
1	-0.049	0.0193	0.001	0
##Element Counter: 429
#DevNb	CompNb	PrimNb	Id
1	1	60	429
#GType	X	Y	Z	LX	LZ	dA
4	-0.049	0.0193	-0.001	0.0198	0.002	3.96e-05
#DirnCosn: 
0, 1, 0
1, 0, -0
-0, 0, -1
#EType	Lambda
4	0.92
#NbBCs	CPX	CPY	CPZ	Value
1	-0.049	0.0193	-0.001	0
##Element Counter: 430
#DevNb	CompNb	PrimNb	Id
1	1	60	430
#GType	X	Y	Z	LX	LZ	dA
4	-0.049	0.0193	-0.003	0.0198	0.002	3.96e-05
#DirnCosn: 
0, 1, 0
1, 0, -0
-0, 0, -1
#EType	Lambda
4	0.92
#NbBCs	CPX	CPY	CPZ	Value
1	-0.049	0.0193	-0.003	0
##Element Counter: 431
#DevNb	CompNb	PrimNb	Id
1	1	60	431
#GType	X	Y	Z	LX	LZ	dA
4	-0.049	0.0391	0.003	0.0198	0.002	3.96e-05
#DirnCosn: 
0, 1, 0
1, 0, -0
-0, 0, -1
#EType	Lambda
4	0.92
#NbBCs	CPX	CPY	CPZ	Value
1	-0.049	0.0391	0.003	0
##Element Counter: 432
#DevNb	CompNb	PrimNb	Id
1	1	60	432
#GType	X	Y	Z	LX	LZ	dA
4	-0.049	0.0391	0.001	0.0198	0.002	3.96e-05
#DirnCosn: 
0, 1, 0
1, 0, -0
-0, 0, -1
#EType	Lambda
4	0.92
#NbBCs	CPX	CPY	CPZ	Value
1	-0.049	0.0391	0.001	0
##Element Counter: 433
#DevNb	CompNb	PrimNb	Id
1	1	60	433
#GType	X	Y	Z	LX	LZ	dA
4	-0.049	0.0391	-0.001	0.0198	0.002	3.96e-05
#DirnCosn: 
0, 1, 0
1, 0, -0
-0, 0, -1
#EType	Lambda
4	0.92
#NbBCs	CPX	CPY	CPZ	Value
1	-0.049	0.0391	-0.001	0
##Element Counter: 434
#DevNb	CompNb	PrimNb	Id
1	1	60	434
#GType	X	Y	Z	LX	LZ	dA
4	-0.049	0.0391	-0.003	0.0198	0.002	3.96e-05
#DirnCosn: 
0, 1, 0
1, 0, -0
-0, 0, -1
#EType	Lambda
4	0.92
#NbBCs	CPX	CPY	CPZ	Value
1	-0.049	0.0391	-0.003	0
