##Element Counter: 121
#DevNb	CompNb	PrimNb	Id
1	1	25	121
#GType	X	Y	Z	LX	LZ	dA
4	-0.04	0.05	-0.0052	0.02	0.0002	4e-06
#DirnCosn: 
1, 0, 0
-0, 1, 0
0, -0, 1
#EType	Lambda
1	0
#NbBCs	CPX	CPY	CPZ	Value
1	-0.04	0.05	-0.0052	0
##Element Counter: 122
#DevNb	CompNb	PrimNb	Id
1	1	25	122
#GType	X	Y	Z	LX	LZ	dA
4	-0.02	0.05	-0.0052	0.02	0.0002	4e-06
#DirnCosn: 
1, 0, 0
-0, 1, 0
0, -0, 1
#EType	Lambda
1	0
#NbBCs	CPX	CPY	CPZ	Value
1	-0.02	0.05	-0.0052	0
##Element Counter: 123
#DevNb	CompNb	PrimNb	Id
1	1	25	123
#GType	X	Y	Z	LX	LZ	dA
4	-3.46945e-18	0.05	-0.0052	0.02	0.0002	4e-06
#DirnCosn: 
1, 0, 0
-0, 1, 0
0, -0, 1
#EType	Lambda
1	0
#NbBCs	CPX	CPY	CPZ	Value
1	-3.46945e-18	0.05	-0.0052	0
##Element Counter: 124
#DevNb	CompNb	PrimNb	Id
1	1	25	124
#GType	X	Y	Z	LX	LZ	dA
4	0.02	0.05	-0.0052	0.02	0.0002	4e-06
#DirnCosn: 
1, 0, 0
-0, 1, 0
0, -0, 1
#EType	Lambda
1	0
#NbBCs	CPX	CPY	CPZ	Value
1	0.02	0.05	-0.0052	0
##Element Counter: 125
#DevNb	CompNb	PrimNb	Id
1	1	25	125
#GType	X	Y	Z	LX	LZ	dA
4	0.04	0.05	-0.0052	0.02	0.0002	4e-06
#DirnCosn: 
1, 0, 0
-0, 1, 0
0, -0, 1
#EType	Lambda
1	0
#NbBCs	CPX	CPY	CPZ	Value
1	0.04	0.05	-0.0052	0
