##Element Counter: 401
#DevNb	CompNb	PrimNb	Id
1	1	43	401
#GType	X	Y	Z	LX	LZ	dA
4	-0.049	0.0495	-0.0032	0.001	0.0016	1.6e-06
#DirnCosn: 
0, 1, 0
-1, -0, 0
0, -0, 1
#EType	Lambda
4	0.92
#NbBCs	CPX	CPY	CPZ	Value
1	-0.049	0.0495	-0.0032	0
##Element Counter: 402
#DevNb	CompNb	PrimNb	Id
1	1	43	402
#GType	X	Y	Z	LX	LZ	dA
4	-0.049	0.0495	-0.0016	0.001	0.0016	1.6e-06
#DirnCosn: 
0, 1, 0
-1, -0, 0
0, -0, 1
#EType	Lambda
4	0.92
#NbBCs	CPX	CPY	CPZ	Value
1	-0.049	0.0495	-0.0016	0
##Element Counter: 403
#DevNb	CompNb	PrimNb	Id
1	1	43	403
#GType	X	Y	Z	LX	LZ	dA
4	-0.049	0.0495	2.1684e-19	0.001	0.0016	1.6e-06
#DirnCosn: 
0, 1, 0
-1, -0, 0
0, -0, 1
#EType	Lambda
4	0.92
#NbBCs	CPX	CPY	CPZ	Value
1	-0.049	0.0495	2.1684e-19	0
##Element Counter: 404
#DevNb	CompNb	PrimNb	Id
1	1	43	404
#GType	X	Y	Z	LX	LZ	dA
4	-0.049	0.0495	0.0016	0.001	0.0016	1.6e-06
#DirnCosn: 
0, 1, 0
-1, -0, 0
0, -0, 1
#EType	Lambda
4	0.92
#NbBCs	CPX	CPY	CPZ	Value
1	-0.049	0.0495	0.0016	0
##Element Counter: 405
#DevNb	CompNb	PrimNb	Id
1	1	43	405
#GType	X	Y	Z	LX	LZ	dA
4	-0.049	0.0495	0.0032	0.001	0.0016	1.6e-06
#DirnCosn: 
0, 1, 0
-1, -0, 0
0, -0, 1
#EType	Lambda
4	0.92
#NbBCs	CPX	CPY	CPZ	Value
1	-0.049	0.0495	0.0032	0
