#prim: 11, nvertex: 4
Node1: 0.05	0.05	0.0053
Node2: 0.05	0.05	0.006
Node3: 0.05	-0.05	0.006
Node4: 0.05	-0.05	0.0053
PrimOrigin: 0.05	0	0.00565
Primitive lengths: 0.0007	0.1
Norm: 1	0	-0
#volref1: 2, volref2: -1
#NbSegX: 1, NbSegZ: 5
#ParentObj: 1	EType: 4
#SurfX	SurfY	SurfZ	SurfLZ	SurfLZ
0.05	0	0.00565	0.0007	0.1
#DirnCosn: 
0, 0, 1
1, 0, -0
-0, 1, 0
#SurfLambda: 0.92	SurfV: 0
Using the input, the aspect ratio of the elements on prim: 11
NbSegX: 1, SurfElLX: 0.0007, NbSegZ: 5, SurfElLZ: 0.02, AR: 0.035
After analyzing the aspect ratio of the elements
NbSegX: 1, SurfElLX: 0.0007, NbSegZ: 5, SurfElLZ: 0.02, AR: 0.035
Element begin: 51, Element end: 55
Number of elements on primitive: 5
