#prim: 29, nvertex: 4
Node1: -0.05	-0.05	-0.0053
Node2: -0.05	0.05	-0.0053
Node3: 0.05	0.05	-0.0053
Node4: 0.05	-0.05	-0.0053
PrimOrigin: 0	0	-0.0053
Primitive lengths: 0.1	0.1
Norm: -0	-0	-1
#volref1: 0, volref2: -1
#NbSegX: 5, NbSegZ: 5
#ParentObj: 1	EType: 1
#SurfX	SurfY	SurfZ	SurfLZ	SurfLZ
0	0	-0.0053	0.1	0.1
#DirnCosn: 
0, 1, 0
-0, -0, -1
-1, 0, 0
#SurfLambda: 0	SurfV: 1000
Using the input, the aspect ratio of the elements on prim: 29
NbSegX: 5, SurfElLX: 0.02, NbSegZ: 5, SurfElLZ: 0.02, AR: 1
After analyzing the aspect ratio of the elements
NbSegX: 5, SurfElLX: 0.02, NbSegZ: 5, SurfElLZ: 0.02, AR: 1
Element begin: 141, Element end: 165
Number of elements on primitive: 25
