#prim: 16, nvertex: 4
Node1: 0.05	-0.05	-0.0051
Node2: 0.05	-0.05	-0.004
Node3: -0.05	-0.05	-0.004
Node4: -0.05	-0.05	-0.0051
PrimOrigin: 0	-0.05	-0.00455
Primitive lengths: 0.0011	0.1
Norm: 0	-1	0
#volref1: 1, volref2: -1
#NbSegX: 1, NbSegZ: 5
#ParentObj: 1	EType: 4
#SurfX	SurfY	SurfZ	SurfLZ	SurfLZ
0	-0.05	-0.00455	0.0011	0.1
#DirnCosn: 
0, 0, 1
0, -1, 0
1, 0, -0
#SurfLambda: 0.92	SurfV: 0
Using the input, the aspect ratio of the elements on prim: 16
NbSegX: 1, SurfElLX: 0.0011, NbSegZ: 5, SurfElLZ: 0.02, AR: 0.055
After analyzing the aspect ratio of the elements
NbSegX: 1, SurfElLX: 0.0011, NbSegZ: 5, SurfElLZ: 0.02, AR: 0.055
Element begin: 76, Element end: 80
Number of elements on primitive: 5
