#prim: 26, nvertex: 4
Node1: -0.05	0.05	0.004
Node2: 0.05	0.05	0.004
Node3: 0.05	0.05	0.0051
Node4: -0.05	0.05	0.0051
PrimOrigin: 0	0.05	0.00455
Primitive lengths: 0.1	0.0011
Norm: -0	1	0
#volref1: 2, volref2: -1
#NbSegX: 5, NbSegZ: 1
#ParentObj: 1	EType: 4
#SurfX	SurfY	SurfZ	SurfLZ	SurfLZ
0	0.05	0.00455	0.1	0.0011
#DirnCosn: 
1, 0, 0
-0, 1, 0
0, -0, 1
#SurfLambda: 0.92	SurfV: 0
Using the input, the aspect ratio of the elements on prim: 26
NbSegX: 5, SurfElLX: 0.02, NbSegZ: 1, SurfElLZ: 0.0011, AR: 18.1818
After analyzing the aspect ratio of the elements
NbSegX: 5, SurfElLX: 0.02, NbSegZ: 1, SurfElLZ: 0.0011, AR: 18.1818
Element begin: 126, Element end: 130
Number of elements on primitive: 5
