#prim: 32, nvertex: 4
Node1: -0.051	-0.05	-0.004
Node2: -0.051	0.05	-0.004
Node3: -0.05	0.05	-0.004
Node4: -0.05	-0.05	-0.004
PrimOrigin: -0.0505	0	-0.004
Primitive lengths: 0.1	0.001
Norm: -0	-0	-1
#volref1: 4, volref2: -1
#NbSegX: 5, NbSegZ: 1
#ParentObj: 1	EType: 4
#SurfX	SurfY	SurfZ	SurfLZ	SurfLZ
-0.0505	0	-0.004	0.1	0.001
#DirnCosn: 
0, 1, 0
-0, -0, -1
-1, 0, 0
#SurfLambda: 0.92	SurfV: 0
Using the input, the aspect ratio of the elements on prim: 32
NbSegX: 5, SurfElLX: 0.02, NbSegZ: 1, SurfElLZ: 0.001, AR: 20
After analyzing the aspect ratio of the elements
NbSegX: 5, SurfElLX: 0.02, NbSegZ: 1, SurfElLZ: 0.001, AR: 20
Element begin: 216, Element end: 220
Number of elements on primitive: 5
