#prim: 50, nvertex: 4
Node1: -0.049	-0.05	-0.004
Node2: -0.049	0.049	-0.004
Node3: -0.049	0.049	0.004
Node4: -0.049	-0.05	0.004
PrimOrigin: -0.049	-0.0005	0
Primitive lengths: 0.099	0.008
Norm: 1	0	-0
#volref1: 4, volref2: -1
#NbSegX: 5, NbSegZ: 5
#ParentObj: 1	EType: 4
#SurfX	SurfY	SurfZ	SurfLZ	SurfLZ
-0.049	-0.0005	0	0.099	0.008
#DirnCosn: 
0, 1, 0
1, 0, -0
-0, 0, -1
#SurfLambda: 0.92	SurfV: 0
Using the input, the aspect ratio of the elements on prim: 50
NbSegX: 5, SurfElLX: 0.0198, NbSegZ: 5, SurfElLZ: 0.0016, AR: 12.375
After analyzing the aspect ratio of the elements
NbSegX: 5, SurfElLX: 0.0198, NbSegZ: 4, SurfElLZ: 0.002, AR: 9.9
Element begin: 375, Element end: 394
Number of elements on primitive: 20
